2019-03-29 09:37:30,321 INFO EInvoice.CAdmin.Controllers.AccountController  []['ajzkviq1llw1wcr0xkhaqwl4][113.160.13.121][113.160.13.121][LogOn] - Login: 0100113007_admin_demo 
2019-03-29 09:37:31,429 INFO EInvoice.CAdmin.Controllers.AccountController  []['ajzkviq1llw1wcr0xkhaqwl4][113.160.13.121][113.160.13.121][LogOn] - LogOn:, Date:29/03/2019 9:37:31 SA 
2019-03-29 09:37:31,491 DEBUG EInvoice.CAdmin.Controllers.EInvoiceController  [0100113007_admin_demo]['ajzkviq1llw1wcr0xkhaqwl4][113.160.13.121][113.160.13.121][Index] - EInvoiceController Index 
2019-03-29 09:37:31,491 INFO EInvoice.CAdmin.Controllers.EInvoiceController  [0100113007_admin_demo]['ajzkviq1llw1wcr0xkhaqwl4][113.160.13.121][113.160.13.121][Index] - Index1937 pattern:  serial:  
2019-03-29 09:37:33,644 DEBUG EInvoice.CAdmin.Controllers.CompanyController  [0100113007_admin_demo]['ajzkviq1llw1wcr0xkhaqwl4][113.160.13.121][113.160.13.121][MenuBycomp] - MenuBycomp 
2019-03-29 09:37:51,225 INFO EInvoice.CAdmin.Controllers.ShareController  [0100113007_admin_demo]['ajzkviq1llw1wcr0xkhaqwl4][113.160.13.121][113.160.13.121][ajxPreview] - call: cnWH+/5ZPvHIiznwKKxMrg== pattern: 01GTKT0/001 company: 1937 
2019-03-29 09:37:51,771 DEBUG EInvoice.CAdmin.Controllers.EInvoiceController  [0100113007_admin_demo]['ajzkviq1llw1wcr0xkhaqwl4][113.160.13.121][113.160.13.121][Index] - EInvoiceController Index 
2019-03-29 09:37:51,771 INFO EInvoice.CAdmin.Controllers.EInvoiceController  [0100113007_admin_demo]['ajzkviq1llw1wcr0xkhaqwl4][113.160.13.121][113.160.13.121][Index] - Index1937 pattern:  serial:  
2019-03-29 09:37:51,818 DEBUG EInvoice.CAdmin.Controllers.CompanyController  [0100113007_admin_demo]['ajzkviq1llw1wcr0xkhaqwl4][113.160.13.121][113.160.13.121][MenuBycomp] - MenuBycomp 
2019-03-29 09:38:18,316 INFO EInvoice.CAdmin.Controllers.AccountController  []['2p2vz4unz5ax2yht4hx34oj3][113.160.13.121][113.160.13.121][LogOn] - Login: 0100113007_admin_demo 
2019-03-29 09:38:31,997 INFO EInvoice.CAdmin.Controllers.AccountController  []['2p2vz4unz5ax2yht4hx34oj3][113.160.13.121][113.160.13.121][LogOn] - Login: 0100113007_admin_demo 
2019-03-29 09:38:32,028 INFO EInvoice.CAdmin.Controllers.AccountController  []['2p2vz4unz5ax2yht4hx34oj3][113.160.13.121][113.160.13.121][LogOn] - LogOn:, Date:29/03/2019 9:38:32 SA 
2019-03-29 09:38:32,044 DEBUG EInvoice.CAdmin.Controllers.EInvoiceController  [0100113007_admin_demo]['2p2vz4unz5ax2yht4hx34oj3][113.160.13.121][113.160.13.121][Index] - EInvoiceController Index 
2019-03-29 09:38:32,044 INFO EInvoice.CAdmin.Controllers.EInvoiceController  [0100113007_admin_demo]['2p2vz4unz5ax2yht4hx34oj3][113.160.13.121][113.160.13.121][Index] - Index1937 pattern:  serial:  
2019-03-29 09:38:32,090 DEBUG EInvoice.CAdmin.Controllers.CompanyController  [0100113007_admin_demo]['2p2vz4unz5ax2yht4hx34oj3][113.160.13.121][113.160.13.121][MenuBycomp] - MenuBycomp 
2019-03-29 09:38:36,334 DEBUG EInvoice.CAdmin.Controllers.CompanyController  [0100113007_admin_demo]['2p2vz4unz5ax2yht4hx34oj3][113.160.13.121][113.160.13.121][MenuBycomp] - MenuBycomp 
2019-03-29 09:39:45,246 INFO EInvoice.CAdmin.Controllers.EInvoiceController  [0100113007_admin_demo]['2p2vz4unz5ax2yht4hx34oj3][113.160.13.121][113.160.13.121][Create] - Create EInvoice by: 0100113007_admin_demo Info-- TenKhachHang: CÔNG TY TNHH SƠN BA MaKhachHang: SB SoTien: 495000 
2019-03-29 09:39:45,293 DEBUG EInvoice.CAdmin.Controllers.EInvoiceController  [0100113007_admin_demo]['2p2vz4unz5ax2yht4hx34oj3][113.160.13.121][113.160.13.121][Index] - EInvoiceController Index 
2019-03-29 09:39:45,293 INFO EInvoice.CAdmin.Controllers.EInvoiceController  [0100113007_admin_demo]['2p2vz4unz5ax2yht4hx34oj3][113.160.13.121][113.160.13.121][Index] - Index1937 pattern: 01GTKT0/001 serial: PC/19E 
2019-03-29 09:39:45,355 DEBUG EInvoice.CAdmin.Controllers.CompanyController  [0100113007_admin_demo]['2p2vz4unz5ax2yht4hx34oj3][113.160.13.121][113.160.13.121][MenuBycomp] - MenuBycomp 
2019-03-29 09:39:51,049 INFO EInvoice.CAdmin.Controllers.ShareController  [0100113007_admin_demo]['2p2vz4unz5ax2yht4hx34oj3][113.160.13.121][113.160.13.121][ajxPreview] - call: pZux4VuICqNb8WNp8yZJzw== pattern: 01GTKT0/001 company: 1937 
2019-03-29 09:39:51,502 DEBUG EInvoice.CAdmin.Controllers.EInvoiceController  [0100113007_admin_demo]['2p2vz4unz5ax2yht4hx34oj3][113.160.13.121][113.160.13.121][Index] - EInvoiceController Index 
2019-03-29 09:39:51,502 INFO EInvoice.CAdmin.Controllers.EInvoiceController  [0100113007_admin_demo]['2p2vz4unz5ax2yht4hx34oj3][113.160.13.121][113.160.13.121][Index] - Index1937 pattern: 01GTKT0/001 serial: PC/19E 
2019-03-29 09:39:51,548 DEBUG EInvoice.CAdmin.Controllers.CompanyController  [0100113007_admin_demo]['2p2vz4unz5ax2yht4hx34oj3][113.160.13.121][113.160.13.121][MenuBycomp] - MenuBycomp 
2019-03-29 09:40:34,105 ERROR EInvoice.CAdmin.Controllers.EInvoiceController  [0100113007_admin_demo]['2p2vz4unz5ax2yht4hx34oj3][113.160.13.121][113.160.13.121][Create] -  Create - System.FormatException: Input string was not in a correct format.
   at System.Number.ParseSingle(String value, NumberStyles options, NumberFormatInfo numfmt)
   at System.String.System.IConvertible.ToSingle(IFormatProvider provider)
   at System.Convert.ChangeType(Object value, Type conversionType, IFormatProvider provider)
   at FX.Utils.ExtendedJavaScriptConverter`1.Deserialize(IDictionary`2 dictionary, Type type, JavaScriptSerializer serializer)
   at System.Web.Script.Serialization.ObjectConverter.ConvertDictionaryToObject(IDictionary`2 dictionary, Type type, JavaScriptSerializer serializer, Boolean throwOnError, Object& convertedObject)
   at System.Web.Script.Serialization.ObjectConverter.ConvertObjectToTypeInternal(Object o, Type type, JavaScriptSerializer serializer, Boolean throwOnError, Object& convertedObject)
   at System.Web.Script.Serialization.ObjectConverter.AddItemToList(IList oldList, IList newList, Type elementType, JavaScriptSerializer serializer, Boolean throwOnError)
   at System.Web.Script.Serialization.ObjectConverter.ConvertListToObject(IList list, Type type, JavaScriptSerializer serializer, Boolean throwOnError, IList& convertedList)
   at System.Web.Script.Serialization.ObjectConverter.ConvertObjectToTypeInternal(Object o, Type type, JavaScriptSerializer serializer, Boolean throwOnError, Object& convertedObject)
   at System.Web.Script.Serialization.JavaScriptSerializer.Deserialize(JavaScriptSerializer serializer, String input, Type type, Int32 depthLimit)
   at FX.Utils.JSONExtension.DeserializeJSON[T](String JsonString, Type targetType)
   at EInvoice.CAdmin.Controllers.EInvoiceController.Create(String Pattern, String PubDatasource, String DicExsource) 
2019-03-29 09:40:52,700 INFO EInvoice.CAdmin.Controllers.AccountController  []['3hwljddn0brs1axrv4yf1zxj][113.160.13.121][113.160.13.121][LogOn] - Login: 0100113007_admin_demo 
2019-03-29 09:41:02,294 INFO EInvoice.CAdmin.Controllers.AccountController  []['3hwljddn0brs1axrv4yf1zxj][113.160.13.121][113.160.13.121][LogOn] - Login: 0100113007_admin_demo 
2019-03-29 09:41:02,341 INFO EInvoice.CAdmin.Controllers.AccountController  []['3hwljddn0brs1axrv4yf1zxj][113.160.13.121][113.160.13.121][LogOn] - LogOn:, Date:29/03/2019 9:41:02 SA 
2019-03-29 09:41:02,341 DEBUG EInvoice.CAdmin.Controllers.EInvoiceController  [0100113007_admin_demo]['3hwljddn0brs1axrv4yf1zxj][113.160.13.121][113.160.13.121][Index] - EInvoiceController Index 
2019-03-29 09:41:02,341 INFO EInvoice.CAdmin.Controllers.EInvoiceController  [0100113007_admin_demo]['3hwljddn0brs1axrv4yf1zxj][113.160.13.121][113.160.13.121][Index] - Index1937 pattern:  serial:  
2019-03-29 09:41:02,404 DEBUG EInvoice.CAdmin.Controllers.CompanyController  [0100113007_admin_demo]['3hwljddn0brs1axrv4yf1zxj][113.160.13.121][113.160.13.121][MenuBycomp] - MenuBycomp 
2019-03-29 09:41:30,172 INFO EInvoice.CAdmin.Controllers.ShareController  [0100113007_admin_demo]['3hwljddn0brs1axrv4yf1zxj][113.160.13.121][113.160.13.121][ajxPreview] - call: cnWH+/5ZPvHIiznwKKxMrg== pattern: 01GTKT0/001 company: 1937 
2019-03-29 09:41:30,546 DEBUG EInvoice.CAdmin.Controllers.EInvoiceController  [0100113007_admin_demo]['3hwljddn0brs1axrv4yf1zxj][113.160.13.121][113.160.13.121][Index] - EInvoiceController Index 
2019-03-29 09:41:30,546 INFO EInvoice.CAdmin.Controllers.EInvoiceController  [0100113007_admin_demo]['3hwljddn0brs1axrv4yf1zxj][113.160.13.121][113.160.13.121][Index] - Index1937 pattern:  serial:  
2019-03-29 09:41:30,608 DEBUG EInvoice.CAdmin.Controllers.CompanyController  [0100113007_admin_demo]['3hwljddn0brs1axrv4yf1zxj][113.160.13.121][113.160.13.121][MenuBycomp] - MenuBycomp 
2019-03-29 09:41:30,905 INFO EInvoice.CAdmin.Controllers.ShareController  [0100113007_admin_demo]['3hwljddn0brs1axrv4yf1zxj][113.160.13.121][113.160.13.121][ajxPreview] - call: cnWH+/5ZPvHIiznwKKxMrg== pattern: 01GTKT0/001 company: 1937 
2019-03-29 09:41:51,762 DEBUG EInvoice.CAdmin.Controllers.EInvoiceController  [0100113007_admin_demo]['3hwljddn0brs1axrv4yf1zxj][113.160.13.121][113.160.13.121][Index] - EInvoiceController Index 
2019-03-29 09:41:51,762 INFO EInvoice.CAdmin.Controllers.EInvoiceController  [0100113007_admin_demo]['3hwljddn0brs1axrv4yf1zxj][113.160.13.121][113.160.13.121][Index] - Index1937 pattern:  serial:  
2019-03-29 09:41:51,809 DEBUG EInvoice.CAdmin.Controllers.CompanyController  [0100113007_admin_demo]['3hwljddn0brs1axrv4yf1zxj][113.160.13.121][113.160.13.121][MenuBycomp] - MenuBycomp 
2019-03-29 09:41:52,683 DEBUG EInvoice.CAdmin.Controllers.EInvoiceController  [0100113007_admin_demo]['3hwljddn0brs1axrv4yf1zxj][113.160.13.121][113.160.13.121][Index] - EInvoiceController Index 
2019-03-29 09:41:52,683 INFO EInvoice.CAdmin.Controllers.EInvoiceController  [0100113007_admin_demo]['3hwljddn0brs1axrv4yf1zxj][113.160.13.121][113.160.13.121][Index] - Index1937 pattern:  serial:  
2019-03-29 09:41:52,745 DEBUG EInvoice.CAdmin.Controllers.CompanyController  [0100113007_admin_demo]['3hwljddn0brs1axrv4yf1zxj][113.160.13.121][113.160.13.121][MenuBycomp] - MenuBycomp 
2019-03-29 13:35:51,325 INFO EInvoice.CAdmin.Controllers.AccountController  []['sushx4nzle3ztnhfls4qqi4l][113.160.13.121][113.160.13.121][LogOn] - Login: 0100113007_admin_demo 
2019-03-29 13:35:52,591 INFO EInvoice.CAdmin.Controllers.AccountController  []['sushx4nzle3ztnhfls4qqi4l][113.160.13.121][113.160.13.121][LogOn] - LogOn:, Date:29/03/2019 1:35:52 CH 
2019-03-29 13:35:52,638 DEBUG EInvoice.CAdmin.Controllers.EInvoiceController  [0100113007_admin_demo]['sushx4nzle3ztnhfls4qqi4l][113.160.13.121][113.160.13.121][Index] - EInvoiceController Index 
2019-03-29 13:35:52,653 INFO EInvoice.CAdmin.Controllers.EInvoiceController  [0100113007_admin_demo]['sushx4nzle3ztnhfls4qqi4l][113.160.13.121][113.160.13.121][Index] - Index1937 pattern:  serial:  
2019-03-29 13:35:54,853 DEBUG EInvoice.CAdmin.Controllers.CompanyController  [0100113007_admin_demo]['sushx4nzle3ztnhfls4qqi4l][113.160.13.121][113.160.13.121][MenuBycomp] - MenuBycomp 
2019-03-29 13:36:00,953 DEBUG EInvoice.CAdmin.Controllers.CompanyController  [0100113007_admin_demo]['sushx4nzle3ztnhfls4qqi4l][113.160.13.121][113.160.13.121][MenuBycomp] - MenuBycomp 
