2018-11-21 09:38:54,651 INFO EInvoice.CAdmin.Controllers.AccountController - Login: pesvnadmin 
2018-11-21 09:38:56,558 INFO EInvoice.CAdmin.Controllers.AccountController - LogOn:, Date:21/11/2018 9:38:56 SA 
2018-11-21 09:39:00,089 DEBUG EInvoice.CAdmin.Controllers.CompanyController - MenuBycomp 
2018-11-21 09:39:16,693 DEBUG EInvoice.CAdmin.Controllers.EInvoiceController - EInvoiceController Index 
2018-11-21 09:39:16,694 INFO EInvoice.CAdmin.Controllers.EInvoiceController - Index1927 pattern:  serial:  
2018-11-21 09:39:17,526 DEBUG EInvoice.CAdmin.Controllers.CompanyController - MenuBycomp 
2018-11-21 09:39:21,039 INFO EInvoice.CAdmin.Controllers.ShareController - call: DjsMJLllhnWiRUI+HpAbaA== pattern: 01GTKT0/001 company: 1927 
2018-11-21 09:40:54,896 DEBUG EInvoice.CAdmin.Controllers.EInvoiceController - EInvoiceController Index 
2018-11-21 09:40:54,896 INFO EInvoice.CAdmin.Controllers.EInvoiceController - Index1927 pattern:  serial:  
2018-11-21 09:40:54,986 DEBUG EInvoice.CAdmin.Controllers.CompanyController - MenuBycomp 
2018-11-21 09:41:00,612 INFO EInvoice.CAdmin.Controllers.ShareController - call: CxbdhWC5BZ3fGMzmXquGHQ== pattern: 01GTKT0/001 company: 1927 
2018-11-21 09:41:06,175 DEBUG EInvoice.CAdmin.Controllers.EInvoiceController - EInvoiceController Index 
2018-11-21 09:41:06,175 INFO EInvoice.CAdmin.Controllers.EInvoiceController - Index1927 pattern:  serial:  
2018-11-21 09:41:06,260 DEBUG EInvoice.CAdmin.Controllers.CompanyController - MenuBycomp 
2018-11-21 09:41:10,059 INFO EInvoice.CAdmin.Controllers.ShareController - call: NDcV/Na/A0x2GTZIAs6mkg== pattern: 01GTKT0/001 company: 1927 
2018-11-21 14:47:54,875 INFO EInvoice.CAdmin.Controllers.AccountController - Login: pesvnadmin 
2018-11-21 14:47:58,066 INFO EInvoice.CAdmin.Controllers.AccountController - LogOn:, Date:21/11/2018 2:47:58 CH 
2018-11-21 14:47:58,376 DEBUG EInvoice.CAdmin.Controllers.EInvoiceController - EInvoiceController Index 
2018-11-21 14:47:58,377 INFO EInvoice.CAdmin.Controllers.EInvoiceController - Index1927 pattern:  serial:  
2018-11-21 14:48:14,971 DEBUG EInvoice.CAdmin.Controllers.CompanyController - MenuBycomp 
2018-11-21 14:48:18,994 INFO EInvoice.CAdmin.Controllers.ShareController - call: DjsMJLllhnWiRUI+HpAbaA== pattern: 01GTKT0/001 company: 1927 
2018-11-21 14:49:01,396 DEBUG EInvoice.CAdmin.Controllers.CompanyController - MenuBycomp 
2018-11-21 14:49:19,917 DEBUG EInvoice.CAdmin.Controllers.CompanyController - MenuBycomp 
2018-11-21 14:49:56,353 DEBUG EInvoice.CAdmin.Controllers.CompanyController - MenuBycomp 
2018-11-21 14:50:21,252 DEBUG EInvoice.CAdmin.Controllers.CompanyController - MenuBycomp 
2018-11-21 14:50:45,460 DEBUG EInvoice.CAdmin.Controllers.CompanyController - MenuBycomp 
2018-11-21 14:50:48,762 DEBUG EInvoice.CAdmin.Controllers.EInvoiceController - EInvoiceController Index 
2018-11-21 14:50:48,762 INFO EInvoice.CAdmin.Controllers.EInvoiceController - Index1927 pattern:  serial:  
2018-11-21 14:50:48,854 DEBUG EInvoice.CAdmin.Controllers.CompanyController - MenuBycomp 
2018-11-21 14:50:55,866 INFO EInvoice.CAdmin.Controllers.ShareController - call: DjsMJLllhnWiRUI+HpAbaA== pattern: 01GTKT0/001 company: 1927 
2018-11-21 14:51:00,670 DEBUG EInvoice.CAdmin.Controllers.EInvoiceController - EInvoiceController Index 
2018-11-21 14:51:00,670 INFO EInvoice.CAdmin.Controllers.EInvoiceController - Index1927 pattern:  serial:  
2018-11-21 14:51:00,776 DEBUG EInvoice.CAdmin.Controllers.CompanyController - MenuBycomp 
2018-11-21 14:51:02,859 INFO EInvoice.CAdmin.Controllers.ShareController - call: iE+F/oVaKxNWuST2zJFo5A== pattern: 01GTKT0/001 company: 1927 
2018-11-21 14:51:08,182 DEBUG EInvoice.CAdmin.Controllers.EInvoiceController - EInvoiceController Index 
2018-11-21 14:51:08,182 INFO EInvoice.CAdmin.Controllers.EInvoiceController - Index1927 pattern:  serial:  
2018-11-21 14:51:08,290 DEBUG EInvoice.CAdmin.Controllers.CompanyController - MenuBycomp 
2018-11-21 14:51:10,889 INFO EInvoice.CAdmin.Controllers.ShareController - call: E0iu8Ya4mgD0d5LNquaKNQ== pattern: 01GTKT0/001 company: 1927 
2018-11-21 14:51:18,244 DEBUG EInvoice.CAdmin.Controllers.EInvoiceController - EInvoiceController Index 
2018-11-21 14:51:18,244 INFO EInvoice.CAdmin.Controllers.EInvoiceController - Index1927 pattern:  serial:  
2018-11-21 14:51:18,348 DEBUG EInvoice.CAdmin.Controllers.CompanyController - MenuBycomp 
2018-11-21 14:51:21,192 INFO EInvoice.CAdmin.Controllers.ShareController - call: BLzmvCWHHEGkwr3W8NNsUg== pattern: 01GTKT0/001 company: 1927 
2018-11-21 14:51:28,277 DEBUG EInvoice.CAdmin.Controllers.EInvoiceController - EInvoiceController Index 
2018-11-21 14:51:28,277 INFO EInvoice.CAdmin.Controllers.EInvoiceController - Index1927 pattern:  serial:  
2018-11-21 14:51:28,365 DEBUG EInvoice.CAdmin.Controllers.CompanyController - MenuBycomp 
2018-11-21 14:51:31,658 INFO EInvoice.CAdmin.Controllers.ShareController - call: iE+F/oVaKxNWuST2zJFo5A== pattern: 01GTKT0/001 company: 1927 
2018-11-21 14:51:36,068 DEBUG EInvoice.CAdmin.Controllers.EInvoiceController - EInvoiceController Index 
2018-11-21 14:51:36,069 INFO EInvoice.CAdmin.Controllers.EInvoiceController - Index1927 pattern:  serial:  
2018-11-21 14:51:36,159 DEBUG EInvoice.CAdmin.Controllers.CompanyController - MenuBycomp 
2018-11-21 14:51:40,094 INFO EInvoice.CAdmin.Controllers.ShareController - call: E0iu8Ya4mgD0d5LNquaKNQ== pattern: 01GTKT0/001 company: 1927 
2018-11-21 14:51:50,119 DEBUG EInvoice.CAdmin.Controllers.EInvoiceController - EInvoiceController Index 
2018-11-21 14:51:50,119 INFO EInvoice.CAdmin.Controllers.EInvoiceController - Index1927 pattern:  serial:  
2018-11-21 14:51:50,224 DEBUG EInvoice.CAdmin.Controllers.CompanyController - MenuBycomp 
2018-11-21 14:51:57,849 DEBUG EInvoice.CAdmin.Controllers.CompanyController - MenuBycomp 
2018-11-21 14:54:20,330 DEBUG EInvoice.CAdmin.Controllers.CompanyController - MenuBycomp 
2018-11-21 14:54:39,855 DEBUG EInvoice.CAdmin.Controllers.CompanyController - MenuBycomp 
2018-11-21 14:55:32,533 DEBUG EInvoice.CAdmin.Controllers.EInvoiceController - EInvoiceController Index 
2018-11-21 14:55:32,533 INFO EInvoice.CAdmin.Controllers.EInvoiceController - Index1927 pattern:  serial:  
2018-11-21 14:55:32,620 DEBUG EInvoice.CAdmin.Controllers.CompanyController - MenuBycomp 
2018-11-21 14:55:37,022 DEBUG EInvoice.CAdmin.Controllers.CompanyController - MenuBycomp 
2018-11-21 15:00:03,526 DEBUG EInvoice.CAdmin.Controllers.CompanyController - MenuBycomp 
2018-11-21 15:00:09,567 DEBUG EInvoice.CAdmin.Controllers.CompanyController - MenuBycomp 
2018-11-21 15:01:50,684 ERROR NHibernate.Util.ADOExceptionReporter - ORA-12899: value too large for column "VNPT_INVOICE_ZONE2"."USERDATA"."EMAIL" (actual: 199, maximum: 100) 
2018-11-21 15:01:50,686 ERROR NHibernate.Event.Default.AbstractFlushingEventListener - Could not synchronize database state with session 
NHibernate.Exceptions.GenericADOException: could not execute batch command.[SQL: SQL not available] ---> Oracle.DataAccess.Client.OracleException: ORA-12899: value too large for column "VNPT_INVOICE_ZONE2"."USERDATA"."EMAIL" (actual: 199, maximum: 100)
   at Oracle.DataAccess.Client.OracleException.HandleErrorHelper(Int32 errCode, OracleConnection conn, IntPtr opsErrCtx, OpoSqlValCtx* pOpoSqlValCtx, Object src, String procedure, Boolean bCheck)
   at Oracle.DataAccess.Client.OracleCommand.ExecuteNonQuery()
   at NHibernate.AdoNet.OracleDataClientBatchingBatcher.DoExecuteBatch(IDbCommand ps)
   --- End of inner exception stack trace ---
   at NHibernate.AdoNet.OracleDataClientBatchingBatcher.DoExecuteBatch(IDbCommand ps)
   at NHibernate.AdoNet.AbstractBatcher.ExecuteBatchWithTiming(IDbCommand ps)
   at NHibernate.AdoNet.AbstractBatcher.ExecuteBatch()
   at NHibernate.Engine.ActionQueue.ExecuteActions()
   at NHibernate.Event.Default.AbstractFlushingEventListener.PerformExecutions(IEventSource session)
2018-11-21 15:01:50,699 ERROR IdentityManagement.WebProviders.RBACMembershipCompanyProvider - Error UpdateUser: 0201034 in Application: EInvoice 
NHibernate.Exceptions.GenericADOException: could not execute batch command.[SQL: SQL not available] ---> Oracle.DataAccess.Client.OracleException: ORA-12899: value too large for column "VNPT_INVOICE_ZONE2"."USERDATA"."EMAIL" (actual: 199, maximum: 100)
   at Oracle.DataAccess.Client.OracleException.HandleErrorHelper(Int32 errCode, OracleConnection conn, IntPtr opsErrCtx, OpoSqlValCtx* pOpoSqlValCtx, Object src, String procedure, Boolean bCheck)
   at Oracle.DataAccess.Client.OracleCommand.ExecuteNonQuery()
   at NHibernate.AdoNet.OracleDataClientBatchingBatcher.DoExecuteBatch(IDbCommand ps)
   --- End of inner exception stack trace ---
   at NHibernate.AdoNet.OracleDataClientBatchingBatcher.DoExecuteBatch(IDbCommand ps)
   at NHibernate.AdoNet.AbstractBatcher.ExecuteBatchWithTiming(IDbCommand ps)
   at NHibernate.AdoNet.AbstractBatcher.ExecuteBatch()
   at NHibernate.Engine.ActionQueue.ExecuteActions()
   at NHibernate.Event.Default.AbstractFlushingEventListener.PerformExecutions(IEventSource session)
   at NHibernate.Event.Default.DefaultFlushEventListener.OnFlush(FlushEvent event)
   at NHibernate.Impl.SessionImpl.Flush()
   at FX.Data.BaseService`2.CommitChanges()
   at IdentityManagement.WebProviders.RBACMembershipCompanyProvider.UpdateUser(user muser)
2018-11-21 15:01:50,747 INFO EInvoice.CAdmin.Controllers.CustomerController - Edit Customer by: pesvnadmin Info-- TenKhachHang: Công ty Cổ Phần Thiết Bị Điện TaiKhoanKhachHang: 0201034 Email: thanhtruc.nguyen@vn.panasonic.com,thanhtruc.nguyen@vn.panasonic.com,thanhtruc.nguyen@vn.panasonic.com,thanhtruc.nguyen@vn.panasonic.com,thanhtruc.nguyen@vn.panasonic.com,thanhtruc.nguyen@vn.panasonic 
2018-11-21 15:01:50,955 DEBUG EInvoice.CAdmin.Controllers.CompanyController - MenuBycomp 
2018-11-21 15:02:17,419 DEBUG EInvoice.CAdmin.Controllers.CompanyController - MenuBycomp 
2018-11-21 15:02:24,086 DEBUG EInvoice.CAdmin.Controllers.CompanyController - MenuBycomp 
2018-11-21 15:02:37,366 DEBUG EInvoice.CAdmin.Controllers.CompanyController - MenuBycomp 
2018-11-21 15:02:41,997 DEBUG EInvoice.CAdmin.Controllers.CompanyController - MenuBycomp 
2018-11-21 15:03:02,722 DEBUG EInvoice.CAdmin.Controllers.CompanyController - MenuBycomp 
2018-11-21 15:03:05,147 DEBUG EInvoice.CAdmin.Controllers.CompanyController - MenuBycomp 
2018-11-21 15:03:07,337 DEBUG EInvoice.CAdmin.Controllers.CompanyController - MenuBycomp 
2018-11-21 15:03:09,147 DEBUG EInvoice.CAdmin.Controllers.CompanyController - MenuBycomp 
2018-11-21 15:03:26,895 DEBUG EInvoice.CAdmin.Controllers.CompanyController - MenuBycomp 
2018-11-21 15:05:48,000 ERROR NHibernate.Util.ADOExceptionReporter - ORA-12899: value too large for column "VNPT_INVOICE_ZONE2"."USERDATA"."EMAIL" (actual: 184, maximum: 100) 
2018-11-21 15:05:48,001 ERROR NHibernate.Event.Default.AbstractFlushingEventListener - Could not synchronize database state with session 
NHibernate.Exceptions.GenericADOException: could not execute batch command.[SQL: SQL not available] ---> Oracle.DataAccess.Client.OracleException: ORA-12899: value too large for column "VNPT_INVOICE_ZONE2"."USERDATA"."EMAIL" (actual: 184, maximum: 100)
   at Oracle.DataAccess.Client.OracleException.HandleErrorHelper(Int32 errCode, OracleConnection conn, IntPtr opsErrCtx, OpoSqlValCtx* pOpoSqlValCtx, Object src, String procedure, Boolean bCheck)
   at Oracle.DataAccess.Client.OracleCommand.ExecuteNonQuery()
   at NHibernate.AdoNet.OracleDataClientBatchingBatcher.DoExecuteBatch(IDbCommand ps)
   --- End of inner exception stack trace ---
   at NHibernate.AdoNet.OracleDataClientBatchingBatcher.DoExecuteBatch(IDbCommand ps)
   at NHibernate.AdoNet.AbstractBatcher.ExecuteBatchWithTiming(IDbCommand ps)
   at NHibernate.AdoNet.AbstractBatcher.ExecuteBatch()
   at NHibernate.Engine.ActionQueue.ExecuteActions()
   at NHibernate.Event.Default.AbstractFlushingEventListener.PerformExecutions(IEventSource session)
2018-11-21 15:05:48,001 ERROR IdentityManagement.WebProviders.RBACMembershipCompanyProvider - Error UpdateUser: 0201034 in Application: EInvoice 
NHibernate.Exceptions.GenericADOException: could not execute batch command.[SQL: SQL not available] ---> Oracle.DataAccess.Client.OracleException: ORA-12899: value too large for column "VNPT_INVOICE_ZONE2"."USERDATA"."EMAIL" (actual: 184, maximum: 100)
   at Oracle.DataAccess.Client.OracleException.HandleErrorHelper(Int32 errCode, OracleConnection conn, IntPtr opsErrCtx, OpoSqlValCtx* pOpoSqlValCtx, Object src, String procedure, Boolean bCheck)
   at Oracle.DataAccess.Client.OracleCommand.ExecuteNonQuery()
   at NHibernate.AdoNet.OracleDataClientBatchingBatcher.DoExecuteBatch(IDbCommand ps)
   --- End of inner exception stack trace ---
   at NHibernate.AdoNet.OracleDataClientBatchingBatcher.DoExecuteBatch(IDbCommand ps)
   at NHibernate.AdoNet.AbstractBatcher.ExecuteBatchWithTiming(IDbCommand ps)
   at NHibernate.AdoNet.AbstractBatcher.ExecuteBatch()
   at NHibernate.Engine.ActionQueue.ExecuteActions()
   at NHibernate.Event.Default.AbstractFlushingEventListener.PerformExecutions(IEventSource session)
   at NHibernate.Event.Default.DefaultFlushEventListener.OnFlush(FlushEvent event)
   at NHibernate.Impl.SessionImpl.Flush()
   at FX.Data.BaseService`2.CommitChanges()
   at IdentityManagement.WebProviders.RBACMembershipCompanyProvider.UpdateUser(user muser)
2018-11-21 15:05:48,003 INFO EInvoice.CAdmin.Controllers.CustomerController - Edit Customer by: pesvnadmin Info-- TenKhachHang: Công ty Cổ Phần Thiết Bị Điện TaiKhoanKhachHang: 0201034 Email: thanhtruc.nguyen@vn.panasonic.com,hungngoc.le@vn.panasonic.com,diemthoa.dao@vn.panasonic.com,bichtram.nguyen@vn.panasonic.com,thily.bach@vn.panasonic.com,thithi.nguyen@vn.panasonic.com 
2018-11-21 15:05:48,250 DEBUG EInvoice.CAdmin.Controllers.CompanyController - MenuBycomp 
2018-11-21 15:05:52,957 DEBUG EInvoice.CAdmin.Controllers.EInvoiceController - EInvoiceController Index 
2018-11-21 15:05:52,957 INFO EInvoice.CAdmin.Controllers.EInvoiceController - Index1927 pattern:  serial:  
2018-11-21 15:05:53,053 DEBUG EInvoice.CAdmin.Controllers.CompanyController - MenuBycomp 
2018-11-21 15:05:55,275 DEBUG EInvoice.CAdmin.Controllers.CompanyController - MenuBycomp 
2018-11-21 15:09:18,159 DEBUG EInvoice.CAdmin.Controllers.CompanyController - MenuBycomp 
2018-11-21 15:09:33,878 DEBUG EInvoice.CAdmin.Controllers.CompanyController - MenuBycomp 
2018-11-21 15:09:53,337 DEBUG EInvoice.CAdmin.Controllers.CompanyController - MenuBycomp 
2018-11-21 15:10:03,776 DEBUG EInvoice.CAdmin.Controllers.CompanyController - MenuBycomp 
2018-11-21 15:10:19,273 DEBUG EInvoice.CAdmin.Controllers.CompanyController - MenuBycomp 
2018-11-21 15:10:31,804 DEBUG EInvoice.CAdmin.Controllers.CompanyController - MenuBycomp 
2018-11-21 15:11:28,572 DEBUG EInvoice.CAdmin.Controllers.CompanyController - MenuBycomp 
2018-11-21 15:11:39,546 DEBUG EInvoice.CAdmin.Controllers.CompanyController - MenuBycomp 
2018-11-21 15:13:41,160 DEBUG EInvoice.CAdmin.Controllers.CompanyController - MenuBycomp 
2018-11-21 15:15:31,272 DEBUG EInvoice.CAdmin.Controllers.CompanyController - MenuBycomp 
2018-11-21 15:15:50,357 DEBUG EInvoice.CAdmin.Controllers.CompanyController - MenuBycomp 
2018-11-21 15:15:54,176 DEBUG EInvoice.CAdmin.Controllers.CompanyController - MenuBycomp 
2018-11-21 15:19:16,342 DEBUG EInvoice.CAdmin.Controllers.CompanyController - MenuBycomp 
2018-11-21 15:19:50,201 DEBUG EInvoice.CAdmin.Controllers.CompanyController - MenuBycomp 
2018-11-21 15:20:12,529 DEBUG EInvoice.CAdmin.Controllers.CompanyController - MenuBycomp 
2018-11-21 15:22:13,946 INFO EInvoice.CAdmin.Controllers.PublishController - Create Publish by: pesvnadmin|InvInfo:2922;PV/18E;2000;1;2000_ 
2018-11-21 15:22:14,143 DEBUG EInvoice.CAdmin.Controllers.CompanyController - MenuBycomp 
2018-11-21 15:22:23,151 DEBUG EInvoice.CAdmin.Controllers.CompanyController - MenuBycomp 
2018-11-21 15:22:46,787 DEBUG EInvoice.CAdmin.Controllers.EInvoiceController - EInvoiceController Index 
2018-11-21 15:22:46,788 INFO EInvoice.CAdmin.Controllers.EInvoiceController - Index1927 pattern:  serial:  
2018-11-21 15:22:46,874 DEBUG EInvoice.CAdmin.Controllers.CompanyController - MenuBycomp 
2018-11-21 15:22:53,197 DEBUG EInvoice.CAdmin.Controllers.CompanyController - MenuBycomp 
2018-11-21 15:23:06,566 DEBUG EInvoice.CAdmin.Controllers.CompanyController - MenuBycomp 
2018-11-21 15:23:10,757 DEBUG EInvoice.CAdmin.Controllers.CompanyController - MenuBycomp 
2018-11-21 15:23:12,538 DEBUG EInvoice.CAdmin.Controllers.CompanyController - MenuBycomp 
2018-11-21 15:23:13,964 DEBUG EInvoice.CAdmin.Controllers.CompanyController - MenuBycomp 
2018-11-21 15:23:17,215 DEBUG EInvoice.CAdmin.Controllers.CompanyController - MenuBycomp 
2018-11-21 15:23:20,571 DEBUG EInvoice.CAdmin.Controllers.CompanyController - MenuBycomp 
2018-11-21 15:23:45,426 INFO EInvoice.CAdmin.Controllers.PublishController - Edit Publish by: pesvnadmin|InvInfo:2922;PP/18E;500;1;500_ 
2018-11-21 15:23:45,608 DEBUG EInvoice.CAdmin.Controllers.CompanyController - MenuBycomp 
2018-11-21 15:24:11,477 ERROR EInvoice.CAdmin.Controllers.PublishController - Bat dau gui thong bao phat hanh 
2018-11-21 15:24:11,491 INFO EInvoice.CAdmin.Controllers.PublishController - SelectedPublish Publish by: pesvnadmin Info-- ID: 4974 
2018-11-21 15:24:11,578 INFO EInvoice.CAdmin.Controllers.PublishController - SelectedPublish Publish by: pesvnadmin Info-- ID: 4974 
2018-11-21 15:24:30,076 ERROR EInvoice.CAdmin.Controllers.PublishController - Bat dau gui thong bao phat hanh 
2018-11-21 15:24:30,089 INFO EInvoice.CAdmin.Controllers.PublishController - SelectedPublish Publish by: pesvnadmin Info-- ID: 4973 
2018-11-21 15:24:30,107 INFO EInvoice.CAdmin.Controllers.PublishController - SelectedPublish Publish by: pesvnadmin Info-- ID: 4973 
2018-11-21 15:24:44,480 DEBUG EInvoice.CAdmin.Controllers.EInvoiceController - EInvoiceController Index 
2018-11-21 15:24:44,480 INFO EInvoice.CAdmin.Controllers.EInvoiceController - Index1927 pattern:  serial:  
2018-11-21 15:24:44,577 DEBUG EInvoice.CAdmin.Controllers.CompanyController - MenuBycomp 
2018-11-21 15:24:46,949 DEBUG EInvoice.CAdmin.Controllers.CompanyController - MenuBycomp 
2018-11-21 15:31:55,171 ERROR NHibernate.Util.ADOExceptionReporter - ORA-12899: value too large for column "VNPT_INVOICE_ZONE2"."INVOICEVAT"."EMAILDELIVER" (actual: 184, maximum: 150) 
2018-11-21 15:31:55,172 ERROR NHibernate.Event.Default.AbstractFlushingEventListener - Could not synchronize database state with session 
NHibernate.Exceptions.GenericADOException: could not execute batch command.[SQL: SQL not available] ---> Oracle.DataAccess.Client.OracleException: ORA-12899: value too large for column "VNPT_INVOICE_ZONE2"."INVOICEVAT"."EMAILDELIVER" (actual: 184, maximum: 150)
   at Oracle.DataAccess.Client.OracleException.HandleErrorHelper(Int32 errCode, OracleConnection conn, IntPtr opsErrCtx, OpoSqlValCtx* pOpoSqlValCtx, Object src, String procedure, Boolean bCheck)
   at Oracle.DataAccess.Client.OracleCommand.ExecuteNonQuery()
   at NHibernate.AdoNet.OracleDataClientBatchingBatcher.DoExecuteBatch(IDbCommand ps)
   --- End of inner exception stack trace ---
   at NHibernate.AdoNet.OracleDataClientBatchingBatcher.DoExecuteBatch(IDbCommand ps)
   at NHibernate.AdoNet.AbstractBatcher.ExecuteBatchWithTiming(IDbCommand ps)
   at NHibernate.AdoNet.AbstractBatcher.ExecuteBatch()
   at NHibernate.AdoNet.AbstractBatcher.PrepareBatchCommand(CommandType type, SqlString sql, SqlType[] parameterTypes)
   at NHibernate.Persister.Entity.AbstractEntityPersister.Insert(Object id, Object[] fields, Boolean[] notNull, Int32 j, SqlCommandInfo sql, Object obj, ISessionImplementor session)
   at NHibernate.Persister.Entity.AbstractEntityPersister.Insert(Object id, Object[] fields, Object obj, ISessionImplementor session)
   at NHibernate.Action.EntityInsertAction.Execute()
   at NHibernate.Engine.ActionQueue.Execute(IExecutable executable)
   at NHibernate.Engine.ActionQueue.ExecuteActions(IList list)
   at NHibernate.Engine.ActionQueue.ExecuteActions()
   at NHibernate.Event.Default.AbstractFlushingEventListener.PerformExecutions(IEventSource session)
2018-11-21 15:31:55,201 ERROR IInvoiceService - could not execute batch command.[SQL: SQL not available] 
2018-11-21 15:31:55,222 DEBUG EInvoice.CAdmin.Controllers.CompanyController - MenuBycomp 
2018-11-21 15:32:11,212 ERROR NHibernate.Util.ADOExceptionReporter - ORA-12899: value too large for column "VNPT_INVOICE_ZONE2"."INVOICEVAT"."EMAILDELIVER" (actual: 184, maximum: 150) 
2018-11-21 15:32:11,212 ERROR NHibernate.Event.Default.AbstractFlushingEventListener - Could not synchronize database state with session 
NHibernate.Exceptions.GenericADOException: could not execute batch command.[SQL: SQL not available] ---> Oracle.DataAccess.Client.OracleException: ORA-12899: value too large for column "VNPT_INVOICE_ZONE2"."INVOICEVAT"."EMAILDELIVER" (actual: 184, maximum: 150)
   at Oracle.DataAccess.Client.OracleException.HandleErrorHelper(Int32 errCode, OracleConnection conn, IntPtr opsErrCtx, OpoSqlValCtx* pOpoSqlValCtx, Object src, String procedure, Boolean bCheck)
   at Oracle.DataAccess.Client.OracleCommand.ExecuteNonQuery()
   at NHibernate.AdoNet.OracleDataClientBatchingBatcher.DoExecuteBatch(IDbCommand ps)
   --- End of inner exception stack trace ---
   at NHibernate.AdoNet.OracleDataClientBatchingBatcher.DoExecuteBatch(IDbCommand ps)
   at NHibernate.AdoNet.AbstractBatcher.ExecuteBatchWithTiming(IDbCommand ps)
   at NHibernate.AdoNet.AbstractBatcher.ExecuteBatch()
   at NHibernate.AdoNet.AbstractBatcher.PrepareBatchCommand(CommandType type, SqlString sql, SqlType[] parameterTypes)
   at NHibernate.Persister.Entity.AbstractEntityPersister.Insert(Object id, Object[] fields, Boolean[] notNull, Int32 j, SqlCommandInfo sql, Object obj, ISessionImplementor session)
   at NHibernate.Persister.Entity.AbstractEntityPersister.Insert(Object id, Object[] fields, Object obj, ISessionImplementor session)
   at NHibernate.Action.EntityInsertAction.Execute()
   at NHibernate.Engine.ActionQueue.Execute(IExecutable executable)
   at NHibernate.Engine.ActionQueue.ExecuteActions(IList list)
   at NHibernate.Engine.ActionQueue.ExecuteActions()
   at NHibernate.Event.Default.AbstractFlushingEventListener.PerformExecutions(IEventSource session)
2018-11-21 15:32:11,213 ERROR IInvoiceService - could not execute batch command.[SQL: SQL not available] 
2018-11-21 15:32:11,227 DEBUG EInvoice.CAdmin.Controllers.CompanyController - MenuBycomp 
2018-11-21 15:32:29,410 ERROR NHibernate.Util.ADOExceptionReporter - ORA-12899: value too large for column "VNPT_INVOICE_ZONE2"."INVOICEVAT"."EMAILDELIVER" (actual: 184, maximum: 150) 
2018-11-21 15:32:29,410 ERROR NHibernate.Event.Default.AbstractFlushingEventListener - Could not synchronize database state with session 
NHibernate.Exceptions.GenericADOException: could not execute batch command.[SQL: SQL not available] ---> Oracle.DataAccess.Client.OracleException: ORA-12899: value too large for column "VNPT_INVOICE_ZONE2"."INVOICEVAT"."EMAILDELIVER" (actual: 184, maximum: 150)
   at Oracle.DataAccess.Client.OracleException.HandleErrorHelper(Int32 errCode, OracleConnection conn, IntPtr opsErrCtx, OpoSqlValCtx* pOpoSqlValCtx, Object src, String procedure, Boolean bCheck)
   at Oracle.DataAccess.Client.OracleCommand.ExecuteNonQuery()
   at NHibernate.AdoNet.OracleDataClientBatchingBatcher.DoExecuteBatch(IDbCommand ps)
   --- End of inner exception stack trace ---
   at NHibernate.AdoNet.OracleDataClientBatchingBatcher.DoExecuteBatch(IDbCommand ps)
   at NHibernate.AdoNet.AbstractBatcher.ExecuteBatchWithTiming(IDbCommand ps)
   at NHibernate.AdoNet.AbstractBatcher.ExecuteBatch()
   at NHibernate.AdoNet.AbstractBatcher.PrepareBatchCommand(CommandType type, SqlString sql, SqlType[] parameterTypes)
   at NHibernate.Persister.Entity.AbstractEntityPersister.Insert(Object id, Object[] fields, Boolean[] notNull, Int32 j, SqlCommandInfo sql, Object obj, ISessionImplementor session)
   at NHibernate.Persister.Entity.AbstractEntityPersister.Insert(Object id, Object[] fields, Object obj, ISessionImplementor session)
   at NHibernate.Action.EntityInsertAction.Execute()
   at NHibernate.Engine.ActionQueue.Execute(IExecutable executable)
   at NHibernate.Engine.ActionQueue.ExecuteActions(IList list)
   at NHibernate.Engine.ActionQueue.ExecuteActions()
   at NHibernate.Event.Default.AbstractFlushingEventListener.PerformExecutions(IEventSource session)
2018-11-21 15:32:29,411 ERROR IInvoiceService - could not execute batch command.[SQL: SQL not available] 
2018-11-21 15:32:29,427 DEBUG EInvoice.CAdmin.Controllers.CompanyController - MenuBycomp 
2018-11-21 15:32:40,868 ERROR NHibernate.Util.ADOExceptionReporter - ORA-12899: value too large for column "VNPT_INVOICE_ZONE2"."INVOICEVAT"."EMAILDELIVER" (actual: 184, maximum: 150) 
2018-11-21 15:32:40,868 ERROR NHibernate.Event.Default.AbstractFlushingEventListener - Could not synchronize database state with session 
NHibernate.Exceptions.GenericADOException: could not execute batch command.[SQL: SQL not available] ---> Oracle.DataAccess.Client.OracleException: ORA-12899: value too large for column "VNPT_INVOICE_ZONE2"."INVOICEVAT"."EMAILDELIVER" (actual: 184, maximum: 150)
   at Oracle.DataAccess.Client.OracleException.HandleErrorHelper(Int32 errCode, OracleConnection conn, IntPtr opsErrCtx, OpoSqlValCtx* pOpoSqlValCtx, Object src, String procedure, Boolean bCheck)
   at Oracle.DataAccess.Client.OracleCommand.ExecuteNonQuery()
   at NHibernate.AdoNet.OracleDataClientBatchingBatcher.DoExecuteBatch(IDbCommand ps)
   --- End of inner exception stack trace ---
   at NHibernate.AdoNet.OracleDataClientBatchingBatcher.DoExecuteBatch(IDbCommand ps)
   at NHibernate.AdoNet.AbstractBatcher.ExecuteBatchWithTiming(IDbCommand ps)
   at NHibernate.AdoNet.AbstractBatcher.ExecuteBatch()
   at NHibernate.AdoNet.AbstractBatcher.PrepareBatchCommand(CommandType type, SqlString sql, SqlType[] parameterTypes)
   at NHibernate.Persister.Entity.AbstractEntityPersister.Insert(Object id, Object[] fields, Boolean[] notNull, Int32 j, SqlCommandInfo sql, Object obj, ISessionImplementor session)
   at NHibernate.Persister.Entity.AbstractEntityPersister.Insert(Object id, Object[] fields, Object obj, ISessionImplementor session)
   at NHibernate.Action.EntityInsertAction.Execute()
   at NHibernate.Engine.ActionQueue.Execute(IExecutable executable)
   at NHibernate.Engine.ActionQueue.ExecuteActions(IList list)
   at NHibernate.Engine.ActionQueue.ExecuteActions()
   at NHibernate.Event.Default.AbstractFlushingEventListener.PerformExecutions(IEventSource session)
2018-11-21 15:32:40,870 ERROR IInvoiceService - could not execute batch command.[SQL: SQL not available] 
2018-11-21 15:32:40,885 DEBUG EInvoice.CAdmin.Controllers.CompanyController - MenuBycomp 
2018-11-21 15:32:54,701 DEBUG EInvoice.CAdmin.Controllers.EInvoiceController - EInvoiceController Index 
2018-11-21 15:32:54,701 INFO EInvoice.CAdmin.Controllers.EInvoiceController - Index1927 pattern:  serial:  
2018-11-21 15:32:54,784 DEBUG EInvoice.CAdmin.Controllers.CompanyController - MenuBycomp 
2018-11-21 15:33:01,698 INFO EInvoice.CAdmin.Controllers.ShareController - call: DjsMJLllhnWiRUI+HpAbaA== pattern: 01GTKT0/001 company: 1927 
2018-11-21 15:58:55,856 INFO EInvoice.CAdmin.Controllers.AccountController - Login: pesvnadmin 
2018-11-21 15:58:55,912 INFO EInvoice.CAdmin.Controllers.AccountController - LogOn:, Date:21/11/2018 3:58:55 CH 
2018-11-21 15:58:56,103 DEBUG EInvoice.CAdmin.Controllers.CompanyController - MenuBycomp 
2018-11-21 15:59:59,116 DEBUG EInvoice.CAdmin.Controllers.EInvoiceController - EInvoiceController Index 
2018-11-21 15:59:59,116 INFO EInvoice.CAdmin.Controllers.EInvoiceController - Index1927 pattern:  serial:  
2018-11-21 15:59:59,208 DEBUG EInvoice.CAdmin.Controllers.CompanyController - MenuBycomp 
2018-11-21 16:00:03,184 INFO EInvoice.CAdmin.Controllers.ShareController - call: CxbdhWC5BZ3fGMzmXquGHQ== pattern: 01GTKT0/001 company: 1927 
2018-11-21 16:00:51,920 DEBUG EInvoice.CAdmin.Controllers.CompanyController - MenuBycomp 
2018-11-21 16:01:38,718 INFO EInvoice.CAdmin.Controllers.PublishController - Edit Publish by: pesvnadmin|InvInfo:2922;PV/18E;2000;1;2000_ 
2018-11-21 16:01:38,913 DEBUG EInvoice.CAdmin.Controllers.CompanyController - MenuBycomp 
2018-11-21 16:01:56,915 ERROR EInvoice.CAdmin.Controllers.PublishController - Bat dau gui thong bao phat hanh 
2018-11-21 16:01:56,927 INFO EInvoice.CAdmin.Controllers.PublishController - SelectedPublish Publish by: pesvnadmin Info-- ID: 4975 
2018-11-21 16:01:56,946 INFO EInvoice.CAdmin.Controllers.PublishController - SelectedPublish Publish by: pesvnadmin Info-- ID: 4975 
2018-11-21 16:02:05,385 DEBUG EInvoice.CAdmin.Controllers.EInvoiceController - EInvoiceController Index 
2018-11-21 16:02:05,385 INFO EInvoice.CAdmin.Controllers.EInvoiceController - Index1927 pattern:  serial:  
2018-11-21 16:02:05,487 DEBUG EInvoice.CAdmin.Controllers.CompanyController - MenuBycomp 
2018-11-21 16:02:07,817 DEBUG EInvoice.CAdmin.Controllers.CompanyController - MenuBycomp 
2018-11-21 16:03:58,389 ERROR NHibernate.Util.ADOExceptionReporter - ORA-12899: value too large for column "VNPT_INVOICE_ZONE2"."INVOICEVAT"."EMAILDELIVER" (actual: 184, maximum: 150) 
2018-11-21 16:03:58,389 ERROR NHibernate.Event.Default.AbstractFlushingEventListener - Could not synchronize database state with session 
NHibernate.Exceptions.GenericADOException: could not execute batch command.[SQL: SQL not available] ---> Oracle.DataAccess.Client.OracleException: ORA-12899: value too large for column "VNPT_INVOICE_ZONE2"."INVOICEVAT"."EMAILDELIVER" (actual: 184, maximum: 150)
   at Oracle.DataAccess.Client.OracleException.HandleErrorHelper(Int32 errCode, OracleConnection conn, IntPtr opsErrCtx, OpoSqlValCtx* pOpoSqlValCtx, Object src, String procedure, Boolean bCheck)
   at Oracle.DataAccess.Client.OracleCommand.ExecuteNonQuery()
   at NHibernate.AdoNet.OracleDataClientBatchingBatcher.DoExecuteBatch(IDbCommand ps)
   --- End of inner exception stack trace ---
   at NHibernate.AdoNet.OracleDataClientBatchingBatcher.DoExecuteBatch(IDbCommand ps)
   at NHibernate.AdoNet.AbstractBatcher.ExecuteBatchWithTiming(IDbCommand ps)
   at NHibernate.AdoNet.AbstractBatcher.ExecuteBatch()
   at NHibernate.AdoNet.AbstractBatcher.PrepareBatchCommand(CommandType type, SqlString sql, SqlType[] parameterTypes)
   at NHibernate.Persister.Entity.AbstractEntityPersister.Insert(Object id, Object[] fields, Boolean[] notNull, Int32 j, SqlCommandInfo sql, Object obj, ISessionImplementor session)
   at NHibernate.Persister.Entity.AbstractEntityPersister.Insert(Object id, Object[] fields, Object obj, ISessionImplementor session)
   at NHibernate.Action.EntityInsertAction.Execute()
   at NHibernate.Engine.ActionQueue.Execute(IExecutable executable)
   at NHibernate.Engine.ActionQueue.ExecuteActions(IList list)
   at NHibernate.Engine.ActionQueue.ExecuteActions()
   at NHibernate.Event.Default.AbstractFlushingEventListener.PerformExecutions(IEventSource session)
2018-11-21 16:03:58,391 ERROR IInvoiceService - could not execute batch command.[SQL: SQL not available] 
2018-11-21 16:03:58,410 DEBUG EInvoice.CAdmin.Controllers.CompanyController - MenuBycomp 
2018-11-21 16:05:12,731 ERROR NHibernate.Util.ADOExceptionReporter - ORA-12899: value too large for column "VNPT_INVOICE_ZONE2"."INVOICEVAT"."EMAILDELIVER" (actual: 184, maximum: 150) 
2018-11-21 16:05:12,731 ERROR NHibernate.Event.Default.AbstractFlushingEventListener - Could not synchronize database state with session 
NHibernate.Exceptions.GenericADOException: could not execute batch command.[SQL: SQL not available] ---> Oracle.DataAccess.Client.OracleException: ORA-12899: value too large for column "VNPT_INVOICE_ZONE2"."INVOICEVAT"."EMAILDELIVER" (actual: 184, maximum: 150)
   at Oracle.DataAccess.Client.OracleException.HandleErrorHelper(Int32 errCode, OracleConnection conn, IntPtr opsErrCtx, OpoSqlValCtx* pOpoSqlValCtx, Object src, String procedure, Boolean bCheck)
   at Oracle.DataAccess.Client.OracleCommand.ExecuteNonQuery()
   at NHibernate.AdoNet.OracleDataClientBatchingBatcher.DoExecuteBatch(IDbCommand ps)
   --- End of inner exception stack trace ---
   at NHibernate.AdoNet.OracleDataClientBatchingBatcher.DoExecuteBatch(IDbCommand ps)
   at NHibernate.AdoNet.AbstractBatcher.ExecuteBatchWithTiming(IDbCommand ps)
   at NHibernate.AdoNet.AbstractBatcher.ExecuteBatch()
   at NHibernate.AdoNet.AbstractBatcher.PrepareBatchCommand(CommandType type, SqlString sql, SqlType[] parameterTypes)
   at NHibernate.Persister.Entity.AbstractEntityPersister.Insert(Object id, Object[] fields, Boolean[] notNull, Int32 j, SqlCommandInfo sql, Object obj, ISessionImplementor session)
   at NHibernate.Persister.Entity.AbstractEntityPersister.Insert(Object id, Object[] fields, Object obj, ISessionImplementor session)
   at NHibernate.Action.EntityInsertAction.Execute()
   at NHibernate.Engine.ActionQueue.Execute(IExecutable executable)
   at NHibernate.Engine.ActionQueue.ExecuteActions(IList list)
   at NHibernate.Engine.ActionQueue.ExecuteActions()
   at NHibernate.Event.Default.AbstractFlushingEventListener.PerformExecutions(IEventSource session)
2018-11-21 16:05:12,732 ERROR IInvoiceService - could not execute batch command.[SQL: SQL not available] 
2018-11-21 16:05:12,750 DEBUG EInvoice.CAdmin.Controllers.CompanyController - MenuBycomp 
2018-11-21 16:05:19,519 ERROR NHibernate.Util.ADOExceptionReporter - ORA-12899: value too large for column "VNPT_INVOICE_ZONE2"."INVOICEVAT"."EMAILDELIVER" (actual: 184, maximum: 150) 
2018-11-21 16:05:19,519 ERROR NHibernate.Event.Default.AbstractFlushingEventListener - Could not synchronize database state with session 
NHibernate.Exceptions.GenericADOException: could not execute batch command.[SQL: SQL not available] ---> Oracle.DataAccess.Client.OracleException: ORA-12899: value too large for column "VNPT_INVOICE_ZONE2"."INVOICEVAT"."EMAILDELIVER" (actual: 184, maximum: 150)
   at Oracle.DataAccess.Client.OracleException.HandleErrorHelper(Int32 errCode, OracleConnection conn, IntPtr opsErrCtx, OpoSqlValCtx* pOpoSqlValCtx, Object src, String procedure, Boolean bCheck)
   at Oracle.DataAccess.Client.OracleCommand.ExecuteNonQuery()
   at NHibernate.AdoNet.OracleDataClientBatchingBatcher.DoExecuteBatch(IDbCommand ps)
   --- End of inner exception stack trace ---
   at NHibernate.AdoNet.OracleDataClientBatchingBatcher.DoExecuteBatch(IDbCommand ps)
   at NHibernate.AdoNet.AbstractBatcher.ExecuteBatchWithTiming(IDbCommand ps)
   at NHibernate.AdoNet.AbstractBatcher.ExecuteBatch()
   at NHibernate.AdoNet.AbstractBatcher.PrepareBatchCommand(CommandType type, SqlString sql, SqlType[] parameterTypes)
   at NHibernate.Persister.Entity.AbstractEntityPersister.Insert(Object id, Object[] fields, Boolean[] notNull, Int32 j, SqlCommandInfo sql, Object obj, ISessionImplementor session)
   at NHibernate.Persister.Entity.AbstractEntityPersister.Insert(Object id, Object[] fields, Object obj, ISessionImplementor session)
   at NHibernate.Action.EntityInsertAction.Execute()
   at NHibernate.Engine.ActionQueue.Execute(IExecutable executable)
   at NHibernate.Engine.ActionQueue.ExecuteActions(IList list)
   at NHibernate.Engine.ActionQueue.ExecuteActions()
   at NHibernate.Event.Default.AbstractFlushingEventListener.PerformExecutions(IEventSource session)
2018-11-21 16:05:19,521 ERROR IInvoiceService - could not execute batch command.[SQL: SQL not available] 
2018-11-21 16:05:19,536 DEBUG EInvoice.CAdmin.Controllers.CompanyController - MenuBycomp 
2018-11-21 16:05:25,644 ERROR NHibernate.Util.ADOExceptionReporter - ORA-12899: value too large for column "VNPT_INVOICE_ZONE2"."INVOICEVAT"."EMAILDELIVER" (actual: 184, maximum: 150) 
2018-11-21 16:05:25,644 ERROR NHibernate.Event.Default.AbstractFlushingEventListener - Could not synchronize database state with session 
NHibernate.Exceptions.GenericADOException: could not execute batch command.[SQL: SQL not available] ---> Oracle.DataAccess.Client.OracleException: ORA-12899: value too large for column "VNPT_INVOICE_ZONE2"."INVOICEVAT"."EMAILDELIVER" (actual: 184, maximum: 150)
   at Oracle.DataAccess.Client.OracleException.HandleErrorHelper(Int32 errCode, OracleConnection conn, IntPtr opsErrCtx, OpoSqlValCtx* pOpoSqlValCtx, Object src, String procedure, Boolean bCheck)
   at Oracle.DataAccess.Client.OracleCommand.ExecuteNonQuery()
   at NHibernate.AdoNet.OracleDataClientBatchingBatcher.DoExecuteBatch(IDbCommand ps)
   --- End of inner exception stack trace ---
   at NHibernate.AdoNet.OracleDataClientBatchingBatcher.DoExecuteBatch(IDbCommand ps)
   at NHibernate.AdoNet.AbstractBatcher.ExecuteBatchWithTiming(IDbCommand ps)
   at NHibernate.AdoNet.AbstractBatcher.ExecuteBatch()
   at NHibernate.AdoNet.AbstractBatcher.PrepareBatchCommand(CommandType type, SqlString sql, SqlType[] parameterTypes)
   at NHibernate.Persister.Entity.AbstractEntityPersister.Insert(Object id, Object[] fields, Boolean[] notNull, Int32 j, SqlCommandInfo sql, Object obj, ISessionImplementor session)
   at NHibernate.Persister.Entity.AbstractEntityPersister.Insert(Object id, Object[] fields, Object obj, ISessionImplementor session)
   at NHibernate.Action.EntityInsertAction.Execute()
   at NHibernate.Engine.ActionQueue.Execute(IExecutable executable)
   at NHibernate.Engine.ActionQueue.ExecuteActions(IList list)
   at NHibernate.Engine.ActionQueue.ExecuteActions()
   at NHibernate.Event.Default.AbstractFlushingEventListener.PerformExecutions(IEventSource session)
2018-11-21 16:05:25,645 ERROR IInvoiceService - could not execute batch command.[SQL: SQL not available] 
2018-11-21 16:05:25,660 DEBUG EInvoice.CAdmin.Controllers.CompanyController - MenuBycomp 
2018-11-21 16:05:45,899 ERROR NHibernate.Util.ADOExceptionReporter - ORA-12899: value too large for column "VNPT_INVOICE_ZONE2"."INVOICEVAT"."EMAILDELIVER" (actual: 184, maximum: 150) 
2018-11-21 16:05:45,899 ERROR NHibernate.Event.Default.AbstractFlushingEventListener - Could not synchronize database state with session 
NHibernate.Exceptions.GenericADOException: could not execute batch command.[SQL: SQL not available] ---> Oracle.DataAccess.Client.OracleException: ORA-12899: value too large for column "VNPT_INVOICE_ZONE2"."INVOICEVAT"."EMAILDELIVER" (actual: 184, maximum: 150)
   at Oracle.DataAccess.Client.OracleException.HandleErrorHelper(Int32 errCode, OracleConnection conn, IntPtr opsErrCtx, OpoSqlValCtx* pOpoSqlValCtx, Object src, String procedure, Boolean bCheck)
   at Oracle.DataAccess.Client.OracleCommand.ExecuteNonQuery()
   at NHibernate.AdoNet.OracleDataClientBatchingBatcher.DoExecuteBatch(IDbCommand ps)
   --- End of inner exception stack trace ---
   at NHibernate.AdoNet.OracleDataClientBatchingBatcher.DoExecuteBatch(IDbCommand ps)
   at NHibernate.AdoNet.AbstractBatcher.ExecuteBatchWithTiming(IDbCommand ps)
   at NHibernate.AdoNet.AbstractBatcher.ExecuteBatch()
   at NHibernate.AdoNet.AbstractBatcher.PrepareBatchCommand(CommandType type, SqlString sql, SqlType[] parameterTypes)
   at NHibernate.Persister.Entity.AbstractEntityPersister.Insert(Object id, Object[] fields, Boolean[] notNull, Int32 j, SqlCommandInfo sql, Object obj, ISessionImplementor session)
   at NHibernate.Persister.Entity.AbstractEntityPersister.Insert(Object id, Object[] fields, Object obj, ISessionImplementor session)
   at NHibernate.Action.EntityInsertAction.Execute()
   at NHibernate.Engine.ActionQueue.Execute(IExecutable executable)
   at NHibernate.Engine.ActionQueue.ExecuteActions(IList list)
   at NHibernate.Engine.ActionQueue.ExecuteActions()
   at NHibernate.Event.Default.AbstractFlushingEventListener.PerformExecutions(IEventSource session)
2018-11-21 16:05:45,900 ERROR IInvoiceService - could not execute batch command.[SQL: SQL not available] 
2018-11-21 16:05:45,914 DEBUG EInvoice.CAdmin.Controllers.CompanyController - MenuBycomp 
2018-11-21 16:06:17,455 DEBUG EInvoice.CAdmin.Controllers.CompanyController - MenuBycomp 
2018-11-21 16:06:23,891 DEBUG EInvoice.CAdmin.Controllers.CompanyController - MenuBycomp 
2018-11-21 16:06:30,891 DEBUG EInvoice.CAdmin.Controllers.CompanyController - MenuBycomp 
2018-11-21 16:06:34,891 DEBUG EInvoice.CAdmin.Controllers.CompanyController - MenuBycomp 
2018-11-21 16:06:37,344 DEBUG EInvoice.CAdmin.Controllers.CompanyController - MenuBycomp 
2018-11-21 16:07:36,010 INFO EInvoice.CAdmin.Controllers.PublishController - Create Publish by: pesvnadmin|InvInfo:2922;PS/18E;5000;1;5000_ 
2018-11-21 16:07:36,189 DEBUG EInvoice.CAdmin.Controllers.CompanyController - MenuBycomp 
2018-11-21 16:07:46,043 ERROR EInvoice.CAdmin.Controllers.PublishController - Bat dau gui thong bao phat hanh 
2018-11-21 16:07:46,055 INFO EInvoice.CAdmin.Controllers.PublishController - SelectedPublish Publish by: pesvnadmin Info-- ID: 4976 
2018-11-21 16:07:46,077 INFO EInvoice.CAdmin.Controllers.PublishController - SelectedPublish Publish by: pesvnadmin Info-- ID: 4976 
2018-11-21 16:08:05,707 DEBUG EInvoice.CAdmin.Controllers.EInvoiceController - EInvoiceController Index 
2018-11-21 16:08:05,707 INFO EInvoice.CAdmin.Controllers.EInvoiceController - Index1927 pattern:  serial:  
2018-11-21 16:08:05,804 DEBUG EInvoice.CAdmin.Controllers.CompanyController - MenuBycomp 
2018-11-21 16:08:07,584 DEBUG EInvoice.CAdmin.Controllers.CompanyController - MenuBycomp 
2018-11-21 16:08:54,579 ERROR NHibernate.Util.ADOExceptionReporter - ORA-12899: value too large for column "VNPT_INVOICE_ZONE2"."INVOICEVAT"."EMAILDELIVER" (actual: 184, maximum: 150) 
2018-11-21 16:08:54,579 ERROR NHibernate.Event.Default.AbstractFlushingEventListener - Could not synchronize database state with session 
NHibernate.Exceptions.GenericADOException: could not execute batch command.[SQL: SQL not available] ---> Oracle.DataAccess.Client.OracleException: ORA-12899: value too large for column "VNPT_INVOICE_ZONE2"."INVOICEVAT"."EMAILDELIVER" (actual: 184, maximum: 150)
   at Oracle.DataAccess.Client.OracleException.HandleErrorHelper(Int32 errCode, OracleConnection conn, IntPtr opsErrCtx, OpoSqlValCtx* pOpoSqlValCtx, Object src, String procedure, Boolean bCheck)
   at Oracle.DataAccess.Client.OracleCommand.ExecuteNonQuery()
   at NHibernate.AdoNet.OracleDataClientBatchingBatcher.DoExecuteBatch(IDbCommand ps)
   --- End of inner exception stack trace ---
   at NHibernate.AdoNet.OracleDataClientBatchingBatcher.DoExecuteBatch(IDbCommand ps)
   at NHibernate.AdoNet.AbstractBatcher.ExecuteBatchWithTiming(IDbCommand ps)
   at NHibernate.AdoNet.AbstractBatcher.ExecuteBatch()
   at NHibernate.AdoNet.AbstractBatcher.PrepareBatchCommand(CommandType type, SqlString sql, SqlType[] parameterTypes)
   at NHibernate.Persister.Entity.AbstractEntityPersister.Insert(Object id, Object[] fields, Boolean[] notNull, Int32 j, SqlCommandInfo sql, Object obj, ISessionImplementor session)
   at NHibernate.Persister.Entity.AbstractEntityPersister.Insert(Object id, Object[] fields, Object obj, ISessionImplementor session)
   at NHibernate.Action.EntityInsertAction.Execute()
   at NHibernate.Engine.ActionQueue.Execute(IExecutable executable)
   at NHibernate.Engine.ActionQueue.ExecuteActions(IList list)
   at NHibernate.Engine.ActionQueue.ExecuteActions()
   at NHibernate.Event.Default.AbstractFlushingEventListener.PerformExecutions(IEventSource session)
2018-11-21 16:08:54,580 ERROR IInvoiceService - could not execute batch command.[SQL: SQL not available] 
2018-11-21 16:08:54,597 DEBUG EInvoice.CAdmin.Controllers.CompanyController - MenuBycomp 
