2019-07-17 13:43:34,294 INFO EInvoice.CAdmin.Controllers.AccountController [::1][::1]['qot5ka22r3wsqwl1wbct5eo0][][LogOn] - Start login 
2019-07-17 13:43:34,329 INFO EInvoice.CAdmin.Controllers.AccountController [::1][::1]['qot5ka22r3wsqwl1wbct5eo0][][LogOn] - Login: satragroupadmin 
2019-07-17 13:43:35,450 INFO EInvoice.CAdmin.Controllers.AccountController [::1][::1]['qot5ka22r3wsqwl1wbct5eo0][][LogOn] - LogOn:, Date:17/07/2019 1:43:35 CH 
2019-07-17 13:43:35,451 INFO EInvoice.CAdmin.Controllers.AccountController [::1][::1]['qot5ka22r3wsqwl1wbct5eo0][][LogOn] - End login 
2019-07-17 13:43:36,091 DEBUG EInvoice.CAdmin.Controllers.CompanyController [::1][::1]['qot5ka22r3wsqwl1wbct5eo0][satragroupadmin][MenuBycomp] - MenuBycomp 
2019-07-17 13:43:38,517 INFO EInvoice.CAdmin.Controllers.EInvoiceController [::1][::1]['qot5ka22r3wsqwl1wbct5eo0][satragroupadmin][Index] - Start Search Einvoice 
2019-07-17 13:43:38,519 DEBUG EInvoice.CAdmin.Controllers.EInvoiceController [::1][::1]['qot5ka22r3wsqwl1wbct5eo0][satragroupadmin][Index] - EInvoiceController Index 
2019-07-17 13:43:38,520 INFO EInvoice.CAdmin.Controllers.EInvoiceController [::1][::1]['qot5ka22r3wsqwl1wbct5eo0][satragroupadmin][Index] - Index1962 pattern:  serial:  
2019-07-17 13:43:39,934 INFO EInvoice.CAdmin.Controllers.EInvoiceController [::1][::1]['qot5ka22r3wsqwl1wbct5eo0][satragroupadmin][Index] - End Search Einvoice 
2019-07-17 13:43:40,161 DEBUG EInvoice.CAdmin.Controllers.CompanyController [::1][::1]['qot5ka22r3wsqwl1wbct5eo0][satragroupadmin][MenuBycomp] - MenuBycomp 
2019-07-17 13:43:42,748 DEBUG EInvoice.CAdmin.Controllers.CompanyController [::1][::1]['qot5ka22r3wsqwl1wbct5eo0][satragroupadmin][MenuBycomp] - MenuBycomp 
2019-07-17 13:47:14,644 DEBUG EInvoice.CAdmin.Controllers.CompanyController [::1][::1]['qot5ka22r3wsqwl1wbct5eo0][satragroupadmin][MenuBycomp] - MenuBycomp 
2019-07-17 13:53:26,560 DEBUG EInvoice.CAdmin.Controllers.CompanyController [::1][::1]['qot5ka22r3wsqwl1wbct5eo0][satragroupadmin][MenuBycomp] - MenuBycomp 
2019-07-17 13:53:39,473 DEBUG EInvoice.CAdmin.Controllers.CompanyController [::1][::1]['qot5ka22r3wsqwl1wbct5eo0][satragroupadmin][MenuBycomp] - MenuBycomp 
2019-07-17 13:53:40,660 DEBUG EInvoice.CAdmin.Controllers.CompanyController [::1][::1]['qot5ka22r3wsqwl1wbct5eo0][satragroupadmin][MenuBycomp] - MenuBycomp 
2019-07-17 13:56:55,446 DEBUG EInvoice.CAdmin.Controllers.CompanyController [::1][::1]['qot5ka22r3wsqwl1wbct5eo0][satragroupadmin][MenuBycomp] - MenuBycomp 
2019-07-17 13:58:52,042 DEBUG EInvoice.CAdmin.Controllers.CompanyController [::1][::1]['qot5ka22r3wsqwl1wbct5eo0][satragroupadmin][MenuBycomp] - MenuBycomp 
2019-07-17 14:03:37,441 DEBUG EInvoice.CAdmin.Controllers.CompanyController [::1][::1]['qot5ka22r3wsqwl1wbct5eo0][satragroupadmin][MenuBycomp] - MenuBycomp 
2019-07-17 14:07:44,466 DEBUG EInvoice.CAdmin.Controllers.CompanyController [::1][::1]['qot5ka22r3wsqwl1wbct5eo0][satragroupadmin][MenuBycomp] - MenuBycomp 
2019-07-17 14:12:18,328 DEBUG EInvoice.CAdmin.Controllers.CompanyController [::1][::1]['qot5ka22r3wsqwl1wbct5eo0][satragroupadmin][MenuBycomp] - MenuBycomp 
2019-07-17 14:14:25,937 DEBUG EInvoice.CAdmin.Controllers.CompanyController [::1][::1]['qot5ka22r3wsqwl1wbct5eo0][satragroupadmin][MenuBycomp] - MenuBycomp 
2019-07-17 14:20:02,053 DEBUG EInvoice.CAdmin.Controllers.CompanyController [::1][::1]['qot5ka22r3wsqwl1wbct5eo0][satragroupadmin][MenuBycomp] - MenuBycomp 
2019-07-17 14:23:47,423 INFO EInvoice.CAdmin.Controllers.EInvoiceController [::1][::1]['qot5ka22r3wsqwl1wbct5eo0][satragroupadmin][Index] - Start Search Einvoice 
2019-07-17 14:23:47,423 DEBUG EInvoice.CAdmin.Controllers.EInvoiceController [::1][::1]['qot5ka22r3wsqwl1wbct5eo0][satragroupadmin][Index] - EInvoiceController Index 
2019-07-17 14:23:47,423 INFO EInvoice.CAdmin.Controllers.EInvoiceController [::1][::1]['qot5ka22r3wsqwl1wbct5eo0][satragroupadmin][Index] - Index1962 pattern:  serial:  
2019-07-17 14:23:48,405 INFO EInvoice.CAdmin.Controllers.EInvoiceController [::1][::1]['qot5ka22r3wsqwl1wbct5eo0][satragroupadmin][Index] - End Search Einvoice 
2019-07-17 14:23:48,443 DEBUG EInvoice.CAdmin.Controllers.CompanyController [::1][::1]['qot5ka22r3wsqwl1wbct5eo0][satragroupadmin][MenuBycomp] - MenuBycomp 
2019-07-17 14:23:50,619 DEBUG EInvoice.CAdmin.Controllers.CompanyController [::1][::1]['qot5ka22r3wsqwl1wbct5eo0][satragroupadmin][MenuBycomp] - MenuBycomp 
2019-07-17 14:24:22,725 INFO EInvoice.CAdmin.Controllers.EInvoiceController [::1][::1]['qot5ka22r3wsqwl1wbct5eo0][satragroupadmin][Create] - Create EInvoice by: satragroupadmin Info-- TenKhachHang:  MaKhachHang: TESTVNPT01 SoTien: 1948 
2019-07-17 14:24:22,734 INFO EInvoice.CAdmin.Controllers.EInvoiceController [::1][::1]['qot5ka22r3wsqwl1wbct5eo0][satragroupadmin][Index] - Start Search Einvoice 
2019-07-17 14:24:22,734 DEBUG EInvoice.CAdmin.Controllers.EInvoiceController [::1][::1]['qot5ka22r3wsqwl1wbct5eo0][satragroupadmin][Index] - EInvoiceController Index 
2019-07-17 14:24:22,735 INFO EInvoice.CAdmin.Controllers.EInvoiceController [::1][::1]['qot5ka22r3wsqwl1wbct5eo0][satragroupadmin][Index] - Index1962 pattern: 01GTKT0/003 serial: AA/19E 
2019-07-17 14:24:23,719 INFO EInvoice.CAdmin.Controllers.EInvoiceController [::1][::1]['qot5ka22r3wsqwl1wbct5eo0][satragroupadmin][Index] - End Search Einvoice 
2019-07-17 14:24:23,723 DEBUG EInvoice.CAdmin.Controllers.CompanyController [::1][::1]['qot5ka22r3wsqwl1wbct5eo0][satragroupadmin][MenuBycomp] - MenuBycomp 
2019-07-17 14:24:28,017 INFO EInvoice.CAdmin.Controllers.ShareController [::1][::1]['qot5ka22r3wsqwl1wbct5eo0][satragroupadmin][ajxPreview] - call: yiY646iWTdA1En1AWmBaqw== pattern: 01GTKT0/003 company: 1962 
2019-07-17 14:24:36,356 DEBUG EInvoice.CAdmin.Controllers.CompanyController [::1][::1]['qot5ka22r3wsqwl1wbct5eo0][satragroupadmin][MenuBycomp] - MenuBycomp 
