2019-03-13 08:25:02,417 INFO EInvoice.CAdmin.Controllers.AccountController  []['idnw5j4ybitde2ztolskeryu][203.162.100.29][203.162.100.29][LogOn] - Login: unileveradmin 
2019-03-13 08:25:03,977 INFO EInvoice.CAdmin.Controllers.AccountController  []['idnw5j4ybitde2ztolskeryu][203.162.100.29][203.162.100.29][LogOn] - LogOn:, Date:13/03/2019 8:25:03 SA 
2019-03-13 08:25:05,910 DEBUG EInvoice.CAdmin.Controllers.CompanyController  [unileveradmin]['idnw5j4ybitde2ztolskeryu][203.162.100.29][203.162.100.29][MenuBycomp] - MenuBycomp 
2019-03-13 08:25:14,737 DEBUG EInvoice.CAdmin.Controllers.CompanyController  [unileveradmin]['idnw5j4ybitde2ztolskeryu][203.162.100.29][203.162.100.29][MenuBycomp] - MenuBycomp 
2019-03-13 08:25:20,513 DEBUG EInvoice.CAdmin.Controllers.CompanyController  [unileveradmin]['idnw5j4ybitde2ztolskeryu][203.162.100.29][203.162.100.29][MenuBycomp] - MenuBycomp 
2019-03-13 08:25:26,974 DEBUG EInvoice.CAdmin.Controllers.CompanyController  [unileveradmin]['idnw5j4ybitde2ztolskeryu][203.162.100.29][203.162.100.29][MenuBycomp] - MenuBycomp 
2019-03-13 08:25:30,534 DEBUG EInvoice.CAdmin.Controllers.EInvoiceController  [unileveradmin]['idnw5j4ybitde2ztolskeryu][203.162.100.29][203.162.100.29][Index] - EInvoiceController Index 
2019-03-13 08:25:30,535 INFO EInvoice.CAdmin.Controllers.EInvoiceController  [unileveradmin]['idnw5j4ybitde2ztolskeryu][203.162.100.29][203.162.100.29][Index] - Index1942 pattern:  serial:  
2019-03-13 08:25:30,676 DEBUG EInvoice.CAdmin.Controllers.CompanyController  [unileveradmin]['idnw5j4ybitde2ztolskeryu][203.162.100.29][203.162.100.29][MenuBycomp] - MenuBycomp 
2019-03-13 08:25:40,033 DEBUG EInvoice.CAdmin.Controllers.CompanyController  [unileveradmin]['idnw5j4ybitde2ztolskeryu][203.162.100.29][203.162.100.29][MenuBycomp] - MenuBycomp 
2019-03-13 08:25:49,300 DEBUG EInvoice.CAdmin.Controllers.CompanyController  [unileveradmin]['idnw5j4ybitde2ztolskeryu][203.162.100.29][203.162.100.29][MenuBycomp] - MenuBycomp 
2019-03-13 08:29:19,115 DEBUG EInvoice.CAdmin.Controllers.CompanyController  [unileveradmin]['idnw5j4ybitde2ztolskeryu][203.162.100.29][203.162.100.29][MenuBycomp] - MenuBycomp 
2019-03-13 08:31:41,814 INFO EInvoice.CAdmin.Controllers.AccountController  []['q2bgac3sbet1vat4hzvfb12h][203.162.100.29][203.162.100.29][LogOn] - Login: unileveradmin 
2019-03-13 08:31:41,857 INFO EInvoice.CAdmin.Controllers.AccountController  []['q2bgac3sbet1vat4hzvfb12h][203.162.100.29][203.162.100.29][LogOn] - LogOn:, Date:13/03/2019 8:31:41 SA 
2019-03-13 08:31:42,433 DEBUG EInvoice.CAdmin.Controllers.CompanyController  [unileveradmin]['q2bgac3sbet1vat4hzvfb12h][203.162.100.29][203.162.100.29][MenuBycomp] - MenuBycomp 
2019-03-13 08:32:04,777 DEBUG EInvoice.CAdmin.Controllers.CompanyController  [unileveradmin]['q2bgac3sbet1vat4hzvfb12h][203.162.100.29][203.162.100.29][MenuBycomp] - MenuBycomp 
2019-03-13 08:32:11,429 DEBUG EInvoice.CAdmin.Controllers.CompanyController  [unileveradmin]['q2bgac3sbet1vat4hzvfb12h][203.162.100.29][203.162.100.29][MenuBycomp] - MenuBycomp 
2019-03-13 08:32:39,224 DEBUG EInvoice.CAdmin.Controllers.CompanyController  [unileveradmin]['q2bgac3sbet1vat4hzvfb12h][203.162.100.29][203.162.100.29][MenuBycomp] - MenuBycomp 
2019-03-13 08:34:07,593 INFO EInvoice.CAdmin.Controllers.PublishController  [unileveradmin]['q2bgac3sbet1vat4hzvfb12h][203.162.100.29][203.162.100.29][CreateRPublish] - Create Publish by: unileveradmin|InvInfo:2935;BD/19E;1000000;1;1000000_ 
2019-03-13 08:34:07,746 DEBUG EInvoice.CAdmin.Controllers.CompanyController  [unileveradmin]['q2bgac3sbet1vat4hzvfb12h][203.162.100.29][203.162.100.29][MenuBycomp] - MenuBycomp 
2019-03-13 08:34:34,936 ERROR EInvoice.CAdmin.Controllers.PublishController  [unileveradmin]['q2bgac3sbet1vat4hzvfb12h][203.162.100.29][203.162.100.29][SelectedPublish] - Bat dau gui thong bao phat hanh 
2019-03-13 08:34:34,977 INFO EInvoice.CAdmin.Controllers.PublishController  [unileveradmin]['q2bgac3sbet1vat4hzvfb12h][203.162.100.29][203.162.100.29][SelectedPublish] - SelectedPublish Publish by: unileveradmin Info-- ID: 4986 
2019-03-13 08:34:35,046 INFO EInvoice.CAdmin.Controllers.PublishController  [unileveradmin]['q2bgac3sbet1vat4hzvfb12h][203.162.100.29][203.162.100.29][SelectedPublish] - SelectedPublish Publish by: unileveradmin Info-- ID: 4986 
2019-03-13 08:34:43,036 DEBUG EInvoice.CAdmin.Controllers.CompanyController  [unileveradmin]['q2bgac3sbet1vat4hzvfb12h][203.162.100.29][203.162.100.29][MenuBycomp] - MenuBycomp 
2019-03-13 08:34:51,360 DEBUG EInvoice.CAdmin.Controllers.CompanyController  [unileveradmin]['q2bgac3sbet1vat4hzvfb12h][203.162.100.29][203.162.100.29][MenuBycomp] - MenuBycomp 
2019-03-13 08:35:01,149 DEBUG EInvoice.CAdmin.Controllers.EInvoiceController  [unileveradmin]['q2bgac3sbet1vat4hzvfb12h][203.162.100.29][203.162.100.29][Index] - EInvoiceController Index 
2019-03-13 08:35:01,149 INFO EInvoice.CAdmin.Controllers.EInvoiceController  [unileveradmin]['q2bgac3sbet1vat4hzvfb12h][203.162.100.29][203.162.100.29][Index] - Index1942 pattern:  serial:  
2019-03-13 08:35:01,369 DEBUG EInvoice.CAdmin.Controllers.CompanyController  [unileveradmin]['q2bgac3sbet1vat4hzvfb12h][203.162.100.29][203.162.100.29][MenuBycomp] - MenuBycomp 
2019-03-13 08:35:10,714 DEBUG EInvoice.CAdmin.Controllers.CompanyController  [unileveradmin]['q2bgac3sbet1vat4hzvfb12h][203.162.100.29][203.162.100.29][MenuBycomp] - MenuBycomp 
2019-03-13 08:42:17,485 INFO EInvoice.CAdmin.Controllers.EInvoiceController  [unileveradmin]['q2bgac3sbet1vat4hzvfb12h][203.162.100.29][203.162.100.29][Edit] - Edit EInvoice by: unileveradmin Info-- TenKhachHang: CÔNG TY TNHH KINGSLAND TRAVEL MaKhachHang: 0314358050 SoTien: 140952158 
2019-03-13 08:42:19,213 DEBUG EInvoice.CAdmin.Controllers.EInvoiceController  [unileveradmin]['q2bgac3sbet1vat4hzvfb12h][203.162.100.29][203.162.100.29][Index] - EInvoiceController Index 
2019-03-13 08:42:19,214 INFO EInvoice.CAdmin.Controllers.EInvoiceController  [unileveradmin]['q2bgac3sbet1vat4hzvfb12h][203.162.100.29][203.162.100.29][Index] - Index1942 pattern: 01GTKT0/001 serial: BD/19E 
2019-03-13 08:42:19,281 DEBUG EInvoice.CAdmin.Controllers.CompanyController  [unileveradmin]['q2bgac3sbet1vat4hzvfb12h][203.162.100.29][203.162.100.29][MenuBycomp] - MenuBycomp 
2019-03-13 08:42:40,610 INFO EInvoice.CAdmin.Controllers.EInvoiceController  [unileveradmin]['q2bgac3sbet1vat4hzvfb12h][203.162.100.29][203.162.100.29][LaunchChoice] - LaunchChoice by: unileveradmin 
2019-03-13 08:42:40,636 ERROR EInvoice.CAdmin.Controllers.EInvoiceController  [unileveradmin]['q2bgac3sbet1vat4hzvfb12h][203.162.100.29][203.162.100.29][LaunchChoice] - ERR: The given key was not present in the dictionary. 
2019-03-13 08:42:40,876 DEBUG EInvoice.CAdmin.Controllers.EInvoiceController  [unileveradmin]['q2bgac3sbet1vat4hzvfb12h][203.162.100.29][203.162.100.29][Index] - EInvoiceController Index 
2019-03-13 08:42:40,877 INFO EInvoice.CAdmin.Controllers.EInvoiceController  [unileveradmin]['q2bgac3sbet1vat4hzvfb12h][203.162.100.29][203.162.100.29][Index] - Index1942 pattern: 01GTKT0/001 serial: BD/19E 
2019-03-13 08:42:40,931 DEBUG EInvoice.CAdmin.Controllers.CompanyController  [unileveradmin]['q2bgac3sbet1vat4hzvfb12h][203.162.100.29][203.162.100.29][MenuBycomp] - MenuBycomp 
2019-03-13 08:43:28,429 INFO EInvoice.CAdmin.Controllers.ShareController  [unileveradmin]['q2bgac3sbet1vat4hzvfb12h][203.162.100.29][203.162.100.29][ajxPreview] - call: n5FSV7SCQd7OBTIzjHhpGQ== pattern: 01GTKT0/001 company: 1942 
2019-03-13 09:01:43,791 INFO EInvoice.CAdmin.Controllers.AccountController  []['543nxtdkzbwh0vjvgv4a31pt][123.25.190.33][123.25.190.33][LogOn] - Login: unileveradmin 
2019-03-13 09:01:43,846 INFO EInvoice.CAdmin.Controllers.AccountController  []['543nxtdkzbwh0vjvgv4a31pt][123.25.190.33][123.25.190.33][LogOn] - LogOn:, Date:13/03/2019 9:01:43 SA 
2019-03-13 09:01:43,967 DEBUG EInvoice.CAdmin.Controllers.CompanyController  [unileveradmin]['543nxtdkzbwh0vjvgv4a31pt][123.25.190.33][123.25.190.33][MenuBycomp] - MenuBycomp 
2019-03-13 09:01:53,313 DEBUG EInvoice.CAdmin.Controllers.EInvoiceController  [unileveradmin]['543nxtdkzbwh0vjvgv4a31pt][123.25.190.33][123.25.190.33][Index] - EInvoiceController Index 
2019-03-13 09:01:53,313 INFO EInvoice.CAdmin.Controllers.EInvoiceController  [unileveradmin]['543nxtdkzbwh0vjvgv4a31pt][123.25.190.33][123.25.190.33][Index] - Index1942 pattern:  serial:  
2019-03-13 09:01:53,351 DEBUG EInvoice.CAdmin.Controllers.CompanyController  [unileveradmin]['543nxtdkzbwh0vjvgv4a31pt][123.25.190.33][123.25.190.33][MenuBycomp] - MenuBycomp 
2019-03-13 09:01:55,963 DEBUG EInvoice.CAdmin.Controllers.CompanyController  [unileveradmin]['543nxtdkzbwh0vjvgv4a31pt][123.25.190.33][123.25.190.33][MenuBycomp] - MenuBycomp 
2019-03-13 09:03:28,950 DEBUG EInvoice.CAdmin.Controllers.CompanyController  [unileveradmin]['543nxtdkzbwh0vjvgv4a31pt][123.25.190.33][123.25.190.33][MenuBycomp] - MenuBycomp 
2019-03-13 09:05:02,570 INFO EInvoice.CAdmin.Controllers.AccountController  []['x04ykwjsvcgijqw1qk2dwg20][203.162.130.241][203.162.130.241][LogOn] - Login: unileveradminadmin 
2019-03-13 09:05:02,609 INFO EInvoice.CAdmin.Controllers.AccountController  []['x04ykwjsvcgijqw1qk2dwg20][203.162.130.241][203.162.130.241][LogOn] - LogOn:, Date:13/03/2019 9:05:02 SA 
2019-03-13 09:05:02,634 DEBUG EInvoice.CAdmin.Controllers.CompanyController  [unileveradminadmin]['x04ykwjsvcgijqw1qk2dwg20][203.162.130.241][203.162.130.241][MenuBycomp] - MenuBycomp 
2019-03-13 09:05:05,094 DEBUG EInvoice.CAdmin.Controllers.EInvoiceController  [unileveradminadmin]['x04ykwjsvcgijqw1qk2dwg20][203.162.130.241][203.162.130.241][Index] - EInvoiceController Index 
2019-03-13 09:05:05,094 INFO EInvoice.CAdmin.Controllers.EInvoiceController  [unileveradminadmin]['x04ykwjsvcgijqw1qk2dwg20][203.162.130.241][203.162.130.241][Index] - Index1942 pattern:  serial:  
2019-03-13 09:05:05,131 DEBUG EInvoice.CAdmin.Controllers.CompanyController  [unileveradminadmin]['x04ykwjsvcgijqw1qk2dwg20][203.162.130.241][203.162.130.241][MenuBycomp] - MenuBycomp 
2019-03-13 09:05:15,123 DEBUG EInvoice.CAdmin.Controllers.EInvoiceController  [unileveradminadmin]['x04ykwjsvcgijqw1qk2dwg20][203.162.130.241][203.162.130.241][Index] - EInvoiceController Index 
2019-03-13 09:05:15,123 INFO EInvoice.CAdmin.Controllers.EInvoiceController  [unileveradminadmin]['x04ykwjsvcgijqw1qk2dwg20][203.162.130.241][203.162.130.241][Index] - Index1942 pattern: 01GTKT0/001 serial: BD/19E 
2019-03-13 09:05:15,157 DEBUG EInvoice.CAdmin.Controllers.CompanyController  [unileveradminadmin]['x04ykwjsvcgijqw1qk2dwg20][203.162.130.241][203.162.130.241][MenuBycomp] - MenuBycomp 
2019-03-13 09:05:19,547 INFO EInvoice.CAdmin.Controllers.EInvoiceController  [unileveradminadmin]['x04ykwjsvcgijqw1qk2dwg20][203.162.130.241][203.162.130.241][LaunchChoice] - LaunchChoice by: unileveradminadmin 
2019-03-13 09:05:19,558 ERROR EInvoice.CAdmin.Controllers.EInvoiceController  [unileveradminadmin]['x04ykwjsvcgijqw1qk2dwg20][203.162.130.241][203.162.130.241][LaunchChoice] - ERR: The given key was not present in the dictionary. 
2019-03-13 09:05:19,568 DEBUG EInvoice.CAdmin.Controllers.EInvoiceController  [unileveradminadmin]['x04ykwjsvcgijqw1qk2dwg20][203.162.130.241][203.162.130.241][Index] - EInvoiceController Index 
2019-03-13 09:05:19,569 INFO EInvoice.CAdmin.Controllers.EInvoiceController  [unileveradminadmin]['x04ykwjsvcgijqw1qk2dwg20][203.162.130.241][203.162.130.241][Index] - Index1942 pattern: 01GTKT0/001 serial: BD/19E 
2019-03-13 09:05:19,613 DEBUG EInvoice.CAdmin.Controllers.CompanyController  [unileveradminadmin]['x04ykwjsvcgijqw1qk2dwg20][203.162.130.241][203.162.130.241][MenuBycomp] - MenuBycomp 
2019-03-13 09:05:33,020 DEBUG EInvoice.CAdmin.Controllers.CompanyController  [unileveradminadmin]['x04ykwjsvcgijqw1qk2dwg20][203.162.130.241][203.162.130.241][MenuBycomp] - MenuBycomp 
2019-03-13 09:05:40,551 DEBUG EInvoice.CAdmin.Controllers.EInvoiceController  [unileveradminadmin]['x04ykwjsvcgijqw1qk2dwg20][203.162.130.241][203.162.130.241][Index] - EInvoiceController Index 
2019-03-13 09:05:40,551 INFO EInvoice.CAdmin.Controllers.EInvoiceController  [unileveradminadmin]['x04ykwjsvcgijqw1qk2dwg20][203.162.130.241][203.162.130.241][Index] - Index1942 pattern:  serial:  
2019-03-13 09:05:40,587 DEBUG EInvoice.CAdmin.Controllers.CompanyController  [unileveradminadmin]['x04ykwjsvcgijqw1qk2dwg20][203.162.130.241][203.162.130.241][MenuBycomp] - MenuBycomp 
2019-03-13 09:06:08,971 DEBUG EInvoice.CAdmin.Controllers.CompanyController  [unileveradminadmin]['x04ykwjsvcgijqw1qk2dwg20][203.162.130.241][203.162.130.241][MenuBycomp] - MenuBycomp 
2019-03-13 09:06:12,667 DEBUG EInvoice.CAdmin.Controllers.EInvoiceController  [unileveradminadmin]['x04ykwjsvcgijqw1qk2dwg20][203.162.130.241][203.162.130.241][Index] - EInvoiceController Index 
2019-03-13 09:06:12,668 INFO EInvoice.CAdmin.Controllers.EInvoiceController  [unileveradminadmin]['x04ykwjsvcgijqw1qk2dwg20][203.162.130.241][203.162.130.241][Index] - Index1942 pattern:  serial:  
2019-03-13 09:06:12,703 DEBUG EInvoice.CAdmin.Controllers.CompanyController  [unileveradminadmin]['x04ykwjsvcgijqw1qk2dwg20][203.162.130.241][203.162.130.241][MenuBycomp] - MenuBycomp 
2019-03-13 09:07:34,850 INFO EInvoice.CAdmin.Controllers.ShareController  [unileveradminadmin]['x04ykwjsvcgijqw1qk2dwg20][203.162.130.241][203.162.130.241][ajxPreview] - call: Qcg24b+SbtroTJgbvSB5Ag== pattern: 01GTKT0/001 company: 1942 
2019-03-13 09:07:48,005 DEBUG EInvoice.CAdmin.Controllers.EInvoiceController  [unileveradminadmin]['x04ykwjsvcgijqw1qk2dwg20][203.162.130.241][203.162.130.241][Index] - EInvoiceController Index 
2019-03-13 09:07:48,005 INFO EInvoice.CAdmin.Controllers.EInvoiceController  [unileveradminadmin]['x04ykwjsvcgijqw1qk2dwg20][203.162.130.241][203.162.130.241][Index] - Index1942 pattern:  serial:  
2019-03-13 09:07:48,055 DEBUG EInvoice.CAdmin.Controllers.CompanyController  [unileveradminadmin]['x04ykwjsvcgijqw1qk2dwg20][203.162.130.241][203.162.130.241][MenuBycomp] - MenuBycomp 
2019-03-13 09:09:23,978 INFO EInvoice.CAdmin.Controllers.EInvoiceController  [unileveradminadmin]['x04ykwjsvcgijqw1qk2dwg20][203.162.130.241][203.162.130.241][LaunchChoice] - LaunchChoice by: unileveradminadmin 
2019-03-13 09:09:23,992 ERROR EInvoice.CAdmin.Controllers.EInvoiceController  [unileveradminadmin]['x04ykwjsvcgijqw1qk2dwg20][203.162.130.241][203.162.130.241][LaunchChoice] - ERR: The given key was not present in the dictionary. 
2019-03-13 09:09:24,002 DEBUG EInvoice.CAdmin.Controllers.EInvoiceController  [unileveradminadmin]['x04ykwjsvcgijqw1qk2dwg20][203.162.130.241][203.162.130.241][Index] - EInvoiceController Index 
2019-03-13 09:09:24,003 INFO EInvoice.CAdmin.Controllers.EInvoiceController  [unileveradminadmin]['x04ykwjsvcgijqw1qk2dwg20][203.162.130.241][203.162.130.241][Index] - Index1942 pattern: 01GTKT0/001 serial:  
2019-03-13 09:09:24,039 DEBUG EInvoice.CAdmin.Controllers.CompanyController  [unileveradminadmin]['x04ykwjsvcgijqw1qk2dwg20][203.162.130.241][203.162.130.241][MenuBycomp] - MenuBycomp 
2019-03-13 09:11:32,313 INFO EInvoice.CAdmin.Controllers.AccountController  []['x04ykwjsvcgijqw1qk2dwg20][203.162.130.241][203.162.130.241][LogOn] - Login: unileveradmin 
2019-03-13 09:11:32,357 INFO EInvoice.CAdmin.Controllers.AccountController  []['x04ykwjsvcgijqw1qk2dwg20][203.162.130.241][203.162.130.241][LogOn] - LogOn:, Date:13/03/2019 9:11:32 SA 
2019-03-13 09:11:32,379 DEBUG EInvoice.CAdmin.Controllers.CompanyController  [unileveradmin]['x04ykwjsvcgijqw1qk2dwg20][203.162.130.241][203.162.130.241][MenuBycomp] - MenuBycomp 
2019-03-13 09:11:41,583 DEBUG EInvoice.CAdmin.Controllers.CompanyController  [unileveradmin]['x04ykwjsvcgijqw1qk2dwg20][203.162.130.241][203.162.130.241][MenuBycomp] - MenuBycomp 
2019-03-13 09:11:46,701 DEBUG EInvoice.CAdmin.Controllers.EInvoiceController  [unileveradmin]['x04ykwjsvcgijqw1qk2dwg20][203.162.130.241][203.162.130.241][Index] - EInvoiceController Index 
2019-03-13 09:11:46,701 INFO EInvoice.CAdmin.Controllers.EInvoiceController  [unileveradmin]['x04ykwjsvcgijqw1qk2dwg20][203.162.130.241][203.162.130.241][Index] - Index1942 pattern:  serial:  
2019-03-13 09:11:46,767 DEBUG EInvoice.CAdmin.Controllers.CompanyController  [unileveradmin]['x04ykwjsvcgijqw1qk2dwg20][203.162.130.241][203.162.130.241][MenuBycomp] - MenuBycomp 
2019-03-13 09:11:52,424 INFO EInvoice.CAdmin.Controllers.EInvoiceController  [unileveradmin]['x04ykwjsvcgijqw1qk2dwg20][203.162.130.241][203.162.130.241][LaunchChoice] - LaunchChoice by: unileveradmin 
2019-03-13 09:11:52,433 ERROR EInvoice.CAdmin.Controllers.EInvoiceController  [unileveradmin]['x04ykwjsvcgijqw1qk2dwg20][203.162.130.241][203.162.130.241][LaunchChoice] - ERR: The given key was not present in the dictionary. 
2019-03-13 09:11:52,444 DEBUG EInvoice.CAdmin.Controllers.EInvoiceController  [unileveradmin]['x04ykwjsvcgijqw1qk2dwg20][203.162.130.241][203.162.130.241][Index] - EInvoiceController Index 
2019-03-13 09:11:52,445 INFO EInvoice.CAdmin.Controllers.EInvoiceController  [unileveradmin]['x04ykwjsvcgijqw1qk2dwg20][203.162.130.241][203.162.130.241][Index] - Index1942 pattern: 01GTKT0/001 serial:  
2019-03-13 09:11:52,495 DEBUG EInvoice.CAdmin.Controllers.CompanyController  [unileveradmin]['x04ykwjsvcgijqw1qk2dwg20][203.162.130.241][203.162.130.241][MenuBycomp] - MenuBycomp 
2019-03-13 09:18:33,367 INFO EInvoice.CAdmin.Controllers.AccountController  []['idnw5j4ybitde2ztolskeryu][203.162.100.29][203.162.100.29][LogOn] - Login: unileveradmin 
2019-03-13 09:18:33,408 INFO EInvoice.CAdmin.Controllers.AccountController  []['idnw5j4ybitde2ztolskeryu][203.162.100.29][203.162.100.29][LogOn] - LogOn:, Date:13/03/2019 9:18:33 SA 
2019-03-13 09:18:33,440 DEBUG EInvoice.CAdmin.Controllers.CompanyController  [unileveradmin]['idnw5j4ybitde2ztolskeryu][203.162.100.29][203.162.100.29][MenuBycomp] - MenuBycomp 
2019-03-13 09:25:50,197 DEBUG EInvoice.CAdmin.Controllers.EInvoiceController  [unileveradmin]['x04ykwjsvcgijqw1qk2dwg20][203.162.130.241][203.162.130.241][Delete] - Access - Delete 
2019-03-13 09:25:50,234 INFO EInvoice.CAdmin.Controllers.EInvoiceController  [unileveradmin]['x04ykwjsvcgijqw1qk2dwg20][203.162.130.241][203.162.130.241][Delete] - Delete EInvoice by: unileveradmin Info-- ID: 5848347Pattern: 01GTKT0/001 Serial: BE/19E SoHoaDon: 0 TenKhachHang: fsa MaKhachHang:  SoTien: 8999 
2019-03-13 09:25:50,234 INFO EInvoice.CAdmin.Controllers.EInvoiceController  [unileveradmin]['x04ykwjsvcgijqw1qk2dwg20][203.162.130.241][203.162.130.241][Delete] - Delete successfull id =5848347 
2019-03-13 09:25:50,245 DEBUG EInvoice.CAdmin.Controllers.EInvoiceController  [unileveradmin]['x04ykwjsvcgijqw1qk2dwg20][203.162.130.241][203.162.130.241][Index] - EInvoiceController Index 
2019-03-13 09:25:50,245 INFO EInvoice.CAdmin.Controllers.EInvoiceController  [unileveradmin]['x04ykwjsvcgijqw1qk2dwg20][203.162.130.241][203.162.130.241][Index] - Index1942 pattern: 01GTKT0/001 serial: BE/19E 
2019-03-13 09:25:50,289 DEBUG EInvoice.CAdmin.Controllers.CompanyController  [unileveradmin]['x04ykwjsvcgijqw1qk2dwg20][203.162.130.241][203.162.130.241][MenuBycomp] - MenuBycomp 
2019-03-13 09:25:52,375 DEBUG EInvoice.CAdmin.Controllers.EInvoiceController  [unileveradmin]['x04ykwjsvcgijqw1qk2dwg20][203.162.130.241][203.162.130.241][Index] - EInvoiceController Index 
2019-03-13 09:25:52,376 INFO EInvoice.CAdmin.Controllers.EInvoiceController  [unileveradmin]['x04ykwjsvcgijqw1qk2dwg20][203.162.130.241][203.162.130.241][Index] - Index1942 pattern: 01GTKT0/001 serial: BE/19E 
2019-03-13 09:25:52,425 DEBUG EInvoice.CAdmin.Controllers.CompanyController  [unileveradmin]['x04ykwjsvcgijqw1qk2dwg20][203.162.130.241][203.162.130.241][MenuBycomp] - MenuBycomp 
2019-03-13 09:25:55,441 DEBUG EInvoice.CAdmin.Controllers.EInvoiceController  [unileveradmin]['x04ykwjsvcgijqw1qk2dwg20][203.162.130.241][203.162.130.241][Index] - EInvoiceController Index 
2019-03-13 09:25:55,441 INFO EInvoice.CAdmin.Controllers.EInvoiceController  [unileveradmin]['x04ykwjsvcgijqw1qk2dwg20][203.162.130.241][203.162.130.241][Index] - Index1942 pattern: 01GTKT0/001 serial: BD/19E 
2019-03-13 09:25:55,488 DEBUG EInvoice.CAdmin.Controllers.CompanyController  [unileveradmin]['x04ykwjsvcgijqw1qk2dwg20][203.162.130.241][203.162.130.241][MenuBycomp] - MenuBycomp 
2019-03-13 09:26:00,192 INFO EInvoice.CAdmin.Controllers.EInvoiceController  [unileveradmin]['x04ykwjsvcgijqw1qk2dwg20][203.162.130.241][203.162.130.241][LaunchChoice] - LaunchChoice by: unileveradmin 
2019-03-13 09:26:00,202 ERROR EInvoice.CAdmin.Controllers.EInvoiceController  [unileveradmin]['x04ykwjsvcgijqw1qk2dwg20][203.162.130.241][203.162.130.241][LaunchChoice] - ERR: The given key was not present in the dictionary. 
2019-03-13 09:26:00,213 DEBUG EInvoice.CAdmin.Controllers.EInvoiceController  [unileveradmin]['x04ykwjsvcgijqw1qk2dwg20][203.162.130.241][203.162.130.241][Index] - EInvoiceController Index 
2019-03-13 09:26:00,214 INFO EInvoice.CAdmin.Controllers.EInvoiceController  [unileveradmin]['x04ykwjsvcgijqw1qk2dwg20][203.162.130.241][203.162.130.241][Index] - Index1942 pattern: 01GTKT0/001 serial: BD/19E 
2019-03-13 09:26:00,265 DEBUG EInvoice.CAdmin.Controllers.CompanyController  [unileveradmin]['x04ykwjsvcgijqw1qk2dwg20][203.162.130.241][203.162.130.241][MenuBycomp] - MenuBycomp 
2019-03-13 09:26:08,972 DEBUG EInvoice.CAdmin.Controllers.CompanyController  [unileveradmin]['x04ykwjsvcgijqw1qk2dwg20][203.162.130.241][203.162.130.241][MenuBycomp] - MenuBycomp 
2019-03-13 09:31:51,763 DEBUG EInvoice.CAdmin.Controllers.CompanyController  [unileveradmin]['idnw5j4ybitde2ztolskeryu][203.162.100.29][203.162.100.29][MenuBycomp] - MenuBycomp 
2019-03-13 09:34:09,300 INFO EInvoice.CAdmin.Controllers.AccountController  []['x04ykwjsvcgijqw1qk2dwg20][203.162.130.241][203.162.130.241][LogOn] - Login: unileveradminadmin 
2019-03-13 09:34:10,863 INFO EInvoice.CAdmin.Controllers.AccountController  []['x04ykwjsvcgijqw1qk2dwg20][203.162.130.241][203.162.130.241][LogOn] - LogOn:, Date:13/03/2019 9:34:10 SA 
2019-03-13 09:34:18,293 DEBUG EInvoice.CAdmin.Controllers.CompanyController  [unileveradminadmin]['x04ykwjsvcgijqw1qk2dwg20][203.162.130.241][203.162.130.241][MenuBycomp] - MenuBycomp 
2019-03-13 09:34:21,946 DEBUG EInvoice.CAdmin.Controllers.EInvoiceController  [unileveradminadmin]['x04ykwjsvcgijqw1qk2dwg20][203.162.130.241][203.162.130.241][Index] - EInvoiceController Index 
2019-03-13 09:34:21,947 INFO EInvoice.CAdmin.Controllers.EInvoiceController  [unileveradminadmin]['x04ykwjsvcgijqw1qk2dwg20][203.162.130.241][203.162.130.241][Index] - Index1942 pattern:  serial:  
2019-03-13 09:34:23,299 DEBUG EInvoice.CAdmin.Controllers.CompanyController  [unileveradminadmin]['x04ykwjsvcgijqw1qk2dwg20][203.162.130.241][203.162.130.241][MenuBycomp] - MenuBycomp 
2019-03-13 09:34:27,329 INFO EInvoice.CAdmin.Controllers.EInvoiceController  [unileveradminadmin]['x04ykwjsvcgijqw1qk2dwg20][203.162.130.241][203.162.130.241][LaunchChoice] - LaunchChoice by: unileveradminadmin 
2019-03-13 09:34:27,409 ERROR EInvoice.CAdmin.Controllers.EInvoiceController  [unileveradminadmin]['x04ykwjsvcgijqw1qk2dwg20][203.162.130.241][203.162.130.241][LaunchChoice] - ERR: The given key was not present in the dictionary. 
2019-03-13 09:34:27,425 DEBUG EInvoice.CAdmin.Controllers.EInvoiceController  [unileveradminadmin]['x04ykwjsvcgijqw1qk2dwg20][203.162.130.241][203.162.130.241][Index] - EInvoiceController Index 
2019-03-13 09:34:27,426 INFO EInvoice.CAdmin.Controllers.EInvoiceController  [unileveradminadmin]['x04ykwjsvcgijqw1qk2dwg20][203.162.130.241][203.162.130.241][Index] - Index1942 pattern: 01GTKT0/001 serial:  
2019-03-13 09:34:27,475 DEBUG EInvoice.CAdmin.Controllers.CompanyController  [unileveradminadmin]['x04ykwjsvcgijqw1qk2dwg20][203.162.130.241][203.162.130.241][MenuBycomp] - MenuBycomp 
2019-03-13 09:34:30,930 DEBUG EInvoice.CAdmin.Controllers.EInvoiceController  [unileveradminadmin]['x04ykwjsvcgijqw1qk2dwg20][203.162.130.241][203.162.130.241][Index] - EInvoiceController Index 
2019-03-13 09:34:30,930 INFO EInvoice.CAdmin.Controllers.EInvoiceController  [unileveradminadmin]['x04ykwjsvcgijqw1qk2dwg20][203.162.130.241][203.162.130.241][Index] - Index1942 pattern: 01GTKT0/001 serial: BD/19E 
2019-03-13 09:34:30,989 DEBUG EInvoice.CAdmin.Controllers.CompanyController  [unileveradminadmin]['x04ykwjsvcgijqw1qk2dwg20][203.162.130.241][203.162.130.241][MenuBycomp] - MenuBycomp 
2019-03-13 09:34:33,121 INFO EInvoice.CAdmin.Controllers.EInvoiceController  [unileveradminadmin]['x04ykwjsvcgijqw1qk2dwg20][203.162.130.241][203.162.130.241][LaunchChoice] - LaunchChoice by: unileveradminadmin 
2019-03-13 09:34:33,132 ERROR EInvoice.CAdmin.Controllers.EInvoiceController  [unileveradminadmin]['x04ykwjsvcgijqw1qk2dwg20][203.162.130.241][203.162.130.241][LaunchChoice] - ERR: The given key was not present in the dictionary. 
2019-03-13 09:34:33,146 DEBUG EInvoice.CAdmin.Controllers.EInvoiceController  [unileveradminadmin]['x04ykwjsvcgijqw1qk2dwg20][203.162.130.241][203.162.130.241][Index] - EInvoiceController Index 
2019-03-13 09:34:33,147 INFO EInvoice.CAdmin.Controllers.EInvoiceController  [unileveradminadmin]['x04ykwjsvcgijqw1qk2dwg20][203.162.130.241][203.162.130.241][Index] - Index1942 pattern: 01GTKT0/001 serial: BD/19E 
2019-03-13 09:34:33,194 DEBUG EInvoice.CAdmin.Controllers.CompanyController  [unileveradminadmin]['x04ykwjsvcgijqw1qk2dwg20][203.162.130.241][203.162.130.241][MenuBycomp] - MenuBycomp 
2019-03-13 09:35:05,206 INFO EInvoice.CAdmin.Controllers.AccountController  []['c5netlshfedpd5omauhoajv2][203.162.100.29][203.162.100.29][LogOn] - Login: unileveradmin 
2019-03-13 09:35:05,237 INFO EInvoice.CAdmin.Controllers.AccountController  []['c5netlshfedpd5omauhoajv2][203.162.100.29][203.162.100.29][LogOn] - LogOn:, Date:13/03/2019 9:35:05 SA 
2019-03-13 09:35:05,345 DEBUG EInvoice.CAdmin.Controllers.CompanyController  [unileveradmin]['c5netlshfedpd5omauhoajv2][203.162.100.29][203.162.100.29][MenuBycomp] - MenuBycomp 
2019-03-13 09:35:20,891 DEBUG EInvoice.CAdmin.Controllers.EInvoiceController  [unileveradmin]['c5netlshfedpd5omauhoajv2][203.162.100.29][203.162.100.29][Index] - EInvoiceController Index 
2019-03-13 09:35:20,892 INFO EInvoice.CAdmin.Controllers.EInvoiceController  [unileveradmin]['c5netlshfedpd5omauhoajv2][203.162.100.29][203.162.100.29][Index] - Index1942 pattern:  serial:  
2019-03-13 09:35:20,945 DEBUG EInvoice.CAdmin.Controllers.CompanyController  [unileveradmin]['c5netlshfedpd5omauhoajv2][203.162.100.29][203.162.100.29][MenuBycomp] - MenuBycomp 
2019-03-13 09:35:25,959 INFO EInvoice.CAdmin.Controllers.EInvoiceController  [unileveradmin]['c5netlshfedpd5omauhoajv2][203.162.100.29][203.162.100.29][LaunchChoice] - LaunchChoice by: unileveradmin 
2019-03-13 09:35:25,969 ERROR EInvoice.CAdmin.Controllers.EInvoiceController  [unileveradmin]['c5netlshfedpd5omauhoajv2][203.162.100.29][203.162.100.29][LaunchChoice] - ERR: The given key was not present in the dictionary. 
2019-03-13 09:35:26,008 DEBUG EInvoice.CAdmin.Controllers.EInvoiceController  [unileveradmin]['c5netlshfedpd5omauhoajv2][203.162.100.29][203.162.100.29][Index] - EInvoiceController Index 
2019-03-13 09:35:26,008 INFO EInvoice.CAdmin.Controllers.EInvoiceController  [unileveradmin]['c5netlshfedpd5omauhoajv2][203.162.100.29][203.162.100.29][Index] - Index1942 pattern: 01GTKT0/001 serial:  
2019-03-13 09:35:26,056 DEBUG EInvoice.CAdmin.Controllers.CompanyController  [unileveradmin]['c5netlshfedpd5omauhoajv2][203.162.100.29][203.162.100.29][MenuBycomp] - MenuBycomp 
2019-03-13 09:39:18,314 INFO EInvoice.CAdmin.Controllers.AccountController  []['teecu14iqb34xskm5ygjsgqj][203.162.100.29][203.162.100.29][LogOn] - Login: 0100113007_admin_demo 
2019-03-13 09:39:18,349 INFO EInvoice.CAdmin.Controllers.AccountController  []['teecu14iqb34xskm5ygjsgqj][203.162.100.29][203.162.100.29][LogOn] - LogOn:, Date:13/03/2019 9:39:18 SA 
2019-03-13 09:39:18,390 DEBUG EInvoice.CAdmin.Controllers.CompanyController  [0100113007_admin_demo]['teecu14iqb34xskm5ygjsgqj][203.162.100.29][203.162.100.29][MenuBycomp] - MenuBycomp 
2019-03-13 09:39:26,727 DEBUG EInvoice.CAdmin.Controllers.EInvoiceController  [0100113007_admin_demo]['teecu14iqb34xskm5ygjsgqj][203.162.100.29][203.162.100.29][Index] - EInvoiceController Index 
2019-03-13 09:39:26,727 INFO EInvoice.CAdmin.Controllers.EInvoiceController  [0100113007_admin_demo]['teecu14iqb34xskm5ygjsgqj][203.162.100.29][203.162.100.29][Index] - Index1937 pattern:  serial:  
2019-03-13 09:39:26,778 DEBUG EInvoice.CAdmin.Controllers.CompanyController  [0100113007_admin_demo]['teecu14iqb34xskm5ygjsgqj][203.162.100.29][203.162.100.29][MenuBycomp] - MenuBycomp 
2019-03-13 09:39:31,747 INFO EInvoice.CAdmin.Controllers.ShareController  [0100113007_admin_demo]['teecu14iqb34xskm5ygjsgqj][203.162.100.29][203.162.100.29][ajxPreview] - call: W24qZFuOfEGVO8XYH9ASFg== pattern: 03XKNB0/001 company: 1937 
2019-03-13 09:39:32,256 DEBUG EInvoice.CAdmin.Controllers.EInvoiceController  [0100113007_admin_demo]['teecu14iqb34xskm5ygjsgqj][203.162.100.29][203.162.100.29][Index] - EInvoiceController Index 
2019-03-13 09:39:32,257 INFO EInvoice.CAdmin.Controllers.EInvoiceController  [0100113007_admin_demo]['teecu14iqb34xskm5ygjsgqj][203.162.100.29][203.162.100.29][Index] - Index1937 pattern:  serial:  
2019-03-13 09:39:32,311 DEBUG EInvoice.CAdmin.Controllers.CompanyController  [0100113007_admin_demo]['teecu14iqb34xskm5ygjsgqj][203.162.100.29][203.162.100.29][MenuBycomp] - MenuBycomp 
2019-03-13 09:39:41,475 DEBUG EInvoice.CAdmin.Controllers.EInvoiceController  [0100113007_admin_demo]['teecu14iqb34xskm5ygjsgqj][203.162.100.29][203.162.100.29][Index] - EInvoiceController Index 
2019-03-13 09:39:41,476 INFO EInvoice.CAdmin.Controllers.EInvoiceController  [0100113007_admin_demo]['teecu14iqb34xskm5ygjsgqj][203.162.100.29][203.162.100.29][Index] - Index1937 pattern:  serial:  
2019-03-13 09:39:41,546 DEBUG EInvoice.CAdmin.Controllers.CompanyController  [0100113007_admin_demo]['teecu14iqb34xskm5ygjsgqj][203.162.100.29][203.162.100.29][MenuBycomp] - MenuBycomp 
2019-03-13 09:39:43,058 DEBUG EInvoice.CAdmin.Controllers.CompanyController  [0100113007_admin_demo]['teecu14iqb34xskm5ygjsgqj][203.162.100.29][203.162.100.29][MenuBycomp] - MenuBycomp 
2019-03-13 09:40:07,233 DEBUG EInvoice.CAdmin.Controllers.EInvoiceController  [0100113007_admin_demo]['teecu14iqb34xskm5ygjsgqj][203.162.100.29][203.162.100.29][Index] - EInvoiceController Index 
2019-03-13 09:40:07,234 INFO EInvoice.CAdmin.Controllers.EInvoiceController  [0100113007_admin_demo]['teecu14iqb34xskm5ygjsgqj][203.162.100.29][203.162.100.29][Index] - Index1937 pattern:  serial:  
2019-03-13 09:40:07,283 DEBUG EInvoice.CAdmin.Controllers.CompanyController  [0100113007_admin_demo]['teecu14iqb34xskm5ygjsgqj][203.162.100.29][203.162.100.29][MenuBycomp] - MenuBycomp 
2019-03-13 09:40:16,053 DEBUG EInvoice.CAdmin.Controllers.CompanyController  [0100113007_admin_demo]['teecu14iqb34xskm5ygjsgqj][203.162.100.29][203.162.100.29][MenuBycomp] - MenuBycomp 
2019-03-13 09:40:55,349 INFO EInvoice.CAdmin.Controllers.AccountController  []['543nxtdkzbwh0vjvgv4a31pt][123.25.190.33][123.25.190.33][LogOn] - Login: unileveradmin 
2019-03-13 09:40:55,379 INFO EInvoice.CAdmin.Controllers.AccountController  []['543nxtdkzbwh0vjvgv4a31pt][123.25.190.33][123.25.190.33][LogOn] - LogOn:, Date:13/03/2019 9:40:55 SA 
2019-03-13 09:40:55,430 DEBUG EInvoice.CAdmin.Controllers.CompanyController  [unileveradmin]['543nxtdkzbwh0vjvgv4a31pt][123.25.190.33][123.25.190.33][MenuBycomp] - MenuBycomp 
2019-03-13 09:40:57,106 DEBUG EInvoice.CAdmin.Controllers.CompanyController  [unileveradmin]['543nxtdkzbwh0vjvgv4a31pt][123.25.190.33][123.25.190.33][MenuBycomp] - MenuBycomp 
2019-03-13 09:51:39,676 DEBUG EInvoice.CAdmin.Controllers.CompanyController  [unileveradmin]['543nxtdkzbwh0vjvgv4a31pt][123.25.190.33][123.25.190.33][MenuBycomp] - MenuBycomp 
2019-03-13 09:52:08,689 DEBUG EInvoice.CAdmin.Controllers.CompanyController  [unileveradmin]['543nxtdkzbwh0vjvgv4a31pt][123.25.190.33][123.25.190.33][MenuBycomp] - MenuBycomp 
2019-03-13 09:52:10,744 DEBUG EInvoice.CAdmin.Controllers.CompanyController  [unileveradmin]['543nxtdkzbwh0vjvgv4a31pt][123.25.190.33][123.25.190.33][MenuBycomp] - MenuBycomp 
2019-03-13 09:52:13,027 DEBUG EInvoice.CAdmin.Controllers.EInvoiceController  [unileveradmin]['543nxtdkzbwh0vjvgv4a31pt][123.25.190.33][123.25.190.33][Index] - EInvoiceController Index 
2019-03-13 09:52:13,027 INFO EInvoice.CAdmin.Controllers.EInvoiceController  [unileveradmin]['543nxtdkzbwh0vjvgv4a31pt][123.25.190.33][123.25.190.33][Index] - Index1942 pattern:  serial:  
2019-03-13 09:52:13,071 DEBUG EInvoice.CAdmin.Controllers.CompanyController  [unileveradmin]['543nxtdkzbwh0vjvgv4a31pt][123.25.190.33][123.25.190.33][MenuBycomp] - MenuBycomp 
2019-03-13 09:52:19,134 DEBUG EInvoice.CAdmin.Controllers.CompanyController  [unileveradmin]['543nxtdkzbwh0vjvgv4a31pt][123.25.190.33][123.25.190.33][MenuBycomp] - MenuBycomp 
2019-03-13 09:52:29,284 INFO EInvoice.CAdmin.Controllers.EInvoiceController  [unileveradmin]['543nxtdkzbwh0vjvgv4a31pt][123.25.190.33][123.25.190.33][LaunchChoice] - LaunchChoice by: unileveradmin 
2019-03-13 09:52:29,295 ERROR EInvoice.CAdmin.Controllers.EInvoiceController  [unileveradmin]['543nxtdkzbwh0vjvgv4a31pt][123.25.190.33][123.25.190.33][LaunchChoice] - ERR: The given key was not present in the dictionary. 
2019-03-13 09:52:29,347 DEBUG EInvoice.CAdmin.Controllers.EInvoiceController  [unileveradmin]['543nxtdkzbwh0vjvgv4a31pt][123.25.190.33][123.25.190.33][Index] - EInvoiceController Index 
2019-03-13 09:52:29,348 INFO EInvoice.CAdmin.Controllers.EInvoiceController  [unileveradmin]['543nxtdkzbwh0vjvgv4a31pt][123.25.190.33][123.25.190.33][Index] - Index1942 pattern: 01GTKT0/001 serial:  
2019-03-13 09:52:29,393 DEBUG EInvoice.CAdmin.Controllers.CompanyController  [unileveradmin]['543nxtdkzbwh0vjvgv4a31pt][123.25.190.33][123.25.190.33][MenuBycomp] - MenuBycomp 
2019-03-13 09:55:25,071 DEBUG EInvoice.CAdmin.Controllers.CompanyController  [unileveradmin]['543nxtdkzbwh0vjvgv4a31pt][123.25.190.33][123.25.190.33][MenuBycomp] - MenuBycomp 
2019-03-13 09:56:05,190 INFO EInvoice.CAdmin.Controllers.AccountController  [unileveradmin]['543nxtdkzbwh0vjvgv4a31pt][123.25.190.33][123.25.190.33][Logout] - LogOut:unileveradmin, Date:13/03/2019 9:56:05 SA 
2019-03-13 09:56:07,940 INFO EInvoice.CAdmin.Controllers.AccountController  []['543nxtdkzbwh0vjvgv4a31pt][123.25.190.33][123.25.190.33][LogOn] - Login: unileveradmin 
2019-03-13 09:56:07,971 INFO EInvoice.CAdmin.Controllers.AccountController  []['543nxtdkzbwh0vjvgv4a31pt][123.25.190.33][123.25.190.33][LogOn] - LogOn:, Date:13/03/2019 9:56:07 SA 
2019-03-13 09:56:08,149 DEBUG EInvoice.CAdmin.Controllers.CompanyController  [unileveradmin]['543nxtdkzbwh0vjvgv4a31pt][123.25.190.33][123.25.190.33][MenuBycomp] - MenuBycomp 
2019-03-13 10:05:41,107 INFO EInvoice.CAdmin.Controllers.AccountController  []['x04ykwjsvcgijqw1qk2dwg20][203.162.130.241][203.162.130.241][LogOn] - Login: unileveradminadmin 
2019-03-13 10:05:41,135 INFO EInvoice.CAdmin.Controllers.AccountController  []['x04ykwjsvcgijqw1qk2dwg20][203.162.130.241][203.162.130.241][LogOn] - LogOn:, Date:13/03/2019 10:05:41 SA 
2019-03-13 10:05:41,288 DEBUG EInvoice.CAdmin.Controllers.EInvoiceController  [unileveradminadmin]['x04ykwjsvcgijqw1qk2dwg20][203.162.130.241][203.162.130.241][Index] - EInvoiceController Index 
2019-03-13 10:05:41,289 INFO EInvoice.CAdmin.Controllers.EInvoiceController  [unileveradminadmin]['x04ykwjsvcgijqw1qk2dwg20][203.162.130.241][203.162.130.241][Index] - Index1942 pattern: 01GTKT0/001 serial: BD/19E 
2019-03-13 10:05:41,345 DEBUG EInvoice.CAdmin.Controllers.CompanyController  [unileveradminadmin]['x04ykwjsvcgijqw1qk2dwg20][203.162.130.241][203.162.130.241][MenuBycomp] - MenuBycomp 
2019-03-13 10:05:44,944 INFO EInvoice.CAdmin.Controllers.EInvoiceController  [unileveradminadmin]['x04ykwjsvcgijqw1qk2dwg20][203.162.130.241][203.162.130.241][LaunchChoice] - LaunchChoice by: unileveradminadmin 
2019-03-13 10:05:44,961 INFO EInvoice.Core.Launching.Launcher  [unileveradminadmin]['x04ykwjsvcgijqw1qk2dwg20][203.162.130.241][203.162.130.241][Launch] - Core start launch13/03/2019 10:05:44 
2019-03-13 10:05:44,977 ERROR EInvoice.Core.Domain.KeyStores  [unileveradminadmin]['x04ykwjsvcgijqw1qk2dwg20][203.162.130.241][203.162.130.241][OpenSession] - OpenSession C:/HDDT-Test-17052017.p12 1 0 
2019-03-13 10:05:45,311 INFO EInvoice.Core.Launching.LBLauncher  [unileveradminadmin]['x04ykwjsvcgijqw1qk2dwg20][203.162.130.241][203.162.130.241][Launch] - Format Data 13/03/2019 10:05:45 
2019-03-13 10:05:45,490 INFO EInvoice.Core.Launching.LBLauncher  [unileveradminadmin]['x04ykwjsvcgijqw1qk2dwg20][203.162.130.241][203.162.130.241][Launch] - Save to datatabase:13/03/2019 10:05:45 
2019-03-13 10:05:45,499 INFO EInvoice.Core.Launching.LBLauncher  [unileveradminadmin]['x04ykwjsvcgijqw1qk2dwg20][203.162.130.241][203.162.130.241][Launch] - Deliver 13/03/2019 10:05:45 
2019-03-13 10:05:45,547 INFO EInvoice.Core.Launching.LBLauncher  [unileveradminadmin]['x04ykwjsvcgijqw1qk2dwg20][203.162.130.241][203.162.130.241][Launch] - Commit tran 13/03/2019 10:05:45 
2019-03-13 10:05:45,631 INFO EInvoice.Core.Launching.LBLauncher  [unileveradminadmin]['x04ykwjsvcgijqw1qk2dwg20][203.162.130.241][203.162.130.241][Launch] - end 13/03/2019 10:05:45 
2019-03-13 10:05:45,632 INFO EInvoice.CAdmin.Controllers.EInvoiceController  [unileveradminadmin]['x04ykwjsvcgijqw1qk2dwg20][203.162.130.241][203.162.130.241][LaunchChoice] - Publish EInvoice by: unileveradminadmin Info-- Pattern: 01GTKT0/001; Serial: BD/19E; SoLuongPhatHanh: 1 
2019-03-13 10:05:45,702 DEBUG EInvoice.CAdmin.Controllers.EInvoiceController  [unileveradminadmin]['x04ykwjsvcgijqw1qk2dwg20][203.162.130.241][203.162.130.241][Index] - EInvoiceController Index 
2019-03-13 10:05:45,703 INFO EInvoice.CAdmin.Controllers.EInvoiceController  [unileveradminadmin]['x04ykwjsvcgijqw1qk2dwg20][203.162.130.241][203.162.130.241][Index] - Index1942 pattern: 01GTKT0/001 serial: BD/19E 
2019-03-13 10:05:45,742 DEBUG EInvoice.CAdmin.Controllers.CompanyController  [unileveradminadmin]['x04ykwjsvcgijqw1qk2dwg20][203.162.130.241][203.162.130.241][MenuBycomp] - MenuBycomp 
2019-03-13 10:22:55,265 INFO EInvoice.CAdmin.Controllers.AccountController  []['vb11k13aiaus0lw1rzdv2vv4][123.25.190.33][123.25.190.33][LogOn] - Login: 0100113007_admin_demo 
2019-03-13 10:22:56,777 INFO EInvoice.CAdmin.Controllers.AccountController  []['vb11k13aiaus0lw1rzdv2vv4][123.25.190.33][123.25.190.33][LogOn] - LogOn:, Date:13/03/2019 10:22:56 SA 
2019-03-13 10:22:58,346 DEBUG EInvoice.CAdmin.Controllers.CompanyController  [0100113007_admin_demo]['vb11k13aiaus0lw1rzdv2vv4][123.25.190.33][123.25.190.33][MenuBycomp] - MenuBycomp 
2019-03-13 10:23:08,465 DEBUG EInvoice.CAdmin.Controllers.CompanyController  [0100113007_admin_demo]['vb11k13aiaus0lw1rzdv2vv4][123.25.190.33][123.25.190.33][MenuBycomp] - MenuBycomp 
2019-03-13 10:25:09,967 INFO EInvoice.CAdmin.Controllers.AccountController  []['543nxtdkzbwh0vjvgv4a31pt][123.25.190.33][123.25.190.33][LogOn] - Login: unileveradmin 
2019-03-13 10:25:10,238 INFO EInvoice.CAdmin.Controllers.AccountController  []['543nxtdkzbwh0vjvgv4a31pt][123.25.190.33][123.25.190.33][LogOn] - LogOn:, Date:13/03/2019 10:25:10 SA 
2019-03-13 10:25:11,432 DEBUG EInvoice.CAdmin.Controllers.CompanyController  [unileveradmin]['543nxtdkzbwh0vjvgv4a31pt][123.25.190.33][123.25.190.33][MenuBycomp] - MenuBycomp 
2019-03-13 10:53:11,400 DEBUG EInvoice.CAdmin.Controllers.CompanyController  [unileveradmin]['543nxtdkzbwh0vjvgv4a31pt][123.25.190.33][123.25.190.33][MenuBycomp] - MenuBycomp 
2019-03-13 10:58:26,103 INFO EInvoice.CAdmin.Controllers.AccountController  []['unsoy1ead3qdqzuidy34nyib][203.162.100.29][203.162.100.29][LogOn] - Login: unileveradmin 
2019-03-13 10:58:26,132 INFO EInvoice.CAdmin.Controllers.AccountController  []['unsoy1ead3qdqzuidy34nyib][203.162.100.29][203.162.100.29][LogOn] - LogOn:, Date:13/03/2019 10:58:26 SA 
2019-03-13 10:58:26,167 DEBUG EInvoice.CAdmin.Controllers.CompanyController  [unileveradmin]['unsoy1ead3qdqzuidy34nyib][203.162.100.29][203.162.100.29][MenuBycomp] - MenuBycomp 
2019-03-13 10:58:30,597 DEBUG EInvoice.CAdmin.Controllers.EInvoiceController  [unileveradmin]['unsoy1ead3qdqzuidy34nyib][203.162.100.29][203.162.100.29][Index] - EInvoiceController Index 
2019-03-13 10:58:30,599 INFO EInvoice.CAdmin.Controllers.EInvoiceController  [unileveradmin]['unsoy1ead3qdqzuidy34nyib][203.162.100.29][203.162.100.29][Index] - Index1943 pattern:  serial:  
2019-03-13 10:58:30,766 DEBUG EInvoice.CAdmin.Controllers.CompanyController  [unileveradmin]['unsoy1ead3qdqzuidy34nyib][203.162.100.29][203.162.100.29][MenuBycomp] - MenuBycomp 
2019-03-13 10:58:35,996 DEBUG EInvoice.CAdmin.Controllers.EInvoiceController  [unileveradmin]['unsoy1ead3qdqzuidy34nyib][203.162.100.29][203.162.100.29][Index] - EInvoiceController Index 
2019-03-13 10:58:35,997 INFO EInvoice.CAdmin.Controllers.EInvoiceController  [unileveradmin]['unsoy1ead3qdqzuidy34nyib][203.162.100.29][203.162.100.29][Index] - Index1943 pattern:  serial:  
2019-03-13 10:58:36,033 DEBUG EInvoice.CAdmin.Controllers.CompanyController  [unileveradmin]['unsoy1ead3qdqzuidy34nyib][203.162.100.29][203.162.100.29][MenuBycomp] - MenuBycomp 
2019-03-13 11:08:23,642 INFO EInvoice.CAdmin.Controllers.AccountController  []['sjlwquhm5zhwp4nmd041oasp][113.160.13.121][113.160.13.121][LogOn] - Login: 0100113007_admin_demo 
2019-03-13 11:08:23,680 INFO EInvoice.CAdmin.Controllers.AccountController  []['sjlwquhm5zhwp4nmd041oasp][113.160.13.121][113.160.13.121][LogOn] - LogOn:, Date:13/03/2019 11:08:23 SA 
2019-03-13 11:08:23,695 DEBUG EInvoice.CAdmin.Controllers.EInvoiceController  [0100113007_admin_demo]['sjlwquhm5zhwp4nmd041oasp][113.160.13.121][113.160.13.121][Index] - EInvoiceController Index 
2019-03-13 11:08:23,695 INFO EInvoice.CAdmin.Controllers.EInvoiceController  [0100113007_admin_demo]['sjlwquhm5zhwp4nmd041oasp][113.160.13.121][113.160.13.121][Index] - Index1937 pattern:  serial:  
2019-03-13 11:08:23,753 DEBUG EInvoice.CAdmin.Controllers.CompanyController  [0100113007_admin_demo]['sjlwquhm5zhwp4nmd041oasp][113.160.13.121][113.160.13.121][MenuBycomp] - MenuBycomp 
2019-03-13 11:08:32,672 DEBUG EInvoice.CAdmin.Controllers.EInvoiceController  [0100113007_admin_demo]['sjlwquhm5zhwp4nmd041oasp][113.160.13.121][113.160.13.121][Index] - EInvoiceController Index 
2019-03-13 11:08:32,672 INFO EInvoice.CAdmin.Controllers.EInvoiceController  [0100113007_admin_demo]['sjlwquhm5zhwp4nmd041oasp][113.160.13.121][113.160.13.121][Index] - Index1937 pattern:  serial:  
2019-03-13 11:08:32,693 DEBUG EInvoice.CAdmin.Controllers.CompanyController  [0100113007_admin_demo]['sjlwquhm5zhwp4nmd041oasp][113.160.13.121][113.160.13.121][MenuBycomp] - MenuBycomp 
2019-03-13 11:08:40,734 DEBUG EInvoice.CAdmin.Controllers.EInvoiceController  [0100113007_admin_demo]['sjlwquhm5zhwp4nmd041oasp][113.160.13.121][113.160.13.121][Index] - EInvoiceController Index 
2019-03-13 11:08:40,735 INFO EInvoice.CAdmin.Controllers.EInvoiceController  [0100113007_admin_demo]['sjlwquhm5zhwp4nmd041oasp][113.160.13.121][113.160.13.121][Index] - Index1937 pattern:  serial:  
2019-03-13 11:08:40,762 DEBUG EInvoice.CAdmin.Controllers.CompanyController  [0100113007_admin_demo]['sjlwquhm5zhwp4nmd041oasp][113.160.13.121][113.160.13.121][MenuBycomp] - MenuBycomp 
2019-03-13 11:08:52,235 DEBUG EInvoice.CAdmin.Controllers.EInvoiceController  [0100113007_admin_demo]['sjlwquhm5zhwp4nmd041oasp][113.160.13.121][113.160.13.121][Index] - EInvoiceController Index 
2019-03-13 11:08:52,236 INFO EInvoice.CAdmin.Controllers.EInvoiceController  [0100113007_admin_demo]['sjlwquhm5zhwp4nmd041oasp][113.160.13.121][113.160.13.121][Index] - Index1937 pattern:  serial:  
2019-03-13 11:08:52,260 DEBUG EInvoice.CAdmin.Controllers.CompanyController  [0100113007_admin_demo]['sjlwquhm5zhwp4nmd041oasp][113.160.13.121][113.160.13.121][MenuBycomp] - MenuBycomp 
2019-03-13 11:09:03,098 DEBUG EInvoice.CAdmin.Controllers.CompanyController  [0100113007_admin_demo]['sjlwquhm5zhwp4nmd041oasp][113.160.13.121][113.160.13.121][MenuBycomp] - MenuBycomp 
2019-03-13 11:09:12,371 INFO EInvoice.CAdmin.Controllers.AccountController  [0100113007_admin_demo]['sjlwquhm5zhwp4nmd041oasp][113.160.13.121][113.160.13.121][Logout] - LogOut:0100113007_admin_demo, Date:13/03/2019 11:09:12 SA 
2019-03-13 11:12:21,211 INFO EInvoice.CAdmin.Controllers.AccountController  []['teecu14iqb34xskm5ygjsgqj][203.162.100.29][203.162.100.29][LogOn] - Login: 0100113007_admin_demo 
2019-03-13 11:12:21,238 INFO EInvoice.CAdmin.Controllers.AccountController  []['teecu14iqb34xskm5ygjsgqj][203.162.100.29][203.162.100.29][LogOn] - LogOn:, Date:13/03/2019 11:12:21 SA 
2019-03-13 11:12:21,286 DEBUG EInvoice.CAdmin.Controllers.CompanyController  [0100113007_admin_demo]['teecu14iqb34xskm5ygjsgqj][203.162.100.29][203.162.100.29][MenuBycomp] - MenuBycomp 
2019-03-13 11:12:26,641 DEBUG EInvoice.CAdmin.Controllers.EInvoiceController  [0100113007_admin_demo]['teecu14iqb34xskm5ygjsgqj][203.162.100.29][203.162.100.29][Index] - EInvoiceController Index 
2019-03-13 11:12:26,642 INFO EInvoice.CAdmin.Controllers.EInvoiceController  [0100113007_admin_demo]['teecu14iqb34xskm5ygjsgqj][203.162.100.29][203.162.100.29][Index] - Index1937 pattern:  serial:  
2019-03-13 11:12:26,681 DEBUG EInvoice.CAdmin.Controllers.CompanyController  [0100113007_admin_demo]['teecu14iqb34xskm5ygjsgqj][203.162.100.29][203.162.100.29][MenuBycomp] - MenuBycomp 
2019-03-13 11:12:28,581 DEBUG EInvoice.CAdmin.Controllers.CompanyController  [0100113007_admin_demo]['teecu14iqb34xskm5ygjsgqj][203.162.100.29][203.162.100.29][MenuBycomp] - MenuBycomp 
2019-03-13 11:12:34,267 DEBUG EInvoice.CAdmin.Controllers.CompanyController  [0100113007_admin_demo]['teecu14iqb34xskm5ygjsgqj][203.162.100.29][203.162.100.29][MenuBycomp] - MenuBycomp 
2019-03-13 11:12:36,153 DEBUG EInvoice.CAdmin.Controllers.CompanyController  [0100113007_admin_demo]['teecu14iqb34xskm5ygjsgqj][203.162.100.29][203.162.100.29][MenuBycomp] - MenuBycomp 
2019-03-13 11:13:28,544 INFO EInvoice.CAdmin.Controllers.PublishController  [0100113007_admin_demo]['teecu14iqb34xskm5ygjsgqj][203.162.100.29][203.162.100.29][CreateDecision] - Create Decision by: 0100113007_admin_demo 
2019-03-13 11:13:28,597 DEBUG EInvoice.CAdmin.Controllers.CompanyController  [0100113007_admin_demo]['teecu14iqb34xskm5ygjsgqj][203.162.100.29][203.162.100.29][MenuBycomp] - MenuBycomp 
2019-03-13 11:13:52,998 DEBUG EInvoice.CAdmin.Controllers.CompanyController  [0100113007_admin_demo]['teecu14iqb34xskm5ygjsgqj][203.162.100.29][203.162.100.29][MenuBycomp] - MenuBycomp 
2019-03-13 11:13:55,783 DEBUG EInvoice.CAdmin.Controllers.CompanyController  [0100113007_admin_demo]['teecu14iqb34xskm5ygjsgqj][203.162.100.29][203.162.100.29][MenuBycomp] - MenuBycomp 
2019-03-13 11:13:57,763 DEBUG EInvoice.CAdmin.Controllers.CompanyController  [0100113007_admin_demo]['teecu14iqb34xskm5ygjsgqj][203.162.100.29][203.162.100.29][MenuBycomp] - MenuBycomp 
2019-03-13 11:15:30,653 DEBUG EInvoice.CAdmin.Controllers.CompanyController  [unileveradmin]['unsoy1ead3qdqzuidy34nyib][203.162.100.29][203.162.100.29][MenuBycomp] - MenuBycomp 
2019-03-13 11:15:47,102 INFO EInvoice.CAdmin.Controllers.PublishController  [0100113007_admin_demo]['teecu14iqb34xskm5ygjsgqj][203.162.100.29][203.162.100.29][CreateRPublish] - Create Publish by: 0100113007_admin_demo|InvInfo:2936;BC/19E;100;1;100_ 
2019-03-13 11:15:47,149 DEBUG EInvoice.CAdmin.Controllers.CompanyController  [0100113007_admin_demo]['teecu14iqb34xskm5ygjsgqj][203.162.100.29][203.162.100.29][MenuBycomp] - MenuBycomp 
2019-03-13 11:15:52,411 DEBUG EInvoice.CAdmin.Controllers.EInvoiceController  [0100113007_admin_demo]['teecu14iqb34xskm5ygjsgqj][203.162.100.29][203.162.100.29][Index] - EInvoiceController Index 
2019-03-13 11:15:52,412 INFO EInvoice.CAdmin.Controllers.EInvoiceController  [0100113007_admin_demo]['teecu14iqb34xskm5ygjsgqj][203.162.100.29][203.162.100.29][Index] - Index1937 pattern:  serial:  
2019-03-13 11:15:52,472 DEBUG EInvoice.CAdmin.Controllers.CompanyController  [0100113007_admin_demo]['teecu14iqb34xskm5ygjsgqj][203.162.100.29][203.162.100.29][MenuBycomp] - MenuBycomp 
2019-03-13 11:15:55,692 DEBUG EInvoice.CAdmin.Controllers.CompanyController  [0100113007_admin_demo]['teecu14iqb34xskm5ygjsgqj][203.162.100.29][203.162.100.29][MenuBycomp] - MenuBycomp 
2019-03-13 11:16:02,749 ERROR EInvoice.CAdmin.Controllers.PublishController  [0100113007_admin_demo]['teecu14iqb34xskm5ygjsgqj][203.162.100.29][203.162.100.29][SelectedPublish] - Bat dau gui thong bao phat hanh 
2019-03-13 11:16:02,767 INFO EInvoice.CAdmin.Controllers.PublishController  [0100113007_admin_demo]['teecu14iqb34xskm5ygjsgqj][203.162.100.29][203.162.100.29][SelectedPublish] - SelectedPublish Publish by: 0100113007_admin_demo Info-- ID: 4987 
2019-03-13 11:16:02,822 INFO EInvoice.CAdmin.Controllers.PublishController  [0100113007_admin_demo]['teecu14iqb34xskm5ygjsgqj][203.162.100.29][203.162.100.29][SelectedPublish] - SelectedPublish Publish by: 0100113007_admin_demo Info-- ID: 4987 
2019-03-13 11:16:18,894 DEBUG EInvoice.CAdmin.Controllers.EInvoiceController  [0100113007_admin_demo]['teecu14iqb34xskm5ygjsgqj][203.162.100.29][203.162.100.29][Index] - EInvoiceController Index 
2019-03-13 11:16:18,895 INFO EInvoice.CAdmin.Controllers.EInvoiceController  [0100113007_admin_demo]['teecu14iqb34xskm5ygjsgqj][203.162.100.29][203.162.100.29][Index] - Index1937 pattern:  serial:  
2019-03-13 11:16:19,098 DEBUG EInvoice.CAdmin.Controllers.CompanyController  [0100113007_admin_demo]['teecu14iqb34xskm5ygjsgqj][203.162.100.29][203.162.100.29][MenuBycomp] - MenuBycomp 
2019-03-13 11:16:27,093 DEBUG EInvoice.CAdmin.Controllers.EInvoiceController  [0100113007_admin_demo]['teecu14iqb34xskm5ygjsgqj][203.162.100.29][203.162.100.29][Index] - EInvoiceController Index 
2019-03-13 11:16:27,093 INFO EInvoice.CAdmin.Controllers.EInvoiceController  [0100113007_admin_demo]['teecu14iqb34xskm5ygjsgqj][203.162.100.29][203.162.100.29][Index] - Index1937 pattern: 01GTKT0/001 serial: BC/19E 
2019-03-13 11:16:27,148 DEBUG EInvoice.CAdmin.Controllers.CompanyController  [0100113007_admin_demo]['teecu14iqb34xskm5ygjsgqj][203.162.100.29][203.162.100.29][MenuBycomp] - MenuBycomp 
2019-03-13 11:16:29,379 DEBUG EInvoice.CAdmin.Controllers.CompanyController  [0100113007_admin_demo]['teecu14iqb34xskm5ygjsgqj][203.162.100.29][203.162.100.29][MenuBycomp] - MenuBycomp 
2019-03-13 11:16:57,247 INFO EInvoice.CAdmin.Controllers.EInvoiceController  [0100113007_admin_demo]['teecu14iqb34xskm5ygjsgqj][203.162.100.29][203.162.100.29][Create] - Create EInvoice by: 0100113007_admin_demo Info-- TenKhachHang: test MaKhachHang:  SoTien: 105 
2019-03-13 11:16:57,286 DEBUG EInvoice.CAdmin.Controllers.EInvoiceController  [0100113007_admin_demo]['teecu14iqb34xskm5ygjsgqj][203.162.100.29][203.162.100.29][Index] - EInvoiceController Index 
2019-03-13 11:16:57,286 INFO EInvoice.CAdmin.Controllers.EInvoiceController  [0100113007_admin_demo]['teecu14iqb34xskm5ygjsgqj][203.162.100.29][203.162.100.29][Index] - Index1937 pattern: 01GTKT0/001 serial: BC/19E 
2019-03-13 11:16:57,329 DEBUG EInvoice.CAdmin.Controllers.CompanyController  [0100113007_admin_demo]['teecu14iqb34xskm5ygjsgqj][203.162.100.29][203.162.100.29][MenuBycomp] - MenuBycomp 
2019-03-13 11:17:01,432 INFO EInvoice.CAdmin.Controllers.ShareController  [0100113007_admin_demo]['teecu14iqb34xskm5ygjsgqj][203.162.100.29][203.162.100.29][ajxPreview] - call: wXp8uusRsyQO4gL1eqCWrw== pattern: 01GTKT0/001 company: 1937 
2019-03-13 11:17:01,849 DEBUG EInvoice.CAdmin.Controllers.EInvoiceController  [0100113007_admin_demo]['teecu14iqb34xskm5ygjsgqj][203.162.100.29][203.162.100.29][Index] - EInvoiceController Index 
2019-03-13 11:17:01,850 INFO EInvoice.CAdmin.Controllers.EInvoiceController  [0100113007_admin_demo]['teecu14iqb34xskm5ygjsgqj][203.162.100.29][203.162.100.29][Index] - Index1937 pattern: 01GTKT0/001 serial: BC/19E 
2019-03-13 11:17:01,882 DEBUG EInvoice.CAdmin.Controllers.CompanyController  [0100113007_admin_demo]['teecu14iqb34xskm5ygjsgqj][203.162.100.29][203.162.100.29][MenuBycomp] - MenuBycomp 
2019-03-13 11:17:02,138 INFO EInvoice.CAdmin.Controllers.ShareController  [0100113007_admin_demo]['teecu14iqb34xskm5ygjsgqj][203.162.100.29][203.162.100.29][ajxPreview] - call: wXp8uusRsyQO4gL1eqCWrw== pattern: 01GTKT0/001 company: 1937 
2019-03-13 11:17:02,523 DEBUG EInvoice.CAdmin.Controllers.EInvoiceController  [0100113007_admin_demo]['teecu14iqb34xskm5ygjsgqj][203.162.100.29][203.162.100.29][Index] - EInvoiceController Index 
2019-03-13 11:17:02,524 INFO EInvoice.CAdmin.Controllers.EInvoiceController  [0100113007_admin_demo]['teecu14iqb34xskm5ygjsgqj][203.162.100.29][203.162.100.29][Index] - Index1937 pattern: 01GTKT0/001 serial: BC/19E 
2019-03-13 11:17:02,561 DEBUG EInvoice.CAdmin.Controllers.CompanyController  [0100113007_admin_demo]['teecu14iqb34xskm5ygjsgqj][203.162.100.29][203.162.100.29][MenuBycomp] - MenuBycomp 
2019-03-13 11:18:47,237 DEBUG EInvoice.CAdmin.Controllers.CompanyController  [0100113007_admin_demo]['teecu14iqb34xskm5ygjsgqj][203.162.100.29][203.162.100.29][MenuBycomp] - MenuBycomp 
2019-03-13 11:20:12,284 INFO EInvoice.CAdmin.Controllers.AccountController  []['bnoa0anc0pmqac1dciufurgh][203.162.100.29][203.162.100.29][LogOn] - Login: unileveradmin 
2019-03-13 11:20:12,315 INFO EInvoice.CAdmin.Controllers.AccountController  []['bnoa0anc0pmqac1dciufurgh][203.162.100.29][203.162.100.29][LogOn] - LogOn:, Date:13/03/2019 11:20:12 SA 
2019-03-13 11:20:12,349 DEBUG EInvoice.CAdmin.Controllers.CompanyController  [unileveradmin]['bnoa0anc0pmqac1dciufurgh][203.162.100.29][203.162.100.29][MenuBycomp] - MenuBycomp 
2019-03-13 11:20:16,299 DEBUG EInvoice.CAdmin.Controllers.CompanyController  [unileveradmin]['bnoa0anc0pmqac1dciufurgh][203.162.100.29][203.162.100.29][MenuBycomp] - MenuBycomp 
2019-03-13 11:20:18,282 DEBUG EInvoice.CAdmin.Controllers.CompanyController  [unileveradmin]['bnoa0anc0pmqac1dciufurgh][203.162.100.29][203.162.100.29][MenuBycomp] - MenuBycomp 
2019-03-13 11:20:19,486 DEBUG EInvoice.CAdmin.Controllers.CompanyController  [unileveradmin]['unsoy1ead3qdqzuidy34nyib][203.162.100.29][203.162.100.29][MenuBycomp] - MenuBycomp 
2019-03-13 11:20:21,675 DEBUG EInvoice.CAdmin.Controllers.CompanyController  [unileveradmin]['unsoy1ead3qdqzuidy34nyib][203.162.100.29][203.162.100.29][MenuBycomp] - MenuBycomp 
2019-03-13 11:20:26,691 DEBUG EInvoice.CAdmin.Controllers.CompanyController  [unileveradmin]['unsoy1ead3qdqzuidy34nyib][203.162.100.29][203.162.100.29][MenuBycomp] - MenuBycomp 
2019-03-13 11:21:11,731 DEBUG EInvoice.CAdmin.Controllers.CompanyController  [unileveradmin]['unsoy1ead3qdqzuidy34nyib][203.162.100.29][203.162.100.29][MenuBycomp] - MenuBycomp 
2019-03-13 11:21:14,665 DEBUG EInvoice.CAdmin.Controllers.CompanyController  [unileveradmin]['unsoy1ead3qdqzuidy34nyib][203.162.100.29][203.162.100.29][MenuBycomp] - MenuBycomp 
2019-03-13 11:21:17,112 DEBUG EInvoice.CAdmin.Controllers.CompanyController  [unileveradmin]['unsoy1ead3qdqzuidy34nyib][203.162.100.29][203.162.100.29][MenuBycomp] - MenuBycomp 
2019-03-13 11:21:59,201 INFO EInvoice.CAdmin.Controllers.PublishController  [unileveradmin]['unsoy1ead3qdqzuidy34nyib][203.162.100.29][203.162.100.29][CreateDecision] - Create Decision by: unileveradmin 
2019-03-13 11:21:59,237 DEBUG EInvoice.CAdmin.Controllers.CompanyController  [unileveradmin]['unsoy1ead3qdqzuidy34nyib][203.162.100.29][203.162.100.29][MenuBycomp] - MenuBycomp 
2019-03-13 11:22:05,354 DEBUG EInvoice.CAdmin.Controllers.CompanyController  [unileveradmin]['unsoy1ead3qdqzuidy34nyib][203.162.100.29][203.162.100.29][MenuBycomp] - MenuBycomp 
2019-03-13 11:22:07,264 DEBUG EInvoice.CAdmin.Controllers.CompanyController  [unileveradmin]['unsoy1ead3qdqzuidy34nyib][203.162.100.29][203.162.100.29][MenuBycomp] - MenuBycomp 
2019-03-13 11:22:41,592 DEBUG EInvoice.CAdmin.Controllers.CompanyController  [unileveradmin]['bnoa0anc0pmqac1dciufurgh][203.162.100.29][203.162.100.29][MenuBycomp] - MenuBycomp 
2019-03-13 11:22:43,167 DEBUG EInvoice.CAdmin.Controllers.CompanyController  [unileveradmin]['bnoa0anc0pmqac1dciufurgh][203.162.100.29][203.162.100.29][MenuBycomp] - MenuBycomp 
2019-03-13 11:24:40,926 INFO EInvoice.CAdmin.Controllers.AccountController  []['543nxtdkzbwh0vjvgv4a31pt][123.25.190.33][123.25.190.33][LogOn] - Login: unileveradmin 
2019-03-13 11:24:40,962 INFO EInvoice.CAdmin.Controllers.AccountController  []['543nxtdkzbwh0vjvgv4a31pt][123.25.190.33][123.25.190.33][LogOn] - LogOn:, Date:13/03/2019 11:24:40 SA 
2019-03-13 11:24:40,994 DEBUG EInvoice.CAdmin.Controllers.CompanyController  [unileveradmin]['543nxtdkzbwh0vjvgv4a31pt][123.25.190.33][123.25.190.33][MenuBycomp] - MenuBycomp 
2019-03-13 11:24:42,532 DEBUG EInvoice.CAdmin.Controllers.EInvoiceController  [unileveradmin]['543nxtdkzbwh0vjvgv4a31pt][123.25.190.33][123.25.190.33][Index] - EInvoiceController Index 
2019-03-13 11:24:42,533 INFO EInvoice.CAdmin.Controllers.EInvoiceController  [unileveradmin]['543nxtdkzbwh0vjvgv4a31pt][123.25.190.33][123.25.190.33][Index] - Index1943 pattern:  serial:  
2019-03-13 11:24:42,574 DEBUG EInvoice.CAdmin.Controllers.CompanyController  [unileveradmin]['543nxtdkzbwh0vjvgv4a31pt][123.25.190.33][123.25.190.33][MenuBycomp] - MenuBycomp 
2019-03-13 11:25:55,296 DEBUG EInvoice.CAdmin.Controllers.CompanyController  [unileveradmin]['unsoy1ead3qdqzuidy34nyib][203.162.100.29][203.162.100.29][MenuBycomp] - MenuBycomp 
2019-03-13 11:25:57,398 DEBUG EInvoice.CAdmin.Controllers.CompanyController  [unileveradmin]['unsoy1ead3qdqzuidy34nyib][203.162.100.29][203.162.100.29][MenuBycomp] - MenuBycomp 
2019-03-13 11:26:45,283 DEBUG EInvoice.CAdmin.Controllers.CompanyController  [unileveradmin]['543nxtdkzbwh0vjvgv4a31pt][123.25.190.33][123.25.190.33][MenuBycomp] - MenuBycomp 
2019-03-13 11:26:47,555 DEBUG EInvoice.CAdmin.Controllers.CompanyController  [unileveradmin]['543nxtdkzbwh0vjvgv4a31pt][123.25.190.33][123.25.190.33][MenuBycomp] - MenuBycomp 
2019-03-13 11:26:49,243 DEBUG EInvoice.CAdmin.Controllers.CompanyController  [unileveradmin]['543nxtdkzbwh0vjvgv4a31pt][123.25.190.33][123.25.190.33][MenuBycomp] - MenuBycomp 
2019-03-13 11:26:50,569 DEBUG EInvoice.CAdmin.Controllers.CompanyController  [unileveradmin]['543nxtdkzbwh0vjvgv4a31pt][123.25.190.33][123.25.190.33][MenuBycomp] - MenuBycomp 
2019-03-13 11:26:51,281 INFO EInvoice.CAdmin.Controllers.AccountController  []['p4nfnpj2bonnhxsjd5huctby][203.162.100.12][203.162.100.12][LogOn] - Login: unileveradmin 
2019-03-13 11:26:51,310 INFO EInvoice.CAdmin.Controllers.AccountController  []['p4nfnpj2bonnhxsjd5huctby][203.162.100.12][203.162.100.12][LogOn] - LogOn:, Date:13/03/2019 11:26:51 SA 
2019-03-13 11:26:51,363 DEBUG EInvoice.CAdmin.Controllers.EInvoiceController  [unileveradmin]['p4nfnpj2bonnhxsjd5huctby][203.162.100.12][203.162.100.12][Index] - EInvoiceController Index 
2019-03-13 11:26:51,363 INFO EInvoice.CAdmin.Controllers.EInvoiceController  [unileveradmin]['p4nfnpj2bonnhxsjd5huctby][203.162.100.12][203.162.100.12][Index] - Index1943 pattern:  serial:  
2019-03-13 11:26:51,560 DEBUG EInvoice.CAdmin.Controllers.CompanyController  [unileveradmin]['p4nfnpj2bonnhxsjd5huctby][203.162.100.12][203.162.100.12][MenuBycomp] - MenuBycomp 
2019-03-13 11:26:55,370 DEBUG EInvoice.CAdmin.Controllers.CompanyController  [unileveradmin]['p4nfnpj2bonnhxsjd5huctby][203.162.100.12][203.162.100.12][MenuBycomp] - MenuBycomp 
2019-03-13 11:26:57,064 DEBUG EInvoice.CAdmin.Controllers.CompanyController  [unileveradmin]['p4nfnpj2bonnhxsjd5huctby][203.162.100.12][203.162.100.12][MenuBycomp] - MenuBycomp 
2019-03-13 11:27:03,814 DEBUG EInvoice.CAdmin.Controllers.CompanyController  [unileveradmin]['p4nfnpj2bonnhxsjd5huctby][203.162.100.12][203.162.100.12][MenuBycomp] - MenuBycomp 
2019-03-13 11:27:14,522 DEBUG EInvoice.CAdmin.Controllers.CompanyController  [unileveradmin]['p4nfnpj2bonnhxsjd5huctby][203.162.100.12][203.162.100.12][MenuBycomp] - MenuBycomp 
2019-03-13 11:27:16,203 DEBUG EInvoice.CAdmin.Controllers.CompanyController  [unileveradmin]['p4nfnpj2bonnhxsjd5huctby][203.162.100.12][203.162.100.12][MenuBycomp] - MenuBycomp 
2019-03-13 11:27:18,049 DEBUG EInvoice.CAdmin.Controllers.CompanyController  [unileveradmin]['p4nfnpj2bonnhxsjd5huctby][203.162.100.12][203.162.100.12][MenuBycomp] - MenuBycomp 
2019-03-13 11:27:49,175 INFO EInvoice.CAdmin.Controllers.PublishController  [unileveradmin]['p4nfnpj2bonnhxsjd5huctby][203.162.100.12][203.162.100.12][CreateRPublish] - Create Publish by: unileveradmin|InvInfo:2937;BD/19E;1000000;1;1000000_ 
2019-03-13 11:27:49,233 DEBUG EInvoice.CAdmin.Controllers.CompanyController  [unileveradmin]['p4nfnpj2bonnhxsjd5huctby][203.162.100.12][203.162.100.12][MenuBycomp] - MenuBycomp 
2019-03-13 11:27:54,699 ERROR EInvoice.CAdmin.Controllers.PublishController  [unileveradmin]['p4nfnpj2bonnhxsjd5huctby][203.162.100.12][203.162.100.12][SelectedPublish] - Bat dau gui thong bao phat hanh 
2019-03-13 11:27:54,710 INFO EInvoice.CAdmin.Controllers.PublishController  [unileveradmin]['p4nfnpj2bonnhxsjd5huctby][203.162.100.12][203.162.100.12][SelectedPublish] - SelectedPublish Publish by: unileveradmin Info-- ID: 4988 
2019-03-13 11:27:54,724 INFO EInvoice.CAdmin.Controllers.PublishController  [unileveradmin]['p4nfnpj2bonnhxsjd5huctby][203.162.100.12][203.162.100.12][SelectedPublish] - SelectedPublish Publish by: unileveradmin Info-- ID: 4988 
2019-03-13 11:27:57,056 DEBUG EInvoice.CAdmin.Controllers.CompanyController  [unileveradmin]['p4nfnpj2bonnhxsjd5huctby][203.162.100.12][203.162.100.12][MenuBycomp] - MenuBycomp 
2019-03-13 11:28:11,523 DEBUG EInvoice.CAdmin.Controllers.CompanyController  [unileveradmin]['p4nfnpj2bonnhxsjd5huctby][203.162.100.12][203.162.100.12][MenuBycomp] - MenuBycomp 
2019-03-13 11:28:11,890 DEBUG EInvoice.CAdmin.Controllers.CompanyController  [unileveradmin]['p4nfnpj2bonnhxsjd5huctby][203.162.100.12][203.162.100.12][MenuBycomp] - MenuBycomp 
2019-03-13 11:28:16,189 DEBUG EInvoice.CAdmin.Controllers.CompanyController  [unileveradmin]['p4nfnpj2bonnhxsjd5huctby][203.162.100.12][203.162.100.12][MenuBycomp] - MenuBycomp 
2019-03-13 11:28:37,208 INFO EInvoice.CAdmin.Controllers.AccountController  []['idnw5j4ybitde2ztolskeryu][203.162.100.12][203.162.100.12][LogOn] - Login: unileveradmin 
2019-03-13 11:28:37,239 INFO EInvoice.CAdmin.Controllers.AccountController  []['idnw5j4ybitde2ztolskeryu][203.162.100.12][203.162.100.12][LogOn] - LogOn:, Date:13/03/2019 11:28:37 SA 
2019-03-13 11:28:37,285 DEBUG EInvoice.CAdmin.Controllers.CompanyController  [unileveradmin]['idnw5j4ybitde2ztolskeryu][203.162.100.12][203.162.100.12][MenuBycomp] - MenuBycomp 
2019-03-13 11:29:39,901 DEBUG EInvoice.CAdmin.Controllers.CompanyController  [unileveradmin]['idnw5j4ybitde2ztolskeryu][203.162.100.12][203.162.100.12][MenuBycomp] - MenuBycomp 
2019-03-13 11:30:05,319 INFO EInvoice.CAdmin.Controllers.CustomerController  [unileveradmin]['p4nfnpj2bonnhxsjd5huctby][203.162.100.12][203.162.100.12][Create] - Create Customer by: unileveradmin Info-- TenKhachHang: CÔNG TY LIÊN DOANH ĐẠI DƯƠNG TaiKhoanKhachHang: 0300741217 Email: nhint@vnpt.vn 
2019-03-13 11:30:05,320 INFO EInvoice.CAdmin.Controllers.CustomerController  [unileveradmin]['p4nfnpj2bonnhxsjd5huctby][203.162.100.12][203.162.100.12][Create] - create ok: 0300741217 
2019-03-13 11:30:05,577 DEBUG EInvoice.CAdmin.Controllers.CompanyController  [unileveradmin]['p4nfnpj2bonnhxsjd5huctby][203.162.100.12][203.162.100.12][MenuBycomp] - MenuBycomp 
2019-03-13 11:30:07,643 DEBUG EInvoice.CAdmin.Controllers.CompanyController  [unileveradmin]['p4nfnpj2bonnhxsjd5huctby][203.162.100.12][203.162.100.12][MenuBycomp] - MenuBycomp 
2019-03-13 11:30:15,454 DEBUG EInvoice.CAdmin.Controllers.CompanyController  [unileveradmin]['p4nfnpj2bonnhxsjd5huctby][203.162.100.12][203.162.100.12][MenuBycomp] - MenuBycomp 
2019-03-13 11:30:20,567 INFO EInvoice.CAdmin.Controllers.AccountController  [unileveradmin]['p4nfnpj2bonnhxsjd5huctby][203.162.100.12][203.162.100.12][ChangePasswordCustomer] - Change Password By: unileveradmin Info-- UserName: 0300741217  ID: 5066929------ 
2019-03-13 11:30:20,616 DEBUG EInvoice.CAdmin.Controllers.CompanyController  [unileveradmin]['p4nfnpj2bonnhxsjd5huctby][203.162.100.12][203.162.100.12][MenuBycomp] - MenuBycomp 
2019-03-13 11:31:03,343 DEBUG EInvoice.CAdmin.Controllers.EInvoiceController  [unileveradmin]['p4nfnpj2bonnhxsjd5huctby][203.162.100.12][203.162.100.12][Index] - EInvoiceController Index 
2019-03-13 11:31:03,343 INFO EInvoice.CAdmin.Controllers.EInvoiceController  [unileveradmin]['p4nfnpj2bonnhxsjd5huctby][203.162.100.12][203.162.100.12][Index] - Index1943 pattern:  serial:  
2019-03-13 11:31:03,391 DEBUG EInvoice.CAdmin.Controllers.CompanyController  [unileveradmin]['p4nfnpj2bonnhxsjd5huctby][203.162.100.12][203.162.100.12][MenuBycomp] - MenuBycomp 
2019-03-13 11:31:05,473 DEBUG EInvoice.CAdmin.Controllers.CompanyController  [unileveradmin]['p4nfnpj2bonnhxsjd5huctby][203.162.100.12][203.162.100.12][MenuBycomp] - MenuBycomp 
2019-03-13 11:34:47,679 INFO EInvoice.CAdmin.Controllers.EInvoiceController  [unileveradmin]['p4nfnpj2bonnhxsjd5huctby][203.162.100.12][203.162.100.12][Create] - Create EInvoice by: unileveradmin Info-- TenKhachHang: CÔNG TY LIÊN DOANH ĐẠI DƯƠNG MaKhachHang: 0300741217 SoTien: 0 
2019-03-13 11:34:47,753 DEBUG EInvoice.CAdmin.Controllers.EInvoiceController  [unileveradmin]['p4nfnpj2bonnhxsjd5huctby][203.162.100.12][203.162.100.12][Index] - EInvoiceController Index 
2019-03-13 11:34:47,754 INFO EInvoice.CAdmin.Controllers.EInvoiceController  [unileveradmin]['p4nfnpj2bonnhxsjd5huctby][203.162.100.12][203.162.100.12][Index] - Index1943 pattern: 01GTKT0/001 serial: BD/19E 
2019-03-13 11:34:47,853 DEBUG EInvoice.CAdmin.Controllers.CompanyController  [unileveradmin]['p4nfnpj2bonnhxsjd5huctby][203.162.100.12][203.162.100.12][MenuBycomp] - MenuBycomp 
2019-03-13 11:35:17,438 INFO EInvoice.CAdmin.Controllers.EInvoiceController  [unileveradmin]['p4nfnpj2bonnhxsjd5huctby][203.162.100.12][203.162.100.12][LaunchChoice] - LaunchChoice by: unileveradmin 
2019-03-13 11:35:17,467 INFO EInvoice.Core.Launching.Launcher  [unileveradmin]['p4nfnpj2bonnhxsjd5huctby][203.162.100.12][203.162.100.12][Launch] - Core start launch13/03/2019 11:35:17 
2019-03-13 11:35:17,484 ERROR EInvoice.Core.Domain.KeyStores  [unileveradmin]['p4nfnpj2bonnhxsjd5huctby][203.162.100.12][203.162.100.12][OpenSession] - OpenSession C:\HDDT-Test-17052017.p12 1 0 
2019-03-13 11:35:17,528 INFO EInvoice.Core.Launching.LBLauncher  [unileveradmin]['p4nfnpj2bonnhxsjd5huctby][203.162.100.12][203.162.100.12][Launch] - Format Data 13/03/2019 11:35:17 
2019-03-13 11:35:17,609 INFO EInvoice.Core.Launching.LBLauncher  [unileveradmin]['p4nfnpj2bonnhxsjd5huctby][203.162.100.12][203.162.100.12][Launch] - Save to datatabase:13/03/2019 11:35:17 
2019-03-13 11:35:17,612 INFO EInvoice.Core.Launching.LBLauncher  [unileveradmin]['p4nfnpj2bonnhxsjd5huctby][203.162.100.12][203.162.100.12][Launch] - Deliver 13/03/2019 11:35:17 
2019-03-13 11:35:17,634 INFO EInvoice.Core.Launching.LBLauncher  [unileveradmin]['p4nfnpj2bonnhxsjd5huctby][203.162.100.12][203.162.100.12][Launch] - Commit tran 13/03/2019 11:35:17 
2019-03-13 11:35:17,699 INFO EInvoice.Core.Launching.LBLauncher  [unileveradmin]['p4nfnpj2bonnhxsjd5huctby][203.162.100.12][203.162.100.12][Launch] - end 13/03/2019 11:35:17 
2019-03-13 11:35:17,700 INFO EInvoice.CAdmin.Controllers.EInvoiceController  [unileveradmin]['p4nfnpj2bonnhxsjd5huctby][203.162.100.12][203.162.100.12][LaunchChoice] - Publish EInvoice by: unileveradmin Info-- Pattern: 01GTKT0/001; Serial: BD/19E; SoLuongPhatHanh: 1 
2019-03-13 11:35:17,785 DEBUG EInvoice.CAdmin.Controllers.EInvoiceController  [unileveradmin]['p4nfnpj2bonnhxsjd5huctby][203.162.100.12][203.162.100.12][Index] - EInvoiceController Index 
2019-03-13 11:35:17,786 INFO EInvoice.CAdmin.Controllers.EInvoiceController  [unileveradmin]['p4nfnpj2bonnhxsjd5huctby][203.162.100.12][203.162.100.12][Index] - Index1943 pattern: 01GTKT0/001 serial: BD/19E 
2019-03-13 11:35:17,819 DEBUG EInvoice.CAdmin.Controllers.CompanyController  [unileveradmin]['p4nfnpj2bonnhxsjd5huctby][203.162.100.12][203.162.100.12][MenuBycomp] - MenuBycomp 
2019-03-13 11:35:20,686 INFO EInvoice.CAdmin.Controllers.ShareController  [unileveradmin]['p4nfnpj2bonnhxsjd5huctby][203.162.100.12][203.162.100.12][ajxPreview] - call: ZWGYOiKW6zio06PoE7YvKA== pattern: 01GTKT0/001 company: 1943 
2019-03-13 11:36:21,212 DEBUG EInvoice.CAdmin.Controllers.EInvoiceController  [unileveradmin]['idnw5j4ybitde2ztolskeryu][203.162.100.12][203.162.100.12][Index] - EInvoiceController Index 
2019-03-13 11:36:21,213 INFO EInvoice.CAdmin.Controllers.EInvoiceController  [unileveradmin]['idnw5j4ybitde2ztolskeryu][203.162.100.12][203.162.100.12][Index] - Index1943 pattern:  serial:  
2019-03-13 11:36:21,246 DEBUG EInvoice.CAdmin.Controllers.CompanyController  [unileveradmin]['idnw5j4ybitde2ztolskeryu][203.162.100.12][203.162.100.12][MenuBycomp] - MenuBycomp 
2019-03-13 11:37:27,662 INFO EInvoice.CAdmin.Controllers.ShareController  [unileveradmin]['idnw5j4ybitde2ztolskeryu][203.162.100.12][203.162.100.12][ajxPreview] - call: ZWGYOiKW6zio06PoE7YvKA== pattern: 01GTKT0/001 company: 1943 
2019-03-13 11:40:05,986 DEBUG EInvoice.CAdmin.Controllers.CompanyController  [unileveradmin]['idnw5j4ybitde2ztolskeryu][203.162.100.12][203.162.100.12][MenuBycomp] - MenuBycomp 
2019-03-13 11:40:08,212 DEBUG EInvoice.CAdmin.Controllers.CompanyController  [unileveradmin]['idnw5j4ybitde2ztolskeryu][203.162.100.12][203.162.100.12][MenuBycomp] - MenuBycomp 
2019-03-13 11:40:12,510 DEBUG EInvoice.CAdmin.Controllers.EInvoiceController  [unileveradmin]['idnw5j4ybitde2ztolskeryu][203.162.100.12][203.162.100.12][Index] - EInvoiceController Index 
2019-03-13 11:40:12,510 INFO EInvoice.CAdmin.Controllers.EInvoiceController  [unileveradmin]['idnw5j4ybitde2ztolskeryu][203.162.100.12][203.162.100.12][Index] - Index1943 pattern:  serial:  
2019-03-13 11:40:12,553 DEBUG EInvoice.CAdmin.Controllers.CompanyController  [unileveradmin]['idnw5j4ybitde2ztolskeryu][203.162.100.12][203.162.100.12][MenuBycomp] - MenuBycomp 
2019-03-13 11:40:15,168 INFO EInvoice.CAdmin.Controllers.ShareController  [unileveradmin]['idnw5j4ybitde2ztolskeryu][203.162.100.12][203.162.100.12][ajxPreview] - call: ZWGYOiKW6zio06PoE7YvKA== pattern: 01GTKT0/001 company: 1943 
2019-03-13 11:43:39,628 DEBUG EInvoice.CAdmin.Controllers.CompanyController  [unileveradmin]['idnw5j4ybitde2ztolskeryu][203.162.100.12][203.162.100.12][MenuBycomp] - MenuBycomp 
2019-03-13 11:43:53,816 DEBUG EInvoice.CAdmin.Controllers.CompanyController  [unileveradmin]['idnw5j4ybitde2ztolskeryu][203.162.100.12][203.162.100.12][MenuBycomp] - MenuBycomp 
2019-03-13 11:44:06,808 DEBUG EInvoice.CAdmin.Controllers.CompanyController  [unileveradmin]['idnw5j4ybitde2ztolskeryu][203.162.100.12][203.162.100.12][MenuBycomp] - MenuBycomp 
2019-03-13 12:07:54,346 DEBUG EInvoice.CAdmin.Controllers.CompanyController  [unileveradmin]['idnw5j4ybitde2ztolskeryu][203.162.100.12][203.162.100.12][MenuBycomp] - MenuBycomp 
2019-03-13 12:44:32,307 INFO EInvoice.CAdmin.Controllers.AccountController  []['idnw5j4ybitde2ztolskeryu][203.162.100.12][203.162.100.12][LogOn] - Login: unileveradmin 
2019-03-13 12:44:33,780 INFO EInvoice.CAdmin.Controllers.AccountController  []['idnw5j4ybitde2ztolskeryu][203.162.100.12][203.162.100.12][LogOn] - LogOn:, Date:13/03/2019 12:44:33 CH 
2019-03-13 12:44:35,662 DEBUG EInvoice.CAdmin.Controllers.CompanyController  [unileveradmin]['idnw5j4ybitde2ztolskeryu][203.162.100.12][203.162.100.12][MenuBycomp] - MenuBycomp 
2019-03-13 12:45:14,218 DEBUG EInvoice.CAdmin.Controllers.CompanyController  [unileveradmin]['idnw5j4ybitde2ztolskeryu][203.162.100.12][203.162.100.12][MenuBycomp] - MenuBycomp 
2019-03-13 12:45:35,921 INFO EInvoice.CAdmin.Controllers.PublishController  [unileveradmin]['idnw5j4ybitde2ztolskeryu][203.162.100.12][203.162.100.12][Upload] - Upload Transaction by: unileveradmin--Begin call webservice 
2019-03-13 12:45:35,922 INFO EInvoice.CAdmin.Controllers.PublishController  [unileveradmin]['idnw5j4ybitde2ztolskeryu][203.162.100.12][203.162.100.12][Upload] - Upload Transaction by: unileveradmin Info-- Type Tran:  Import Customer    GuiID: c5b1c3f4-d79c-486c-81eb-eae581b114b7------ 
2019-03-13 12:45:36,000 ERROR EInvoice.CAdmin.ServiceImp.PoolingService  [unileveradmin]['NOT AVAILABLE][NOT AVAILABLE][NOT AVAILABLE][updateCus] - loi updateCus :c5b1c3f4-d79c-486c-81eb-eae581b114b7: System.NullReferenceException: Object reference not set to an instance of an object.
   at EInvoice.Core.EInvoiceContext.SetCurrentCompany(Company company)
   at EInvoice.CAdmin.ServiceImp.PoolingService.updateCus(Object it) 
2019-03-13 12:45:36,030 DEBUG EInvoice.CAdmin.Controllers.CompanyController  [unileveradmin]['idnw5j4ybitde2ztolskeryu][203.162.100.12][203.162.100.12][MenuBycomp] - MenuBycomp 
2019-03-13 12:45:38,932 DEBUG EInvoice.CAdmin.Controllers.CompanyController  [unileveradmin]['idnw5j4ybitde2ztolskeryu][203.162.100.12][203.162.100.12][MenuBycomp] - MenuBycomp 
2019-03-13 12:45:42,836 DEBUG EInvoice.CAdmin.Controllers.CompanyController  [unileveradmin]['idnw5j4ybitde2ztolskeryu][203.162.100.12][203.162.100.12][MenuBycomp] - MenuBycomp 
2019-03-13 12:45:47,988 DEBUG EInvoice.CAdmin.Controllers.CompanyController  [unileveradmin]['idnw5j4ybitde2ztolskeryu][203.162.100.12][203.162.100.12][MenuBycomp] - MenuBycomp 
2019-03-13 12:45:50,437 DEBUG EInvoice.CAdmin.Controllers.CompanyController  [unileveradmin]['idnw5j4ybitde2ztolskeryu][203.162.100.12][203.162.100.12][MenuBycomp] - MenuBycomp 
2019-03-13 12:45:54,080 DEBUG EInvoice.CAdmin.Controllers.CompanyController  [unileveradmin]['idnw5j4ybitde2ztolskeryu][203.162.100.12][203.162.100.12][MenuBycomp] - MenuBycomp 
2019-03-13 12:47:48,140 INFO EInvoice.CAdmin.Controllers.PublishController  [unileveradmin]['idnw5j4ybitde2ztolskeryu][203.162.100.12][203.162.100.12][Upload] - Upload Transaction by: unileveradmin--Begin call webservice 
2019-03-13 12:47:48,140 INFO EInvoice.CAdmin.Controllers.PublishController  [unileveradmin]['idnw5j4ybitde2ztolskeryu][203.162.100.12][203.162.100.12][Upload] - Upload Transaction by: unileveradmin Info-- Type Tran:  Import Customer    GuiID: 82643d59-1612-4fb6-9b92-6fcbdbe59a80------ 
2019-03-13 12:47:48,155 ERROR EInvoice.CAdmin.ServiceImp.PoolingService  [unileveradmin]['NOT AVAILABLE][NOT AVAILABLE][NOT AVAILABLE][updateCus] - loi updateCus :82643d59-1612-4fb6-9b92-6fcbdbe59a80: System.NullReferenceException: Object reference not set to an instance of an object.
   at EInvoice.Core.EInvoiceContext.SetCurrentCompany(Company company)
   at EInvoice.CAdmin.ServiceImp.PoolingService.updateCus(Object it) 
2019-03-13 12:47:48,286 DEBUG EInvoice.CAdmin.Controllers.CompanyController  [unileveradmin]['idnw5j4ybitde2ztolskeryu][203.162.100.12][203.162.100.12][MenuBycomp] - MenuBycomp 
2019-03-13 12:47:51,858 DEBUG EInvoice.CAdmin.Controllers.CompanyController  [unileveradmin]['idnw5j4ybitde2ztolskeryu][203.162.100.12][203.162.100.12][MenuBycomp] - MenuBycomp 
2019-03-13 12:47:54,658 DEBUG EInvoice.CAdmin.Controllers.CompanyController  [unileveradmin]['idnw5j4ybitde2ztolskeryu][203.162.100.12][203.162.100.12][MenuBycomp] - MenuBycomp 
2019-03-13 12:47:56,868 DEBUG EInvoice.CAdmin.Controllers.CompanyController  [unileveradmin]['idnw5j4ybitde2ztolskeryu][203.162.100.12][203.162.100.12][MenuBycomp] - MenuBycomp 
2019-03-13 12:48:00,291 DEBUG EInvoice.CAdmin.Controllers.CompanyController  [unileveradmin]['idnw5j4ybitde2ztolskeryu][203.162.100.12][203.162.100.12][MenuBycomp] - MenuBycomp 
2019-03-13 12:48:01,496 DEBUG EInvoice.CAdmin.Controllers.CompanyController  [unileveradmin]['idnw5j4ybitde2ztolskeryu][203.162.100.12][203.162.100.12][MenuBycomp] - MenuBycomp 
2019-03-13 12:48:03,115 DEBUG EInvoice.CAdmin.Controllers.CompanyController  [unileveradmin]['idnw5j4ybitde2ztolskeryu][203.162.100.12][203.162.100.12][MenuBycomp] - MenuBycomp 
2019-03-13 12:48:10,335 DEBUG EInvoice.CAdmin.Controllers.CompanyController  [unileveradmin]['idnw5j4ybitde2ztolskeryu][203.162.100.12][203.162.100.12][MenuBycomp] - MenuBycomp 
2019-03-13 12:48:23,142 DEBUG EInvoice.CAdmin.Controllers.CompanyController  [unileveradmin]['idnw5j4ybitde2ztolskeryu][203.162.100.12][203.162.100.12][MenuBycomp] - MenuBycomp 
2019-03-13 12:48:25,862 DEBUG EInvoice.CAdmin.Controllers.EInvoiceController  [unileveradmin]['idnw5j4ybitde2ztolskeryu][203.162.100.12][203.162.100.12][Index] - EInvoiceController Index 
2019-03-13 12:48:25,863 INFO EInvoice.CAdmin.Controllers.EInvoiceController  [unileveradmin]['idnw5j4ybitde2ztolskeryu][203.162.100.12][203.162.100.12][Index] - Index1943 pattern:  serial:  
2019-03-13 12:48:26,111 DEBUG EInvoice.CAdmin.Controllers.CompanyController  [unileveradmin]['idnw5j4ybitde2ztolskeryu][203.162.100.12][203.162.100.12][MenuBycomp] - MenuBycomp 
2019-03-13 12:48:38,670 DEBUG EInvoice.CAdmin.Controllers.CompanyController  [unileveradmin]['idnw5j4ybitde2ztolskeryu][203.162.100.12][203.162.100.12][MenuBycomp] - MenuBycomp 
2019-03-13 13:22:38,353 INFO EInvoice.CAdmin.Controllers.AccountController  []['543nxtdkzbwh0vjvgv4a31pt][123.25.190.33][123.25.190.33][LogOn] - Login: unileveradmin 
2019-03-13 13:22:38,397 INFO EInvoice.CAdmin.Controllers.AccountController  []['543nxtdkzbwh0vjvgv4a31pt][123.25.190.33][123.25.190.33][LogOn] - LogOn:, Date:13/03/2019 1:22:38 CH 
2019-03-13 13:22:38,449 DEBUG EInvoice.CAdmin.Controllers.CompanyController  [unileveradmin]['543nxtdkzbwh0vjvgv4a31pt][123.25.190.33][123.25.190.33][MenuBycomp] - MenuBycomp 
2019-03-13 13:22:41,079 DEBUG EInvoice.CAdmin.Controllers.EInvoiceController  [unileveradmin]['543nxtdkzbwh0vjvgv4a31pt][123.25.190.33][123.25.190.33][Index] - EInvoiceController Index 
2019-03-13 13:22:41,079 INFO EInvoice.CAdmin.Controllers.EInvoiceController  [unileveradmin]['543nxtdkzbwh0vjvgv4a31pt][123.25.190.33][123.25.190.33][Index] - Index1943 pattern:  serial:  
2019-03-13 13:22:41,114 DEBUG EInvoice.CAdmin.Controllers.CompanyController  [unileveradmin]['543nxtdkzbwh0vjvgv4a31pt][123.25.190.33][123.25.190.33][MenuBycomp] - MenuBycomp 
2019-03-13 13:22:43,296 DEBUG EInvoice.CAdmin.Controllers.EInvoiceController  [unileveradmin]['543nxtdkzbwh0vjvgv4a31pt][123.25.190.33][123.25.190.33][Index] - EInvoiceController Index 
2019-03-13 13:22:43,296 INFO EInvoice.CAdmin.Controllers.EInvoiceController  [unileveradmin]['543nxtdkzbwh0vjvgv4a31pt][123.25.190.33][123.25.190.33][Index] - Index1943 pattern: 01GTKT0/001 serial: BD/19E 
2019-03-13 13:22:43,348 DEBUG EInvoice.CAdmin.Controllers.CompanyController  [unileveradmin]['543nxtdkzbwh0vjvgv4a31pt][123.25.190.33][123.25.190.33][MenuBycomp] - MenuBycomp 
2019-03-13 13:22:44,249 DEBUG EInvoice.CAdmin.Controllers.CompanyController  [unileveradmin]['543nxtdkzbwh0vjvgv4a31pt][123.25.190.33][123.25.190.33][MenuBycomp] - MenuBycomp 
2019-03-13 13:22:48,208 DEBUG EInvoice.CAdmin.Controllers.CompanyController  [unileveradmin]['543nxtdkzbwh0vjvgv4a31pt][123.25.190.33][123.25.190.33][MenuBycomp] - MenuBycomp 
2019-03-13 13:22:50,371 DEBUG EInvoice.CAdmin.Controllers.CompanyController  [unileveradmin]['543nxtdkzbwh0vjvgv4a31pt][123.25.190.33][123.25.190.33][MenuBycomp] - MenuBycomp 
2019-03-13 13:23:18,762 INFO EInvoice.CAdmin.Controllers.CustomerController  [unileveradmin]['543nxtdkzbwh0vjvgv4a31pt][123.25.190.33][123.25.190.33][Create] - Create Customer by: unileveradmin Info-- TenKhachHang: Do Viet Hoang TaiKhoanKhachHang: hoangit2 Email: doviethoang92@gmail.com 
2019-03-13 13:23:18,764 INFO EInvoice.CAdmin.Controllers.CustomerController  [unileveradmin]['543nxtdkzbwh0vjvgv4a31pt][123.25.190.33][123.25.190.33][Create] - create ok: hoangit2 
2019-03-13 13:23:18,815 DEBUG EInvoice.CAdmin.Controllers.CompanyController  [unileveradmin]['543nxtdkzbwh0vjvgv4a31pt][123.25.190.33][123.25.190.33][MenuBycomp] - MenuBycomp 
2019-03-13 13:23:22,412 DEBUG EInvoice.CAdmin.Controllers.CompanyController  [unileveradmin]['543nxtdkzbwh0vjvgv4a31pt][123.25.190.33][123.25.190.33][MenuBycomp] - MenuBycomp 
2019-03-13 13:23:27,486 DEBUG EInvoice.CAdmin.Controllers.CompanyController  [unileveradmin]['543nxtdkzbwh0vjvgv4a31pt][123.25.190.33][123.25.190.33][MenuBycomp] - MenuBycomp 
2019-03-13 13:23:33,680 INFO EInvoice.CAdmin.Controllers.AccountController  [unileveradmin]['543nxtdkzbwh0vjvgv4a31pt][123.25.190.33][123.25.190.33][ChangePasswordCustomer] - Change Password By: unileveradmin Info-- UserName: hoangit2  ID: 5066930------ 
2019-03-13 13:23:33,782 DEBUG EInvoice.CAdmin.Controllers.CompanyController  [unileveradmin]['543nxtdkzbwh0vjvgv4a31pt][123.25.190.33][123.25.190.33][MenuBycomp] - MenuBycomp 
2019-03-13 13:23:38,819 DEBUG EInvoice.CAdmin.Controllers.EInvoiceController  [unileveradmin]['543nxtdkzbwh0vjvgv4a31pt][123.25.190.33][123.25.190.33][Index] - EInvoiceController Index 
2019-03-13 13:23:38,820 INFO EInvoice.CAdmin.Controllers.EInvoiceController  [unileveradmin]['543nxtdkzbwh0vjvgv4a31pt][123.25.190.33][123.25.190.33][Index] - Index1943 pattern:  serial:  
2019-03-13 13:23:38,873 DEBUG EInvoice.CAdmin.Controllers.CompanyController  [unileveradmin]['543nxtdkzbwh0vjvgv4a31pt][123.25.190.33][123.25.190.33][MenuBycomp] - MenuBycomp 
2019-03-13 13:23:46,903 DEBUG EInvoice.CAdmin.Controllers.CompanyController  [unileveradmin]['543nxtdkzbwh0vjvgv4a31pt][123.25.190.33][123.25.190.33][MenuBycomp] - MenuBycomp 
2019-03-13 13:24:25,312 INFO EInvoice.CAdmin.Controllers.EInvoiceController  [unileveradmin]['543nxtdkzbwh0vjvgv4a31pt][123.25.190.33][123.25.190.33][Create] - Create EInvoice by: unileveradmin Info-- TenKhachHang: VNPT MaKhachHang: hoangit2 SoTien: 1,00 
2019-03-13 13:24:25,422 DEBUG EInvoice.CAdmin.Controllers.EInvoiceController  [unileveradmin]['543nxtdkzbwh0vjvgv4a31pt][123.25.190.33][123.25.190.33][Index] - EInvoiceController Index 
2019-03-13 13:24:25,423 INFO EInvoice.CAdmin.Controllers.EInvoiceController  [unileveradmin]['543nxtdkzbwh0vjvgv4a31pt][123.25.190.33][123.25.190.33][Index] - Index1943 pattern: 01GTKT0/001 serial: BD/19E 
2019-03-13 13:24:25,459 DEBUG EInvoice.CAdmin.Controllers.CompanyController  [unileveradmin]['543nxtdkzbwh0vjvgv4a31pt][123.25.190.33][123.25.190.33][MenuBycomp] - MenuBycomp 
2019-03-13 13:24:30,580 INFO EInvoice.CAdmin.Controllers.EInvoiceController  [unileveradmin]['543nxtdkzbwh0vjvgv4a31pt][123.25.190.33][123.25.190.33][LaunchChoice] - LaunchChoice by: unileveradmin 
2019-03-13 13:24:30,655 INFO EInvoice.Core.Launching.Launcher  [unileveradmin]['543nxtdkzbwh0vjvgv4a31pt][123.25.190.33][123.25.190.33][Launch] - Core start launch13/03/2019 01:24:30 
2019-03-13 13:24:30,678 ERROR EInvoice.Core.Domain.KeyStores  [unileveradmin]['543nxtdkzbwh0vjvgv4a31pt][123.25.190.33][123.25.190.33][OpenSession] - OpenSession C:\HDDT-Test-17052017.p12 1 0 
2019-03-13 13:24:30,995 INFO EInvoice.Core.Launching.LBLauncher  [unileveradmin]['543nxtdkzbwh0vjvgv4a31pt][123.25.190.33][123.25.190.33][Launch] - Format Data 13/03/2019 01:24:30 
2019-03-13 13:24:31,146 INFO EInvoice.Core.Launching.LBLauncher  [unileveradmin]['543nxtdkzbwh0vjvgv4a31pt][123.25.190.33][123.25.190.33][Launch] - Save to datatabase:13/03/2019 01:24:31 
2019-03-13 13:24:31,148 INFO EInvoice.Core.Launching.LBLauncher  [unileveradmin]['543nxtdkzbwh0vjvgv4a31pt][123.25.190.33][123.25.190.33][Launch] - Deliver 13/03/2019 01:24:31 
2019-03-13 13:24:31,171 INFO EInvoice.Core.Launching.LBLauncher  [unileveradmin]['543nxtdkzbwh0vjvgv4a31pt][123.25.190.33][123.25.190.33][Launch] - Commit tran 13/03/2019 01:24:31 
2019-03-13 13:24:31,191 INFO EInvoice.Core.Launching.LBLauncher  [unileveradmin]['543nxtdkzbwh0vjvgv4a31pt][123.25.190.33][123.25.190.33][Launch] - end 13/03/2019 01:24:31 
2019-03-13 13:24:31,192 INFO EInvoice.CAdmin.Controllers.EInvoiceController  [unileveradmin]['543nxtdkzbwh0vjvgv4a31pt][123.25.190.33][123.25.190.33][LaunchChoice] - Publish EInvoice by: unileveradmin Info-- Pattern: 01GTKT0/001; Serial: BD/19E; SoLuongPhatHanh: 1 
2019-03-13 13:24:31,231 DEBUG EInvoice.CAdmin.Controllers.EInvoiceController  [unileveradmin]['543nxtdkzbwh0vjvgv4a31pt][123.25.190.33][123.25.190.33][Index] - EInvoiceController Index 
2019-03-13 13:24:31,231 INFO EInvoice.CAdmin.Controllers.EInvoiceController  [unileveradmin]['543nxtdkzbwh0vjvgv4a31pt][123.25.190.33][123.25.190.33][Index] - Index1943 pattern: 01GTKT0/001 serial: BD/19E 
2019-03-13 13:24:31,274 DEBUG EInvoice.CAdmin.Controllers.CompanyController  [unileveradmin]['543nxtdkzbwh0vjvgv4a31pt][123.25.190.33][123.25.190.33][MenuBycomp] - MenuBycomp 
2019-03-13 13:24:49,036 DEBUG EInvoice.CAdmin.Controllers.CompanyController  [unileveradmin]['543nxtdkzbwh0vjvgv4a31pt][123.25.190.33][123.25.190.33][MenuBycomp] - MenuBycomp 
2019-03-13 14:52:55,991 INFO EInvoice.CAdmin.Controllers.AccountController  []['ymwe53sklew5rhdettoxjihh][165.225.112.208][165.225.112.208][LogOn] - Login: unileveradmin 
2019-03-13 14:52:56,848 INFO EInvoice.CAdmin.Controllers.AccountController  []['ymwe53sklew5rhdettoxjihh][165.225.112.208][165.225.112.208][LogOn] - LogOn:, Date:13/03/2019 2:52:56 CH 
2019-03-13 14:52:58,349 DEBUG EInvoice.CAdmin.Controllers.CompanyController  [unileveradmin]['ymwe53sklew5rhdettoxjihh][165.225.112.208][165.225.112.208][MenuBycomp] - MenuBycomp 
2019-03-13 14:53:06,013 DEBUG EInvoice.CAdmin.Controllers.EInvoiceController  [unileveradmin]['ymwe53sklew5rhdettoxjihh][165.225.112.208][165.225.112.208][Index] - EInvoiceController Index 
2019-03-13 14:53:06,014 INFO EInvoice.CAdmin.Controllers.EInvoiceController  [unileveradmin]['ymwe53sklew5rhdettoxjihh][165.225.112.208][165.225.112.208][Index] - Index1943 pattern:  serial:  
2019-03-13 14:53:06,432 DEBUG EInvoice.CAdmin.Controllers.CompanyController  [unileveradmin]['ymwe53sklew5rhdettoxjihh][165.225.112.208][165.225.112.208][MenuBycomp] - MenuBycomp 
2019-03-13 14:55:01,759 INFO EInvoice.CAdmin.Controllers.AccountController  []['311ku0tk1oieuhi1eqjfkypt][123.25.190.33][123.25.190.33][LogOn] - Login: pesvnadmin 
2019-03-13 14:55:01,792 INFO EInvoice.CAdmin.Controllers.AccountController  []['311ku0tk1oieuhi1eqjfkypt][123.25.190.33][123.25.190.33][LogOn] - LogOn:, Date:13/03/2019 2:55:01 CH 
2019-03-13 14:55:01,863 DEBUG EInvoice.CAdmin.Controllers.CompanyController  [pesvnadmin]['311ku0tk1oieuhi1eqjfkypt][123.25.190.33][123.25.190.33][MenuBycomp] - MenuBycomp 
2019-03-13 14:55:16,902 INFO EInvoice.CAdmin.Controllers.AccountController  []['idnw5j4ybitde2ztolskeryu][203.162.100.12][203.162.100.12][LogOn] - Login: unileveradmin 
2019-03-13 14:55:16,938 INFO EInvoice.CAdmin.Controllers.AccountController  []['idnw5j4ybitde2ztolskeryu][203.162.100.12][203.162.100.12][LogOn] - LogOn:, Date:13/03/2019 2:55:16 CH 
2019-03-13 14:55:16,973 DEBUG EInvoice.CAdmin.Controllers.CompanyController  [unileveradmin]['idnw5j4ybitde2ztolskeryu][203.162.100.12][203.162.100.12][MenuBycomp] - MenuBycomp 
2019-03-13 14:56:16,947 DEBUG EInvoice.CAdmin.Controllers.CompanyController  [unileveradmin]['idnw5j4ybitde2ztolskeryu][203.162.100.12][203.162.100.12][MenuBycomp] - MenuBycomp 
2019-03-13 14:56:21,586 DEBUG EInvoice.CAdmin.Controllers.CompanyController  [unileveradmin]['idnw5j4ybitde2ztolskeryu][203.162.100.12][203.162.100.12][MenuBycomp] - MenuBycomp 
2019-03-13 14:58:45,076 DEBUG EInvoice.CAdmin.Controllers.EInvoiceController  [unileveradmin]['ymwe53sklew5rhdettoxjihh][165.225.112.208][165.225.112.208][Index] - EInvoiceController Index 
2019-03-13 14:58:45,077 INFO EInvoice.CAdmin.Controllers.EInvoiceController  [unileveradmin]['ymwe53sklew5rhdettoxjihh][165.225.112.208][165.225.112.208][Index] - Index1943 pattern:  serial:  
2019-03-13 14:58:45,139 DEBUG EInvoice.CAdmin.Controllers.CompanyController  [unileveradmin]['ymwe53sklew5rhdettoxjihh][165.225.112.208][165.225.112.208][MenuBycomp] - MenuBycomp 
2019-03-13 14:58:58,099 DEBUG EInvoice.CAdmin.Controllers.CompanyController  [unileveradmin]['ymwe53sklew5rhdettoxjihh][165.225.112.208][165.225.112.208][MenuBycomp] - MenuBycomp 
2019-03-13 15:00:47,212 DEBUG EInvoice.CAdmin.Controllers.EInvoiceController  [unileveradmin]['ymwe53sklew5rhdettoxjihh][165.225.112.208][165.225.112.208][Index] - EInvoiceController Index 
2019-03-13 15:00:47,213 INFO EInvoice.CAdmin.Controllers.EInvoiceController  [unileveradmin]['ymwe53sklew5rhdettoxjihh][165.225.112.208][165.225.112.208][Index] - Index1943 pattern:  serial:  
2019-03-13 15:00:47,259 DEBUG EInvoice.CAdmin.Controllers.CompanyController  [unileveradmin]['ymwe53sklew5rhdettoxjihh][165.225.112.208][165.225.112.208][MenuBycomp] - MenuBycomp 
2019-03-13 15:00:51,738 INFO EInvoice.CAdmin.Controllers.ShareController  [unileveradmin]['ymwe53sklew5rhdettoxjihh][165.225.112.208][165.225.112.208][ajxPreview] - call: wjZN1lFTGSQlc0kqbycEhg== pattern: 01GTKT0/001 company: 1943 
2019-03-13 15:14:39,744 INFO EInvoice.CAdmin.Controllers.ShareController  [unileveradmin]['ymwe53sklew5rhdettoxjihh][165.225.112.208][165.225.112.208][ajxPreview] - call: wjZN1lFTGSQlc0kqbycEhg== pattern: 01GTKT0/001 company: 1943 
2019-03-13 15:16:20,336 INFO EInvoice.CAdmin.Controllers.AccountController  [pesvnadmin]['311ku0tk1oieuhi1eqjfkypt][123.25.190.33][123.25.190.33][Logout] - LogOut:pesvnadmin, Date:13/03/2019 3:16:20 CH 
2019-03-13 15:19:42,070 INFO EInvoice.CAdmin.Controllers.AccountController  []['4uv3gx0jvdz42bwki0mzehsf][203.162.100.12][203.162.100.12][LogOn] - Login: unileveradmin 
2019-03-13 15:19:42,104 INFO EInvoice.CAdmin.Controllers.AccountController  []['4uv3gx0jvdz42bwki0mzehsf][203.162.100.12][203.162.100.12][LogOn] - LogOn:, Date:13/03/2019 3:19:42 CH 
2019-03-13 15:19:42,378 DEBUG EInvoice.CAdmin.Controllers.CompanyController  [unileveradmin]['4uv3gx0jvdz42bwki0mzehsf][203.162.100.12][203.162.100.12][MenuBycomp] - MenuBycomp 
2019-03-13 15:19:47,203 DEBUG EInvoice.CAdmin.Controllers.EInvoiceController  [unileveradmin]['4uv3gx0jvdz42bwki0mzehsf][203.162.100.12][203.162.100.12][Index] - EInvoiceController Index 
2019-03-13 15:19:47,203 INFO EInvoice.CAdmin.Controllers.EInvoiceController  [unileveradmin]['4uv3gx0jvdz42bwki0mzehsf][203.162.100.12][203.162.100.12][Index] - Index1943 pattern:  serial:  
2019-03-13 15:19:47,239 DEBUG EInvoice.CAdmin.Controllers.CompanyController  [unileveradmin]['4uv3gx0jvdz42bwki0mzehsf][203.162.100.12][203.162.100.12][MenuBycomp] - MenuBycomp 
2019-03-13 15:19:52,736 INFO EInvoice.CAdmin.Controllers.ShareController  [unileveradmin]['4uv3gx0jvdz42bwki0mzehsf][203.162.100.12][203.162.100.12][ajxPreview] - call: ZWGYOiKW6zio06PoE7YvKA== pattern: 01GTKT0/001 company: 1943 
2019-03-13 15:36:23,931 INFO EInvoice.CAdmin.Controllers.AccountController  []['bnoa0anc0pmqac1dciufurgh][203.162.100.29][203.162.100.29][LogOn] - Login: unileveradmin 
2019-03-13 15:36:23,960 INFO EInvoice.CAdmin.Controllers.AccountController  []['bnoa0anc0pmqac1dciufurgh][203.162.100.29][203.162.100.29][LogOn] - LogOn:, Date:13/03/2019 3:36:23 CH 
2019-03-13 15:36:23,989 DEBUG EInvoice.CAdmin.Controllers.CompanyController  [unileveradmin]['bnoa0anc0pmqac1dciufurgh][203.162.100.29][203.162.100.29][MenuBycomp] - MenuBycomp 
2019-03-13 15:36:29,057 DEBUG EInvoice.CAdmin.Controllers.EInvoiceController  [unileveradmin]['bnoa0anc0pmqac1dciufurgh][203.162.100.29][203.162.100.29][Index] - EInvoiceController Index 
2019-03-13 15:36:29,058 INFO EInvoice.CAdmin.Controllers.EInvoiceController  [unileveradmin]['bnoa0anc0pmqac1dciufurgh][203.162.100.29][203.162.100.29][Index] - Index1943 pattern:  serial:  
2019-03-13 15:36:29,095 DEBUG EInvoice.CAdmin.Controllers.CompanyController  [unileveradmin]['bnoa0anc0pmqac1dciufurgh][203.162.100.29][203.162.100.29][MenuBycomp] - MenuBycomp 
2019-03-13 15:36:31,740 INFO EInvoice.CAdmin.Controllers.ShareController  [unileveradmin]['bnoa0anc0pmqac1dciufurgh][203.162.100.29][203.162.100.29][ajxPreview] - call: wjZN1lFTGSQlc0kqbycEhg== pattern: 01GTKT0/001 company: 1943 
2019-03-13 15:36:47,865 DEBUG EInvoice.CAdmin.Controllers.CompanyController  [unileveradmin]['bnoa0anc0pmqac1dciufurgh][203.162.100.29][203.162.100.29][MenuBycomp] - MenuBycomp 
2019-03-13 15:36:59,552 DEBUG EInvoice.CAdmin.Controllers.CompanyController  [unileveradmin]['bnoa0anc0pmqac1dciufurgh][203.162.100.29][203.162.100.29][MenuBycomp] - MenuBycomp 
2019-03-13 15:37:12,425 DEBUG EInvoice.CAdmin.Controllers.CompanyController  [unileveradmin]['bnoa0anc0pmqac1dciufurgh][203.162.100.29][203.162.100.29][MenuBycomp] - MenuBycomp 
2019-03-13 15:38:38,069 INFO EInvoice.CAdmin.Controllers.AccountController  []['00vk01gv4vx4wohxjbctelbj][165.225.112.208][165.225.112.208][LogOn] - Login: unileveradmin 
2019-03-13 15:38:38,097 INFO EInvoice.CAdmin.Controllers.AccountController  []['00vk01gv4vx4wohxjbctelbj][165.225.112.208][165.225.112.208][LogOn] - LogOn:, Date:13/03/2019 3:38:38 CH 
2019-03-13 15:38:38,342 DEBUG EInvoice.CAdmin.Controllers.CompanyController  [unileveradmin]['00vk01gv4vx4wohxjbctelbj][165.225.112.208][165.225.112.208][MenuBycomp] - MenuBycomp 
2019-03-13 15:38:48,109 DEBUG EInvoice.CAdmin.Controllers.CompanyController  [unileveradmin]['00vk01gv4vx4wohxjbctelbj][165.225.112.208][165.225.112.208][MenuBycomp] - MenuBycomp 
2019-03-13 15:38:58,768 DEBUG EInvoice.CAdmin.Controllers.CompanyController  [unileveradmin]['00vk01gv4vx4wohxjbctelbj][165.225.112.208][165.225.112.208][MenuBycomp] - MenuBycomp 
2019-03-13 15:39:10,936 DEBUG EInvoice.CAdmin.Controllers.CompanyController  [unileveradmin]['00vk01gv4vx4wohxjbctelbj][165.225.112.208][165.225.112.208][MenuBycomp] - MenuBycomp 
2019-03-13 15:39:14,953 DEBUG EInvoice.CAdmin.Controllers.CompanyController  [unileveradmin]['00vk01gv4vx4wohxjbctelbj][165.225.112.208][165.225.112.208][MenuBycomp] - MenuBycomp 
2019-03-13 15:39:19,328 DEBUG EInvoice.CAdmin.Controllers.CompanyController  [unileveradmin]['00vk01gv4vx4wohxjbctelbj][165.225.112.208][165.225.112.208][MenuBycomp] - MenuBycomp 
2019-03-13 15:39:22,329 DEBUG EInvoice.CAdmin.Controllers.CompanyController  [unileveradmin]['00vk01gv4vx4wohxjbctelbj][165.225.112.208][165.225.112.208][MenuBycomp] - MenuBycomp 
2019-03-13 15:54:00,088 INFO EInvoice.CAdmin.Controllers.AccountController  []['idnw5j4ybitde2ztolskeryu][203.162.100.12][203.162.100.12][LogOn] - Login: unileveradmin 
2019-03-13 15:54:00,120 INFO EInvoice.CAdmin.Controllers.AccountController  []['idnw5j4ybitde2ztolskeryu][203.162.100.12][203.162.100.12][LogOn] - LogOn:, Date:13/03/2019 3:54:00 CH 
2019-03-13 15:54:00,165 DEBUG EInvoice.CAdmin.Controllers.EInvoiceController  [unileveradmin]['idnw5j4ybitde2ztolskeryu][203.162.100.12][203.162.100.12][Index] - EInvoiceController Index 
2019-03-13 15:54:00,166 INFO EInvoice.CAdmin.Controllers.EInvoiceController  [unileveradmin]['idnw5j4ybitde2ztolskeryu][203.162.100.12][203.162.100.12][Index] - Index1943 pattern:  serial:  
2019-03-13 15:54:00,212 DEBUG EInvoice.CAdmin.Controllers.CompanyController  [unileveradmin]['idnw5j4ybitde2ztolskeryu][203.162.100.12][203.162.100.12][MenuBycomp] - MenuBycomp 
2019-03-13 15:54:03,403 INFO EInvoice.CAdmin.Controllers.ShareController  [unileveradmin]['idnw5j4ybitde2ztolskeryu][203.162.100.12][203.162.100.12][ajxPreview] - call: ZWGYOiKW6zio06PoE7YvKA== pattern: 01GTKT0/001 company: 1943 
2019-03-13 16:04:01,780 DEBUG EInvoice.CAdmin.Controllers.CompanyController  [unileveradmin]['idnw5j4ybitde2ztolskeryu][203.162.100.12][203.162.100.12][MenuBycomp] - MenuBycomp 
