2019-02-20 09:35:46,941 INFO EInvoice.CAdmin.Controllers.AccountController  []['wb0vgye0xqn40seuzaqxa4vj][113.160.13.121][113.160.13.121][LogOn] - Login: 0100113007_admin_demo  
2019-02-20 09:36:02,071 INFO EInvoice.CAdmin.Controllers.AccountController  []['wb0vgye0xqn40seuzaqxa4vj][113.160.13.121][113.160.13.121][LogOn] - Login: 0100113007_admin_demo  
2019-02-20 09:36:02,183 INFO EInvoice.CAdmin.Controllers.AccountController  []['wb0vgye0xqn40seuzaqxa4vj][113.160.13.121][113.160.13.121][LogOn] - LogOn:, Date:20/02/2019 9:36:02 SA 
2019-02-20 09:36:04,124 DEBUG EInvoice.CAdmin.Controllers.CompanyController  [0100113007_admin_demo]['wb0vgye0xqn40seuzaqxa4vj][113.160.13.121][113.160.13.121][MenuBycomp] - MenuBycomp 
2019-02-20 09:36:12,601 DEBUG EInvoice.CAdmin.Controllers.CompanyController  [0100113007_admin_demo]['wb0vgye0xqn40seuzaqxa4vj][113.160.13.121][113.160.13.121][MenuBycomp] - MenuBycomp 
2019-02-20 09:36:41,899 DEBUG EInvoice.CAdmin.Controllers.CompanyController  [0100113007_admin_demo]['wb0vgye0xqn40seuzaqxa4vj][113.160.13.121][113.160.13.121][MenuBycomp] - MenuBycomp 
2019-02-20 09:36:49,506 DEBUG EInvoice.CAdmin.Controllers.CompanyController  [0100113007_admin_demo]['wb0vgye0xqn40seuzaqxa4vj][113.160.13.121][113.160.13.121][MenuBycomp] - MenuBycomp 
2019-02-20 09:37:03,428 DEBUG EInvoice.CAdmin.Controllers.EInvoiceController  [0100113007_admin_demo]['wb0vgye0xqn40seuzaqxa4vj][113.160.13.121][113.160.13.121][Index] - EInvoiceController Index 
2019-02-20 09:37:03,429 INFO EInvoice.CAdmin.Controllers.EInvoiceController  [0100113007_admin_demo]['wb0vgye0xqn40seuzaqxa4vj][113.160.13.121][113.160.13.121][Index] - Index1937 pattern:  serial:  
2019-02-20 09:37:03,574 DEBUG EInvoice.CAdmin.Controllers.CompanyController  [0100113007_admin_demo]['wb0vgye0xqn40seuzaqxa4vj][113.160.13.121][113.160.13.121][MenuBycomp] - MenuBycomp 
2019-02-20 09:37:07,222 DEBUG EInvoice.CAdmin.Controllers.CompanyController  [0100113007_admin_demo]['wb0vgye0xqn40seuzaqxa4vj][113.160.13.121][113.160.13.121][MenuBycomp] - MenuBycomp 
2019-02-20 09:37:10,573 DEBUG EInvoice.CAdmin.Controllers.CompanyController  [0100113007_admin_demo]['wb0vgye0xqn40seuzaqxa4vj][113.160.13.121][113.160.13.121][MenuBycomp] - MenuBycomp 
2019-02-20 09:37:13,349 DEBUG EInvoice.CAdmin.Controllers.CompanyController  [0100113007_admin_demo]['wb0vgye0xqn40seuzaqxa4vj][113.160.13.121][113.160.13.121][MenuBycomp] - MenuBycomp 
2019-02-20 09:37:20,921 DEBUG EInvoice.CAdmin.Controllers.CompanyController  [0100113007_admin_demo]['wb0vgye0xqn40seuzaqxa4vj][113.160.13.121][113.160.13.121][MenuBycomp] - MenuBycomp 
2019-02-20 09:37:41,130 INFO EInvoice.CAdmin.Controllers.AccountController  [0100113007_admin_demo]['wb0vgye0xqn40seuzaqxa4vj][113.160.13.121][113.160.13.121][Logout] - LogOut:0100113007_admin_demo, Date:20/02/2019 9:37:41 SA 
