2019-03-08 10:29:03,465 INFO EInvoice.CAdmin.Controllers.AccountController  []['abvfgh35oa5zkhdvy34zofyx][113.160.13.121][113.160.13.121][LogOn] - Login: 0100113007_admin_demo 
2019-03-08 10:29:32,246 INFO EInvoice.CAdmin.Controllers.AccountController  []['abvfgh35oa5zkhdvy34zofyx][113.160.13.121][113.160.13.121][LogOn] - Login: 0100113007_admin_demo 
2019-03-08 10:29:32,305 INFO EInvoice.CAdmin.Controllers.AccountController  []['abvfgh35oa5zkhdvy34zofyx][113.160.13.121][113.160.13.121][LogOn] - LogOn:, Date:08/03/2019 10:29:32 SA 
2019-03-08 10:29:32,381 DEBUG EInvoice.CAdmin.Controllers.EInvoiceController  [0100113007_admin_demo]['abvfgh35oa5zkhdvy34zofyx][113.160.13.121][113.160.13.121][Index] - EInvoiceController Index 
2019-03-08 10:29:32,382 INFO EInvoice.CAdmin.Controllers.EInvoiceController  [0100113007_admin_demo]['abvfgh35oa5zkhdvy34zofyx][113.160.13.121][113.160.13.121][Index] - Index1937 pattern:  serial:  
2019-03-08 10:29:34,293 DEBUG EInvoice.CAdmin.Controllers.CompanyController  [0100113007_admin_demo]['abvfgh35oa5zkhdvy34zofyx][113.160.13.121][113.160.13.121][MenuBycomp] - MenuBycomp 
2019-03-08 10:29:48,144 DEBUG EInvoice.CAdmin.Controllers.CompanyController  [0100113007_admin_demo]['abvfgh35oa5zkhdvy34zofyx][113.160.13.121][113.160.13.121][MenuBycomp] - MenuBycomp 
2019-03-08 10:31:19,373 DEBUG EInvoice.CAdmin.Controllers.CompanyController  [0100113007_admin_demo]['abvfgh35oa5zkhdvy34zofyx][113.160.13.121][113.160.13.121][MenuBycomp] - MenuBycomp 
2019-03-08 10:31:25,072 DEBUG EInvoice.CAdmin.Controllers.CompanyController  [0100113007_admin_demo]['abvfgh35oa5zkhdvy34zofyx][113.160.13.121][113.160.13.121][MenuBycomp] - MenuBycomp 
2019-03-08 10:31:32,342 DEBUG EInvoice.CAdmin.Controllers.CompanyController  [0100113007_admin_demo]['abvfgh35oa5zkhdvy34zofyx][113.160.13.121][113.160.13.121][MenuBycomp] - MenuBycomp 
2019-03-08 10:31:49,991 DEBUG EInvoice.CAdmin.Controllers.EInvoiceController  [0100113007_admin_demo]['abvfgh35oa5zkhdvy34zofyx][113.160.13.121][113.160.13.121][Index] - EInvoiceController Index 
2019-03-08 10:31:49,992 INFO EInvoice.CAdmin.Controllers.EInvoiceController  [0100113007_admin_demo]['abvfgh35oa5zkhdvy34zofyx][113.160.13.121][113.160.13.121][Index] - Index1937 pattern:  serial:  
2019-03-08 10:31:50,044 DEBUG EInvoice.CAdmin.Controllers.CompanyController  [0100113007_admin_demo]['abvfgh35oa5zkhdvy34zofyx][113.160.13.121][113.160.13.121][MenuBycomp] - MenuBycomp 
2019-03-08 10:35:23,457 DEBUG EInvoice.CAdmin.Controllers.CompanyController  [0100113007_admin_demo]['abvfgh35oa5zkhdvy34zofyx][113.160.13.121][113.160.13.121][MenuBycomp] - MenuBycomp 
2019-03-08 10:35:48,981 DEBUG EInvoice.CAdmin.Controllers.CompanyController  [0100113007_admin_demo]['abvfgh35oa5zkhdvy34zofyx][113.160.13.121][113.160.13.121][MenuBycomp] - MenuBycomp 
2019-03-08 10:36:18,727 DEBUG EInvoice.CAdmin.Controllers.CompanyController  [0100113007_admin_demo]['abvfgh35oa5zkhdvy34zofyx][113.160.13.121][113.160.13.121][MenuBycomp] - MenuBycomp 
2019-03-08 10:39:00,055 DEBUG EInvoice.CAdmin.Controllers.CompanyController  [0100113007_admin_demo]['abvfgh35oa5zkhdvy34zofyx][113.160.13.121][113.160.13.121][MenuBycomp] - MenuBycomp 
2019-03-08 10:39:34,776 DEBUG EInvoice.CAdmin.Controllers.CompanyController  [0100113007_admin_demo]['abvfgh35oa5zkhdvy34zofyx][113.160.13.121][113.160.13.121][MenuBycomp] - MenuBycomp 
2019-03-08 10:39:56,417 DEBUG EInvoice.CAdmin.Controllers.CompanyController  [0100113007_admin_demo]['abvfgh35oa5zkhdvy34zofyx][113.160.13.121][113.160.13.121][MenuBycomp] - MenuBycomp 
2019-03-08 10:41:12,642 DEBUG EInvoice.CAdmin.Controllers.CompanyController  [0100113007_admin_demo]['abvfgh35oa5zkhdvy34zofyx][113.160.13.121][113.160.13.121][MenuBycomp] - MenuBycomp 
2019-03-08 10:41:55,202 DEBUG EInvoice.CAdmin.Controllers.CompanyController  [0100113007_admin_demo]['abvfgh35oa5zkhdvy34zofyx][113.160.13.121][113.160.13.121][MenuBycomp] - MenuBycomp 
2019-03-08 10:41:58,299 DEBUG EInvoice.CAdmin.Controllers.CompanyController  [0100113007_admin_demo]['abvfgh35oa5zkhdvy34zofyx][113.160.13.121][113.160.13.121][MenuBycomp] - MenuBycomp 
2019-03-08 10:43:54,466 INFO EInvoice.CAdmin.Controllers.CustomerController  [0100113007_admin_demo]['abvfgh35oa5zkhdvy34zofyx][113.160.13.121][113.160.13.121][Create] - Create Customer by: 0100113007_admin_demo Info-- TenKhachHang: CÔNG TY TEST TaiKhoanKhachHang: 099999 Email: hang.acc@hanoi-pressclub.com 
2019-03-08 10:43:54,468 INFO EInvoice.CAdmin.Controllers.CustomerController  [0100113007_admin_demo]['abvfgh35oa5zkhdvy34zofyx][113.160.13.121][113.160.13.121][Create] - create ok: 099999 
2019-03-08 10:43:54,493 DEBUG EInvoice.CAdmin.Controllers.CompanyController  [0100113007_admin_demo]['abvfgh35oa5zkhdvy34zofyx][113.160.13.121][113.160.13.121][MenuBycomp] - MenuBycomp 
2019-03-08 10:44:08,362 DEBUG EInvoice.CAdmin.Controllers.CompanyController  [0100113007_admin_demo]['abvfgh35oa5zkhdvy34zofyx][113.160.13.121][113.160.13.121][MenuBycomp] - MenuBycomp 
2019-03-08 10:45:07,081 DEBUG EInvoice.CAdmin.Controllers.EInvoiceController  [0100113007_admin_demo]['abvfgh35oa5zkhdvy34zofyx][113.160.13.121][113.160.13.121][Index] - EInvoiceController Index 
2019-03-08 10:45:07,082 INFO EInvoice.CAdmin.Controllers.EInvoiceController  [0100113007_admin_demo]['abvfgh35oa5zkhdvy34zofyx][113.160.13.121][113.160.13.121][Index] - Index1937 pattern:  serial:  
2019-03-08 10:45:07,126 DEBUG EInvoice.CAdmin.Controllers.CompanyController  [0100113007_admin_demo]['abvfgh35oa5zkhdvy34zofyx][113.160.13.121][113.160.13.121][MenuBycomp] - MenuBycomp 
2019-03-08 10:45:18,146 DEBUG EInvoice.CAdmin.Controllers.EInvoiceController  [0100113007_admin_demo]['abvfgh35oa5zkhdvy34zofyx][113.160.13.121][113.160.13.121][Delete] - Access - Delete 
2019-03-08 10:45:18,226 INFO EInvoice.CAdmin.Controllers.EInvoiceController  [0100113007_admin_demo]['abvfgh35oa5zkhdvy34zofyx][113.160.13.121][113.160.13.121][Delete] - Delete EInvoice by: 0100113007_admin_demo Info-- ID: 5848328Pattern: 03XKNB0/001 Serial: PC/19E SoHoaDon: 0 TenKhachHang: NNN MaKhachHang:  SoTien: 488888 
2019-03-08 10:45:18,227 INFO EInvoice.CAdmin.Controllers.EInvoiceController  [0100113007_admin_demo]['abvfgh35oa5zkhdvy34zofyx][113.160.13.121][113.160.13.121][Delete] - Delete successfull id =5848328 
2019-03-08 10:45:18,344 DEBUG EInvoice.CAdmin.Controllers.CompanyController  [0100113007_admin_demo]['abvfgh35oa5zkhdvy34zofyx][113.160.13.121][113.160.13.121][MenuBycomp] - MenuBycomp 
2019-03-08 10:45:24,067 DEBUG EInvoice.CAdmin.Controllers.EInvoiceController  [0100113007_admin_demo]['abvfgh35oa5zkhdvy34zofyx][113.160.13.121][113.160.13.121][Index] - EInvoiceController Index 
2019-03-08 10:45:24,068 INFO EInvoice.CAdmin.Controllers.EInvoiceController  [0100113007_admin_demo]['abvfgh35oa5zkhdvy34zofyx][113.160.13.121][113.160.13.121][Index] - Index1937 pattern:  serial:  
2019-03-08 10:45:24,101 DEBUG EInvoice.CAdmin.Controllers.CompanyController  [0100113007_admin_demo]['abvfgh35oa5zkhdvy34zofyx][113.160.13.121][113.160.13.121][MenuBycomp] - MenuBycomp 
2019-03-08 10:45:27,723 DEBUG EInvoice.CAdmin.Controllers.CompanyController  [0100113007_admin_demo]['abvfgh35oa5zkhdvy34zofyx][113.160.13.121][113.160.13.121][MenuBycomp] - MenuBycomp 
2019-03-08 10:46:32,431 INFO EInvoice.CAdmin.Controllers.EInvoiceController  [0100113007_admin_demo]['abvfgh35oa5zkhdvy34zofyx][113.160.13.121][113.160.13.121][Create] - Create EInvoice by: 0100113007_admin_demo Info-- TenKhachHang: CÔNG TY TEST MaKhachHang: 099999 SoTien: 44000 
2019-03-08 10:46:32,483 DEBUG EInvoice.CAdmin.Controllers.EInvoiceController  [0100113007_admin_demo]['abvfgh35oa5zkhdvy34zofyx][113.160.13.121][113.160.13.121][Index] - EInvoiceController Index 
2019-03-08 10:46:32,483 INFO EInvoice.CAdmin.Controllers.EInvoiceController  [0100113007_admin_demo]['abvfgh35oa5zkhdvy34zofyx][113.160.13.121][113.160.13.121][Index] - Index1937 pattern: 03XKNB0/001 serial: PC/19E 
2019-03-08 10:46:32,539 DEBUG EInvoice.CAdmin.Controllers.CompanyController  [0100113007_admin_demo]['abvfgh35oa5zkhdvy34zofyx][113.160.13.121][113.160.13.121][MenuBycomp] - MenuBycomp 
2019-03-08 10:46:38,636 INFO EInvoice.CAdmin.Controllers.ShareController  [0100113007_admin_demo]['abvfgh35oa5zkhdvy34zofyx][113.160.13.121][113.160.13.121][ajxPreview] - call: Co2iOonL108VOxsjI8kp+A== pattern: 03XKNB0/001 company: 1937 
2019-03-08 10:46:39,144 INFO EInvoice.CAdmin.Controllers.ShareController  [0100113007_admin_demo]['abvfgh35oa5zkhdvy34zofyx][113.160.13.121][113.160.13.121][ajxPreview] - call: Co2iOonL108VOxsjI8kp+A== pattern: 03XKNB0/001 company: 1937 
2019-03-08 10:46:39,721 DEBUG EInvoice.CAdmin.Controllers.EInvoiceController  [0100113007_admin_demo]['abvfgh35oa5zkhdvy34zofyx][113.160.13.121][113.160.13.121][Index] - EInvoiceController Index 
2019-03-08 10:46:39,721 INFO EInvoice.CAdmin.Controllers.EInvoiceController  [0100113007_admin_demo]['abvfgh35oa5zkhdvy34zofyx][113.160.13.121][113.160.13.121][Index] - Index1937 pattern: 03XKNB0/001 serial: PC/19E 
2019-03-08 10:46:39,754 DEBUG EInvoice.CAdmin.Controllers.CompanyController  [0100113007_admin_demo]['abvfgh35oa5zkhdvy34zofyx][113.160.13.121][113.160.13.121][MenuBycomp] - MenuBycomp 
2019-03-08 10:46:53,307 DEBUG EInvoice.CAdmin.Controllers.CompanyController  [0100113007_admin_demo]['abvfgh35oa5zkhdvy34zofyx][113.160.13.121][113.160.13.121][MenuBycomp] - MenuBycomp 
2019-03-08 10:47:06,760 INFO EInvoice.CAdmin.Controllers.EInvoiceController  [0100113007_admin_demo]['abvfgh35oa5zkhdvy34zofyx][113.160.13.121][113.160.13.121][Edit] - Edit EInvoice by: 0100113007_admin_demo Info-- TenKhachHang: CÔNG TY TEST MaKhachHang: 099999 SoTien: 66000 
2019-03-08 10:47:06,791 DEBUG EInvoice.CAdmin.Controllers.EInvoiceController  [0100113007_admin_demo]['abvfgh35oa5zkhdvy34zofyx][113.160.13.121][113.160.13.121][Index] - EInvoiceController Index 
2019-03-08 10:47:06,792 INFO EInvoice.CAdmin.Controllers.EInvoiceController  [0100113007_admin_demo]['abvfgh35oa5zkhdvy34zofyx][113.160.13.121][113.160.13.121][Index] - Index1937 pattern: 03XKNB0/001 serial: PC/19E 
2019-03-08 10:47:06,824 DEBUG EInvoice.CAdmin.Controllers.CompanyController  [0100113007_admin_demo]['abvfgh35oa5zkhdvy34zofyx][113.160.13.121][113.160.13.121][MenuBycomp] - MenuBycomp 
2019-03-08 10:49:19,385 INFO EInvoice.CAdmin.Controllers.EInvoiceController  [0100113007_admin_demo]['abvfgh35oa5zkhdvy34zofyx][113.160.13.121][113.160.13.121][LaunchChoiceWithToken] - LaunchChoiceWithToken by: 0100113007_admin_demo 
2019-03-08 10:49:19,464 WARN EInvoice.Core.Launching.DsigGenerator  [0100113007_admin_demo]['abvfgh35oa5zkhdvy34zofyx][113.160.13.121][113.160.13.121][WrapCustomerPublishSign] - verify :1 
2019-03-08 10:49:19,514 INFO EInvoice.CAdmin.Controllers.EInvoiceController  [0100113007_admin_demo]['abvfgh35oa5zkhdvy34zofyx][113.160.13.121][113.160.13.121][LaunchChoiceWithToken] - Publish EInvoice by: 0100113007_admin_demo Info-- Pattern: 03XKNB0/001; Serial: PC/19E 
2019-03-08 10:49:19,529 DEBUG EInvoice.CAdmin.Controllers.EInvoiceController  [0100113007_admin_demo]['abvfgh35oa5zkhdvy34zofyx][113.160.13.121][113.160.13.121][Index] - EInvoiceController Index 
2019-03-08 10:49:19,530 INFO EInvoice.CAdmin.Controllers.EInvoiceController  [0100113007_admin_demo]['abvfgh35oa5zkhdvy34zofyx][113.160.13.121][113.160.13.121][Index] - Index1937 pattern: 03XKNB0/001 serial: PC/19E 
2019-03-08 10:49:19,577 DEBUG EInvoice.CAdmin.Controllers.CompanyController  [0100113007_admin_demo]['abvfgh35oa5zkhdvy34zofyx][113.160.13.121][113.160.13.121][MenuBycomp] - MenuBycomp 
2019-03-08 10:49:26,186 INFO EInvoice.CAdmin.Controllers.ShareController  [0100113007_admin_demo]['abvfgh35oa5zkhdvy34zofyx][113.160.13.121][113.160.13.121][ajxPreview] - call: Co2iOonL108VOxsjI8kp+A== pattern: 03XKNB0/001 company: 1937 
2019-03-08 10:49:26,528 DEBUG EInvoice.CAdmin.Controllers.EInvoiceController  [0100113007_admin_demo]['abvfgh35oa5zkhdvy34zofyx][113.160.13.121][113.160.13.121][Index] - EInvoiceController Index 
2019-03-08 10:49:26,529 INFO EInvoice.CAdmin.Controllers.EInvoiceController  [0100113007_admin_demo]['abvfgh35oa5zkhdvy34zofyx][113.160.13.121][113.160.13.121][Index] - Index1937 pattern: 03XKNB0/001 serial: PC/19E 
2019-03-08 10:49:26,572 DEBUG EInvoice.CAdmin.Controllers.CompanyController  [0100113007_admin_demo]['abvfgh35oa5zkhdvy34zofyx][113.160.13.121][113.160.13.121][MenuBycomp] - MenuBycomp 
2019-03-08 10:50:41,341 DEBUG EInvoice.CAdmin.Controllers.CompanyController  [0100113007_admin_demo]['abvfgh35oa5zkhdvy34zofyx][113.160.13.121][113.160.13.121][MenuBycomp] - MenuBycomp 
2019-03-08 10:52:03,371 DEBUG EInvoice.CAdmin.Controllers.CompanyController  [0100113007_admin_demo]['abvfgh35oa5zkhdvy34zofyx][113.160.13.121][113.160.13.121][MenuBycomp] - MenuBycomp 
2019-03-08 10:52:26,761 INFO EInvoice.CAdmin.Controllers.EInvoiceController  [0100113007_admin_demo]['abvfgh35oa5zkhdvy34zofyx][113.160.13.121][113.160.13.121][PaymentInvoice] - Change Payment Status EInvoice by: 0100113007_admin_demo Info-- ID: 5848339 
2019-03-08 10:52:26,828 DEBUG EInvoice.CAdmin.Controllers.CompanyController  [0100113007_admin_demo]['abvfgh35oa5zkhdvy34zofyx][113.160.13.121][113.160.13.121][MenuBycomp] - MenuBycomp 
2019-03-08 10:53:54,926 DEBUG EInvoice.CAdmin.Controllers.CompanyController  [0100113007_admin_demo]['abvfgh35oa5zkhdvy34zofyx][113.160.13.121][113.160.13.121][MenuBycomp] - MenuBycomp 
2019-03-08 10:54:14,738 DEBUG EInvoice.CAdmin.Controllers.CompanyController  [0100113007_admin_demo]['abvfgh35oa5zkhdvy34zofyx][113.160.13.121][113.160.13.121][MenuBycomp] - MenuBycomp 
2019-03-08 10:54:34,919 DEBUG EInvoice.CAdmin.Controllers.CompanyController  [0100113007_admin_demo]['abvfgh35oa5zkhdvy34zofyx][113.160.13.121][113.160.13.121][MenuBycomp] - MenuBycomp 
2019-03-08 10:54:45,501 ERROR NHibernate.Util.ADOExceptionReporter  [0100113007_admin_demo]['abvfgh35oa5zkhdvy34zofyx][113.160.13.121][113.160.13.121][LogExceptions] - ORA-24381: error(s) in array DML

ORA-12899: value too large for column "VNPT_INVOICE_ZONE2"."INVOICEVAT"."NOTE" (actual: 204, maximum: 200) 
2019-03-08 10:54:45,504 ERROR NHibernate.Event.Default.AbstractFlushingEventListener  [0100113007_admin_demo]['abvfgh35oa5zkhdvy34zofyx][113.160.13.121][113.160.13.121][PerformExecutions] - Could not synchronize database state with session 
NHibernate.Exceptions.GenericADOException: could not execute batch command.[SQL: SQL not available] ---> Oracle.DataAccess.Client.OracleException: ORA-24381: error(s) in array DML

ORA-12899: value too large for column "VNPT_INVOICE_ZONE2"."INVOICEVAT"."NOTE" (actual: 204, maximum: 200)
   at Oracle.DataAccess.Client.OracleException.HandleErrorHelper(Int32 errCode, OracleConnection conn, IntPtr opsErrCtx, OpoSqlValCtx* pOpoSqlValCtx, Object src, String procedure, Boolean bCheck)
   at Oracle.DataAccess.Client.OracleCommand.ExecuteNonQuery()
   at NHibernate.AdoNet.OracleDataClientBatchingBatcher.DoExecuteBatch(IDbCommand ps)
   --- End of inner exception stack trace ---
   at NHibernate.AdoNet.OracleDataClientBatchingBatcher.DoExecuteBatch(IDbCommand ps)
   at NHibernate.AdoNet.AbstractBatcher.ExecuteBatchWithTiming(IDbCommand ps)
   at NHibernate.AdoNet.AbstractBatcher.ExecuteBatch()
   at NHibernate.Engine.ActionQueue.ExecuteActions()
   at NHibernate.Event.Default.AbstractFlushingEventListener.PerformExecutions(IEventSource session)
2019-03-08 10:54:45,519 ERROR EInvoice.CAdmin.Controllers.AdJustController  [0100113007_admin_demo]['abvfgh35oa5zkhdvy34zofyx][113.160.13.121][113.160.13.121][CreateAdJustInvWithToken] - CreateAdJustInvWithToken  -: NHibernate.Exceptions.GenericADOException: could not execute batch command.[SQL: SQL not available] ---> Oracle.DataAccess.Client.OracleException: ORA-24381: error(s) in array DML

ORA-12899: value too large for column "VNPT_INVOICE_ZONE2"."INVOICEVAT"."NOTE" (actual: 204, maximum: 200)
   at Oracle.DataAccess.Client.OracleException.HandleErrorHelper(Int32 errCode, OracleConnection conn, IntPtr opsErrCtx, OpoSqlValCtx* pOpoSqlValCtx, Object src, String procedure, Boolean bCheck)
   at Oracle.DataAccess.Client.OracleCommand.ExecuteNonQuery()
   at NHibernate.AdoNet.OracleDataClientBatchingBatcher.DoExecuteBatch(IDbCommand ps)
   --- End of inner exception stack trace ---
   at NHibernate.AdoNet.OracleDataClientBatchingBatcher.DoExecuteBatch(IDbCommand ps)
   at NHibernate.AdoNet.AbstractBatcher.ExecuteBatchWithTiming(IDbCommand ps)
   at NHibernate.AdoNet.AbstractBatcher.ExecuteBatch()
   at NHibernate.Engine.ActionQueue.ExecuteActions()
   at NHibernate.Event.Default.AbstractFlushingEventListener.PerformExecutions(IEventSource session)
   at NHibernate.Event.Default.DefaultFlushEventListener.OnFlush(FlushEvent event)
   at NHibernate.Impl.SessionImpl.Flush()
   at FX.Data.BaseService`2.CommitChanges()
   at EInvoice.CAdmin.Controllers.AdJustController.CreateAdJustInvWithToken(String Pattern, String PubDatasource, String DicExsource, String NoInv, String SerialNo, HttpPostedFileBase FileUpload, String type, String serialCertSign, String signValue, String hashValue) 
2019-03-08 10:54:45,753 DEBUG EInvoice.CAdmin.Controllers.CompanyController  [0100113007_admin_demo]['abvfgh35oa5zkhdvy34zofyx][113.160.13.121][113.160.13.121][MenuBycomp] - MenuBycomp 
2019-03-08 10:54:56,428 DEBUG EInvoice.CAdmin.Controllers.CompanyController  [0100113007_admin_demo]['abvfgh35oa5zkhdvy34zofyx][113.160.13.121][113.160.13.121][MenuBycomp] - MenuBycomp 
2019-03-08 10:55:01,617 DEBUG EInvoice.CAdmin.Controllers.CompanyController  [0100113007_admin_demo]['abvfgh35oa5zkhdvy34zofyx][113.160.13.121][113.160.13.121][MenuBycomp] - MenuBycomp 
2019-03-08 10:55:13,325 DEBUG EInvoice.CAdmin.Controllers.CompanyController  [0100113007_admin_demo]['abvfgh35oa5zkhdvy34zofyx][113.160.13.121][113.160.13.121][MenuBycomp] - MenuBycomp 
2019-03-08 10:55:26,539 DEBUG EInvoice.CAdmin.Controllers.CompanyController  [0100113007_admin_demo]['abvfgh35oa5zkhdvy34zofyx][113.160.13.121][113.160.13.121][MenuBycomp] - MenuBycomp 
2019-03-08 10:55:35,299 ERROR NHibernate.Util.ADOExceptionReporter  [0100113007_admin_demo]['abvfgh35oa5zkhdvy34zofyx][113.160.13.121][113.160.13.121][LogExceptions] - ORA-24381: error(s) in array DML

ORA-12899: value too large for column "VNPT_INVOICE_ZONE2"."INVOICEVAT"."NOTE" (actual: 204, maximum: 200) 
2019-03-08 10:55:35,300 ERROR NHibernate.Event.Default.AbstractFlushingEventListener  [0100113007_admin_demo]['abvfgh35oa5zkhdvy34zofyx][113.160.13.121][113.160.13.121][PerformExecutions] - Could not synchronize database state with session 
NHibernate.Exceptions.GenericADOException: could not execute batch command.[SQL: SQL not available] ---> Oracle.DataAccess.Client.OracleException: ORA-24381: error(s) in array DML

ORA-12899: value too large for column "VNPT_INVOICE_ZONE2"."INVOICEVAT"."NOTE" (actual: 204, maximum: 200)
   at Oracle.DataAccess.Client.OracleException.HandleErrorHelper(Int32 errCode, OracleConnection conn, IntPtr opsErrCtx, OpoSqlValCtx* pOpoSqlValCtx, Object src, String procedure, Boolean bCheck)
   at Oracle.DataAccess.Client.OracleCommand.ExecuteNonQuery()
   at NHibernate.AdoNet.OracleDataClientBatchingBatcher.DoExecuteBatch(IDbCommand ps)
   --- End of inner exception stack trace ---
   at NHibernate.AdoNet.OracleDataClientBatchingBatcher.DoExecuteBatch(IDbCommand ps)
   at NHibernate.AdoNet.AbstractBatcher.ExecuteBatchWithTiming(IDbCommand ps)
   at NHibernate.AdoNet.AbstractBatcher.ExecuteBatch()
   at NHibernate.Engine.ActionQueue.ExecuteActions()
   at NHibernate.Event.Default.AbstractFlushingEventListener.PerformExecutions(IEventSource session)
2019-03-08 10:55:35,302 ERROR EInvoice.CAdmin.Controllers.AdJustController  [0100113007_admin_demo]['abvfgh35oa5zkhdvy34zofyx][113.160.13.121][113.160.13.121][CreateAdJustInvWithToken] - CreateAdJustInvWithToken  -: NHibernate.Exceptions.GenericADOException: could not execute batch command.[SQL: SQL not available] ---> Oracle.DataAccess.Client.OracleException: ORA-24381: error(s) in array DML

ORA-12899: value too large for column "VNPT_INVOICE_ZONE2"."INVOICEVAT"."NOTE" (actual: 204, maximum: 200)
   at Oracle.DataAccess.Client.OracleException.HandleErrorHelper(Int32 errCode, OracleConnection conn, IntPtr opsErrCtx, OpoSqlValCtx* pOpoSqlValCtx, Object src, String procedure, Boolean bCheck)
   at Oracle.DataAccess.Client.OracleCommand.ExecuteNonQuery()
   at NHibernate.AdoNet.OracleDataClientBatchingBatcher.DoExecuteBatch(IDbCommand ps)
   --- End of inner exception stack trace ---
   at NHibernate.AdoNet.OracleDataClientBatchingBatcher.DoExecuteBatch(IDbCommand ps)
   at NHibernate.AdoNet.AbstractBatcher.ExecuteBatchWithTiming(IDbCommand ps)
   at NHibernate.AdoNet.AbstractBatcher.ExecuteBatch()
   at NHibernate.Engine.ActionQueue.ExecuteActions()
   at NHibernate.Event.Default.AbstractFlushingEventListener.PerformExecutions(IEventSource session)
   at NHibernate.Event.Default.DefaultFlushEventListener.OnFlush(FlushEvent event)
   at NHibernate.Impl.SessionImpl.Flush()
   at FX.Data.BaseService`2.CommitChanges()
   at EInvoice.CAdmin.Controllers.AdJustController.CreateAdJustInvWithToken(String Pattern, String PubDatasource, String DicExsource, String NoInv, String SerialNo, HttpPostedFileBase FileUpload, String type, String serialCertSign, String signValue, String hashValue) 
2019-03-08 10:55:35,342 DEBUG EInvoice.CAdmin.Controllers.CompanyController  [0100113007_admin_demo]['abvfgh35oa5zkhdvy34zofyx][113.160.13.121][113.160.13.121][MenuBycomp] - MenuBycomp 
2019-03-08 10:55:45,801 DEBUG EInvoice.CAdmin.Controllers.CompanyController  [0100113007_admin_demo]['abvfgh35oa5zkhdvy34zofyx][113.160.13.121][113.160.13.121][MenuBycomp] - MenuBycomp 
2019-03-08 10:55:54,462 DEBUG EInvoice.CAdmin.Controllers.CompanyController  [0100113007_admin_demo]['abvfgh35oa5zkhdvy34zofyx][113.160.13.121][113.160.13.121][MenuBycomp] - MenuBycomp 
2019-03-08 10:56:07,858 DEBUG EInvoice.CAdmin.Controllers.CompanyController  [0100113007_admin_demo]['abvfgh35oa5zkhdvy34zofyx][113.160.13.121][113.160.13.121][MenuBycomp] - MenuBycomp 
2019-03-08 10:56:20,020 WARN EInvoice.Core.Launching.DsigGenerator  [0100113007_admin_demo]['abvfgh35oa5zkhdvy34zofyx][113.160.13.121][113.160.13.121][WrapCustomerPublishSign] - verify :1 
2019-03-08 10:56:20,072 INFO EInvoice.CAdmin.Controllers.AdJustController  [0100113007_admin_demo]['abvfgh35oa5zkhdvy34zofyx][113.160.13.121][113.160.13.121][CreateReplaceInvWithToken] - Publish EInvoice by: 0100113007_admin_demo Info-- Pattern: 03XKNB0/001; Serial: PC/19E 
2019-03-08 10:56:20,328 DEBUG EInvoice.CAdmin.Controllers.CompanyController  [0100113007_admin_demo]['abvfgh35oa5zkhdvy34zofyx][113.160.13.121][113.160.13.121][MenuBycomp] - MenuBycomp 
2019-03-08 10:56:31,551 INFO EInvoice.CAdmin.Controllers.ShareController  [0100113007_admin_demo]['abvfgh35oa5zkhdvy34zofyx][113.160.13.121][113.160.13.121][ajxPreview] - call: lE0tXaIf9+MEdpVyPlSWCQ== pattern: 03XKNB0/001 company: 1937 
2019-03-08 10:56:32,349 DEBUG EInvoice.CAdmin.Controllers.CompanyController  [0100113007_admin_demo]['abvfgh35oa5zkhdvy34zofyx][113.160.13.121][113.160.13.121][MenuBycomp] - MenuBycomp 
2019-03-08 10:56:59,118 INFO EInvoice.CAdmin.Controllers.ShareController  [0100113007_admin_demo]['abvfgh35oa5zkhdvy34zofyx][113.160.13.121][113.160.13.121][ajxPreview] - call: Co2iOonL108VOxsjI8kp+A== pattern: 03XKNB0/001 company: 1937 
2019-03-08 10:57:19,136 DEBUG EInvoice.CAdmin.Controllers.CompanyController  [0100113007_admin_demo]['abvfgh35oa5zkhdvy34zofyx][113.160.13.121][113.160.13.121][MenuBycomp] - MenuBycomp 
2019-03-08 10:57:28,618 INFO EInvoice.Core.Launching.Launcher  [0100113007_admin_demo]['abvfgh35oa5zkhdvy34zofyx][113.160.13.121][113.160.13.121][Cancel] - INVCANCEL_0100113007_admin_demo_03XKNB0/001_PC/19E_2_08/03/2019 10:57:28 SA 
2019-03-08 10:57:28,697 DEBUG EInvoice.CAdmin.Controllers.CompanyController  [0100113007_admin_demo]['abvfgh35oa5zkhdvy34zofyx][113.160.13.121][113.160.13.121][MenuBycomp] - MenuBycomp 
2019-03-08 10:57:37,436 INFO EInvoice.CAdmin.Controllers.ShareController  [0100113007_admin_demo]['abvfgh35oa5zkhdvy34zofyx][113.160.13.121][113.160.13.121][ajxPreview] - call: lE0tXaIf9+MEdpVyPlSWCQ== pattern: 03XKNB0/001 company: 1937 
2019-03-08 10:57:37,913 DEBUG EInvoice.CAdmin.Controllers.CompanyController  [0100113007_admin_demo]['abvfgh35oa5zkhdvy34zofyx][113.160.13.121][113.160.13.121][MenuBycomp] - MenuBycomp 
2019-03-08 10:58:10,015 DEBUG EInvoice.CAdmin.Controllers.CompanyController  [0100113007_admin_demo]['abvfgh35oa5zkhdvy34zofyx][113.160.13.121][113.160.13.121][MenuBycomp] - MenuBycomp 
2019-03-08 10:59:57,828 DEBUG EInvoice.CAdmin.Controllers.CompanyController  [0100113007_admin_demo]['abvfgh35oa5zkhdvy34zofyx][113.160.13.121][113.160.13.121][MenuBycomp] - MenuBycomp 
2019-03-08 11:00:26,940 DEBUG EInvoice.CAdmin.Controllers.CompanyController  [0100113007_admin_demo]['abvfgh35oa5zkhdvy34zofyx][113.160.13.121][113.160.13.121][MenuBycomp] - MenuBycomp 
2019-03-08 11:00:49,279 DEBUG EInvoice.CAdmin.Controllers.CompanyController  [0100113007_admin_demo]['abvfgh35oa5zkhdvy34zofyx][113.160.13.121][113.160.13.121][MenuBycomp] - MenuBycomp 
2019-03-08 11:01:05,108 DEBUG EInvoice.CAdmin.Controllers.EInvoiceController  [0100113007_admin_demo]['abvfgh35oa5zkhdvy34zofyx][113.160.13.121][113.160.13.121][Index] - EInvoiceController Index 
2019-03-08 11:01:05,109 INFO EInvoice.CAdmin.Controllers.EInvoiceController  [0100113007_admin_demo]['abvfgh35oa5zkhdvy34zofyx][113.160.13.121][113.160.13.121][Index] - Index1937 pattern:  serial:  
2019-03-08 11:01:05,170 DEBUG EInvoice.CAdmin.Controllers.CompanyController  [0100113007_admin_demo]['abvfgh35oa5zkhdvy34zofyx][113.160.13.121][113.160.13.121][MenuBycomp] - MenuBycomp 
2019-03-08 11:02:39,037 INFO EInvoice.CAdmin.Controllers.ShareController  [0100113007_admin_demo]['abvfgh35oa5zkhdvy34zofyx][113.160.13.121][113.160.13.121][ajxPreview] - call: lE0tXaIf9+MEdpVyPlSWCQ== pattern: 03XKNB0/001 company: 1937 
2019-03-08 11:02:39,558 DEBUG EInvoice.CAdmin.Controllers.EInvoiceController  [0100113007_admin_demo]['abvfgh35oa5zkhdvy34zofyx][113.160.13.121][113.160.13.121][Index] - EInvoiceController Index 
2019-03-08 11:02:39,559 INFO EInvoice.CAdmin.Controllers.EInvoiceController  [0100113007_admin_demo]['abvfgh35oa5zkhdvy34zofyx][113.160.13.121][113.160.13.121][Index] - Index1937 pattern:  serial:  
2019-03-08 11:02:39,617 DEBUG EInvoice.CAdmin.Controllers.CompanyController  [0100113007_admin_demo]['abvfgh35oa5zkhdvy34zofyx][113.160.13.121][113.160.13.121][MenuBycomp] - MenuBycomp 
2019-03-08 11:03:30,343 DEBUG EInvoice.CAdmin.Controllers.CompanyController  [0100113007_admin_demo]['abvfgh35oa5zkhdvy34zofyx][113.160.13.121][113.160.13.121][MenuBycomp] - MenuBycomp 
2019-03-08 11:03:55,819 DEBUG EInvoice.CAdmin.Controllers.CompanyController  [0100113007_admin_demo]['abvfgh35oa5zkhdvy34zofyx][113.160.13.121][113.160.13.121][MenuBycomp] - MenuBycomp 
2019-03-08 11:04:00,039 DEBUG EInvoice.CAdmin.Controllers.CompanyController  [0100113007_admin_demo]['abvfgh35oa5zkhdvy34zofyx][113.160.13.121][113.160.13.121][MenuBycomp] - MenuBycomp 
2019-03-08 11:07:53,513 INFO EInvoice.CAdmin.Controllers.CustomerController  [0100113007_admin_demo]['abvfgh35oa5zkhdvy34zofyx][113.160.13.121][113.160.13.121][Create] - Create Customer by: 0100113007_admin_demo Info-- TenKhachHang: CONG TY TNHH SON BA TaiKhoanKhachHang: 0011000534464 Email: hang.acc@hanoi-pressclub.com 
2019-03-08 11:07:53,514 INFO EInvoice.CAdmin.Controllers.CustomerController  [0100113007_admin_demo]['abvfgh35oa5zkhdvy34zofyx][113.160.13.121][113.160.13.121][Create] - create ok: 0011000534464 
2019-03-08 11:07:53,562 DEBUG EInvoice.CAdmin.Controllers.CompanyController  [0100113007_admin_demo]['abvfgh35oa5zkhdvy34zofyx][113.160.13.121][113.160.13.121][MenuBycomp] - MenuBycomp 
2019-03-08 11:08:13,224 DEBUG EInvoice.CAdmin.Controllers.EInvoiceController  [0100113007_admin_demo]['abvfgh35oa5zkhdvy34zofyx][113.160.13.121][113.160.13.121][Index] - EInvoiceController Index 
2019-03-08 11:08:13,224 INFO EInvoice.CAdmin.Controllers.EInvoiceController  [0100113007_admin_demo]['abvfgh35oa5zkhdvy34zofyx][113.160.13.121][113.160.13.121][Index] - Index1937 pattern:  serial:  
2019-03-08 11:08:13,277 DEBUG EInvoice.CAdmin.Controllers.CompanyController  [0100113007_admin_demo]['abvfgh35oa5zkhdvy34zofyx][113.160.13.121][113.160.13.121][MenuBycomp] - MenuBycomp 
2019-03-08 11:08:16,523 DEBUG EInvoice.CAdmin.Controllers.CompanyController  [0100113007_admin_demo]['abvfgh35oa5zkhdvy34zofyx][113.160.13.121][113.160.13.121][MenuBycomp] - MenuBycomp 
2019-03-08 11:12:31,313 DEBUG EInvoice.CAdmin.Controllers.EInvoiceController  [0100113007_admin_demo]['abvfgh35oa5zkhdvy34zofyx][113.160.13.121][113.160.13.121][Index] - EInvoiceController Index 
2019-03-08 11:12:31,314 INFO EInvoice.CAdmin.Controllers.EInvoiceController  [0100113007_admin_demo]['abvfgh35oa5zkhdvy34zofyx][113.160.13.121][113.160.13.121][Index] - Index1937 pattern:  serial:  
2019-03-08 11:12:31,370 DEBUG EInvoice.CAdmin.Controllers.CompanyController  [0100113007_admin_demo]['abvfgh35oa5zkhdvy34zofyx][113.160.13.121][113.160.13.121][MenuBycomp] - MenuBycomp 
2019-03-08 11:13:19,834 DEBUG EInvoice.CAdmin.Controllers.EInvoiceController  [0100113007_admin_demo]['abvfgh35oa5zkhdvy34zofyx][113.160.13.121][113.160.13.121][Index] - EInvoiceController Index 
2019-03-08 11:13:19,835 INFO EInvoice.CAdmin.Controllers.EInvoiceController  [0100113007_admin_demo]['abvfgh35oa5zkhdvy34zofyx][113.160.13.121][113.160.13.121][Index] - Index1937 pattern:  serial:  
2019-03-08 11:13:19,887 DEBUG EInvoice.CAdmin.Controllers.CompanyController  [0100113007_admin_demo]['abvfgh35oa5zkhdvy34zofyx][113.160.13.121][113.160.13.121][MenuBycomp] - MenuBycomp 
2019-03-08 11:13:34,447 DEBUG EInvoice.CAdmin.Controllers.CompanyController  [0100113007_admin_demo]['abvfgh35oa5zkhdvy34zofyx][113.160.13.121][113.160.13.121][MenuBycomp] - MenuBycomp 
2019-03-08 11:16:16,442 DEBUG EInvoice.CAdmin.Controllers.EInvoiceController  [0100113007_admin_demo]['abvfgh35oa5zkhdvy34zofyx][113.160.13.121][113.160.13.121][Index] - EInvoiceController Index 
2019-03-08 11:16:16,443 INFO EInvoice.CAdmin.Controllers.EInvoiceController  [0100113007_admin_demo]['abvfgh35oa5zkhdvy34zofyx][113.160.13.121][113.160.13.121][Index] - Index1937 pattern:  serial:  
2019-03-08 11:16:16,498 DEBUG EInvoice.CAdmin.Controllers.CompanyController  [0100113007_admin_demo]['abvfgh35oa5zkhdvy34zofyx][113.160.13.121][113.160.13.121][MenuBycomp] - MenuBycomp 
2019-03-08 11:16:42,527 DEBUG EInvoice.CAdmin.Controllers.EInvoiceController  [0100113007_admin_demo]['abvfgh35oa5zkhdvy34zofyx][113.160.13.121][113.160.13.121][Index] - EInvoiceController Index 
2019-03-08 11:16:42,527 INFO EInvoice.CAdmin.Controllers.EInvoiceController  [0100113007_admin_demo]['abvfgh35oa5zkhdvy34zofyx][113.160.13.121][113.160.13.121][Index] - Index1937 pattern:  serial:  
2019-03-08 11:16:42,567 DEBUG EInvoice.CAdmin.Controllers.CompanyController  [0100113007_admin_demo]['abvfgh35oa5zkhdvy34zofyx][113.160.13.121][113.160.13.121][MenuBycomp] - MenuBycomp 
2019-03-08 11:16:48,445 DEBUG EInvoice.CAdmin.Controllers.CompanyController  [0100113007_admin_demo]['abvfgh35oa5zkhdvy34zofyx][113.160.13.121][113.160.13.121][MenuBycomp] - MenuBycomp 
2019-03-08 11:26:45,364 INFO EInvoice.CAdmin.Controllers.EInvoiceController  [0100113007_admin_demo]['abvfgh35oa5zkhdvy34zofyx][113.160.13.121][113.160.13.121][Create] - Create EInvoice by: 0100113007_admin_demo Info-- TenKhachHang: CONG TY TNHH SON BA MaKhachHang: SONBA SoTien: 503096000 
2019-03-08 11:26:45,379 DEBUG EInvoice.CAdmin.Controllers.EInvoiceController  [0100113007_admin_demo]['abvfgh35oa5zkhdvy34zofyx][113.160.13.121][113.160.13.121][Index] - EInvoiceController Index 
2019-03-08 11:26:45,379 INFO EInvoice.CAdmin.Controllers.EInvoiceController  [0100113007_admin_demo]['abvfgh35oa5zkhdvy34zofyx][113.160.13.121][113.160.13.121][Index] - Index1937 pattern: 03XKNB0/001 serial: PC/19E 
2019-03-08 11:26:45,428 DEBUG EInvoice.CAdmin.Controllers.CompanyController  [0100113007_admin_demo]['abvfgh35oa5zkhdvy34zofyx][113.160.13.121][113.160.13.121][MenuBycomp] - MenuBycomp 
2019-03-08 11:26:50,569 INFO EInvoice.CAdmin.Controllers.ShareController  [0100113007_admin_demo]['abvfgh35oa5zkhdvy34zofyx][113.160.13.121][113.160.13.121][ajxPreview] - call: 8hhpvxQUT4vE0EX0kQPaBw== pattern: 03XKNB0/001 company: 1937 
2019-03-08 11:26:50,986 DEBUG EInvoice.CAdmin.Controllers.EInvoiceController  [0100113007_admin_demo]['abvfgh35oa5zkhdvy34zofyx][113.160.13.121][113.160.13.121][Index] - EInvoiceController Index 
2019-03-08 11:26:50,986 INFO EInvoice.CAdmin.Controllers.EInvoiceController  [0100113007_admin_demo]['abvfgh35oa5zkhdvy34zofyx][113.160.13.121][113.160.13.121][Index] - Index1937 pattern: 03XKNB0/001 serial: PC/19E 
2019-03-08 11:26:51,045 DEBUG EInvoice.CAdmin.Controllers.CompanyController  [0100113007_admin_demo]['abvfgh35oa5zkhdvy34zofyx][113.160.13.121][113.160.13.121][MenuBycomp] - MenuBycomp 
2019-03-08 11:27:37,963 DEBUG EInvoice.CAdmin.Controllers.EInvoiceController  [0100113007_admin_demo]['abvfgh35oa5zkhdvy34zofyx][113.160.13.121][113.160.13.121][Index] - EInvoiceController Index 
2019-03-08 11:27:37,964 INFO EInvoice.CAdmin.Controllers.EInvoiceController  [0100113007_admin_demo]['abvfgh35oa5zkhdvy34zofyx][113.160.13.121][113.160.13.121][Index] - Index1937 pattern: 03XKNB0/001 serial: PC/19E 
2019-03-08 11:27:38,023 DEBUG EInvoice.CAdmin.Controllers.CompanyController  [0100113007_admin_demo]['abvfgh35oa5zkhdvy34zofyx][113.160.13.121][113.160.13.121][MenuBycomp] - MenuBycomp 
2019-03-08 11:27:38,063 DEBUG EInvoice.CAdmin.Controllers.EInvoiceController  [0100113007_admin_demo]['abvfgh35oa5zkhdvy34zofyx][113.160.13.121][113.160.13.121][Index] - EInvoiceController Index 
2019-03-08 11:27:38,063 INFO EInvoice.CAdmin.Controllers.EInvoiceController  [0100113007_admin_demo]['abvfgh35oa5zkhdvy34zofyx][113.160.13.121][113.160.13.121][Index] - Index1937 pattern: 03XKNB0/001 serial: PC/19E 
2019-03-08 11:27:38,108 DEBUG EInvoice.CAdmin.Controllers.CompanyController  [0100113007_admin_demo]['abvfgh35oa5zkhdvy34zofyx][113.160.13.121][113.160.13.121][MenuBycomp] - MenuBycomp 
2019-03-08 11:27:54,176 INFO EInvoice.CAdmin.Controllers.ShareController  [0100113007_admin_demo]['abvfgh35oa5zkhdvy34zofyx][113.160.13.121][113.160.13.121][ajxPreview] - call: 8hhpvxQUT4vE0EX0kQPaBw== pattern: 03XKNB0/001 company: 1937 
2019-03-08 11:28:10,676 ERROR EInvoice.CAdmin.Controllers.EInvoiceController  [0100113007_admin_demo]['abvfgh35oa5zkhdvy34zofyx][113.160.13.121][113.160.13.121][Create] -  Create - System.FormatException: Input string was not in a correct format.
   at System.Number.ParseSingle(String value, NumberStyles options, NumberFormatInfo numfmt)
   at System.String.System.IConvertible.ToSingle(IFormatProvider provider)
   at System.Convert.ChangeType(Object value, Type conversionType, IFormatProvider provider)
   at FX.Utils.ExtendedJavaScriptConverter`1.Deserialize(IDictionary`2 dictionary, Type type, JavaScriptSerializer serializer)
   at System.Web.Script.Serialization.ObjectConverter.ConvertDictionaryToObject(IDictionary`2 dictionary, Type type, JavaScriptSerializer serializer, Boolean throwOnError, Object& convertedObject)
   at System.Web.Script.Serialization.ObjectConverter.ConvertObjectToTypeInternal(Object o, Type type, JavaScriptSerializer serializer, Boolean throwOnError, Object& convertedObject)
   at System.Web.Script.Serialization.ObjectConverter.AddItemToList(IList oldList, IList newList, Type elementType, JavaScriptSerializer serializer, Boolean throwOnError)
   at System.Web.Script.Serialization.ObjectConverter.ConvertListToObject(IList list, Type type, JavaScriptSerializer serializer, Boolean throwOnError, IList& convertedList)
   at System.Web.Script.Serialization.ObjectConverter.ConvertObjectToTypeInternal(Object o, Type type, JavaScriptSerializer serializer, Boolean throwOnError, Object& convertedObject)
   at System.Web.Script.Serialization.JavaScriptSerializer.Deserialize(JavaScriptSerializer serializer, String input, Type type, Int32 depthLimit)
   at FX.Utils.JSONExtension.DeserializeJSON[T](String JsonString, Type targetType)
   at EInvoice.CAdmin.Controllers.EInvoiceController.Create(String Pattern, String PubDatasource, String DicExsource) 
2019-03-08 11:28:39,629 ERROR EInvoice.CAdmin.Controllers.EInvoiceController  [0100113007_admin_demo]['abvfgh35oa5zkhdvy34zofyx][113.160.13.121][113.160.13.121][Create] -  Create - System.FormatException: Input string was not in a correct format.
   at System.Number.ParseSingle(String value, NumberStyles options, NumberFormatInfo numfmt)
   at System.String.System.IConvertible.ToSingle(IFormatProvider provider)
   at System.Convert.ChangeType(Object value, Type conversionType, IFormatProvider provider)
   at FX.Utils.ExtendedJavaScriptConverter`1.Deserialize(IDictionary`2 dictionary, Type type, JavaScriptSerializer serializer)
   at System.Web.Script.Serialization.ObjectConverter.ConvertDictionaryToObject(IDictionary`2 dictionary, Type type, JavaScriptSerializer serializer, Boolean throwOnError, Object& convertedObject)
   at System.Web.Script.Serialization.ObjectConverter.ConvertObjectToTypeInternal(Object o, Type type, JavaScriptSerializer serializer, Boolean throwOnError, Object& convertedObject)
   at System.Web.Script.Serialization.ObjectConverter.AddItemToList(IList oldList, IList newList, Type elementType, JavaScriptSerializer serializer, Boolean throwOnError)
   at System.Web.Script.Serialization.ObjectConverter.ConvertListToObject(IList list, Type type, JavaScriptSerializer serializer, Boolean throwOnError, IList& convertedList)
   at System.Web.Script.Serialization.ObjectConverter.ConvertObjectToTypeInternal(Object o, Type type, JavaScriptSerializer serializer, Boolean throwOnError, Object& convertedObject)
   at System.Web.Script.Serialization.JavaScriptSerializer.Deserialize(JavaScriptSerializer serializer, String input, Type type, Int32 depthLimit)
   at FX.Utils.JSONExtension.DeserializeJSON[T](String JsonString, Type targetType)
   at EInvoice.CAdmin.Controllers.EInvoiceController.Create(String Pattern, String PubDatasource, String DicExsource) 
2019-03-08 11:29:04,786 DEBUG EInvoice.CAdmin.Controllers.CompanyController  [0100113007_admin_demo]['abvfgh35oa5zkhdvy34zofyx][113.160.13.121][113.160.13.121][MenuBycomp] - MenuBycomp 
2019-03-08 11:29:49,421 INFO EInvoice.CAdmin.Controllers.EInvoiceController  [0100113007_admin_demo]['abvfgh35oa5zkhdvy34zofyx][113.160.13.121][113.160.13.121][Create] - Create EInvoice by: 0100113007_admin_demo Info-- TenKhachHang: CONG TY TNHH SON BA MaKhachHang: SONBA SoTien: 503096000 
2019-03-08 11:29:49,448 DEBUG EInvoice.CAdmin.Controllers.EInvoiceController  [0100113007_admin_demo]['abvfgh35oa5zkhdvy34zofyx][113.160.13.121][113.160.13.121][Index] - EInvoiceController Index 
2019-03-08 11:29:49,449 INFO EInvoice.CAdmin.Controllers.EInvoiceController  [0100113007_admin_demo]['abvfgh35oa5zkhdvy34zofyx][113.160.13.121][113.160.13.121][Index] - Index1937 pattern: 03XKNB0/001 serial: PC/19E 
2019-03-08 11:29:49,499 DEBUG EInvoice.CAdmin.Controllers.CompanyController  [0100113007_admin_demo]['abvfgh35oa5zkhdvy34zofyx][113.160.13.121][113.160.13.121][MenuBycomp] - MenuBycomp 
2019-03-08 11:29:58,848 INFO EInvoice.CAdmin.Controllers.ShareController  [0100113007_admin_demo]['abvfgh35oa5zkhdvy34zofyx][113.160.13.121][113.160.13.121][ajxPreview] - call: W24qZFuOfEGVO8XYH9ASFg== pattern: 03XKNB0/001 company: 1937 
2019-03-08 11:29:59,246 DEBUG EInvoice.CAdmin.Controllers.EInvoiceController  [0100113007_admin_demo]['abvfgh35oa5zkhdvy34zofyx][113.160.13.121][113.160.13.121][Index] - EInvoiceController Index 
2019-03-08 11:29:59,246 INFO EInvoice.CAdmin.Controllers.EInvoiceController  [0100113007_admin_demo]['abvfgh35oa5zkhdvy34zofyx][113.160.13.121][113.160.13.121][Index] - Index1937 pattern: 03XKNB0/001 serial: PC/19E 
2019-03-08 11:29:59,323 DEBUG EInvoice.CAdmin.Controllers.CompanyController  [0100113007_admin_demo]['abvfgh35oa5zkhdvy34zofyx][113.160.13.121][113.160.13.121][MenuBycomp] - MenuBycomp 
2019-03-08 11:30:17,967 ERROR EInvoice.CAdmin.Controllers.EInvoiceController  [0100113007_admin_demo]['abvfgh35oa5zkhdvy34zofyx][113.160.13.121][113.160.13.121][Create] -  Create - System.FormatException: Input string was not in a correct format.
   at System.Number.ParseSingle(String value, NumberStyles options, NumberFormatInfo numfmt)
   at System.String.System.IConvertible.ToSingle(IFormatProvider provider)
   at System.Convert.ChangeType(Object value, Type conversionType, IFormatProvider provider)
   at FX.Utils.ExtendedJavaScriptConverter`1.Deserialize(IDictionary`2 dictionary, Type type, JavaScriptSerializer serializer)
   at System.Web.Script.Serialization.ObjectConverter.ConvertDictionaryToObject(IDictionary`2 dictionary, Type type, JavaScriptSerializer serializer, Boolean throwOnError, Object& convertedObject)
   at System.Web.Script.Serialization.ObjectConverter.ConvertObjectToTypeInternal(Object o, Type type, JavaScriptSerializer serializer, Boolean throwOnError, Object& convertedObject)
   at System.Web.Script.Serialization.ObjectConverter.AddItemToList(IList oldList, IList newList, Type elementType, JavaScriptSerializer serializer, Boolean throwOnError)
   at System.Web.Script.Serialization.ObjectConverter.ConvertListToObject(IList list, Type type, JavaScriptSerializer serializer, Boolean throwOnError, IList& convertedList)
   at System.Web.Script.Serialization.ObjectConverter.ConvertObjectToTypeInternal(Object o, Type type, JavaScriptSerializer serializer, Boolean throwOnError, Object& convertedObject)
   at System.Web.Script.Serialization.JavaScriptSerializer.Deserialize(JavaScriptSerializer serializer, String input, Type type, Int32 depthLimit)
   at FX.Utils.JSONExtension.DeserializeJSON[T](String JsonString, Type targetType)
   at EInvoice.CAdmin.Controllers.EInvoiceController.Create(String Pattern, String PubDatasource, String DicExsource) 
2019-03-08 11:30:43,846 DEBUG EInvoice.CAdmin.Controllers.EInvoiceController  [0100113007_admin_demo]['abvfgh35oa5zkhdvy34zofyx][113.160.13.121][113.160.13.121][Index] - EInvoiceController Index 
2019-03-08 11:30:43,847 INFO EInvoice.CAdmin.Controllers.EInvoiceController  [0100113007_admin_demo]['abvfgh35oa5zkhdvy34zofyx][113.160.13.121][113.160.13.121][Index] - Index1937 pattern:  serial:  
2019-03-08 11:30:43,906 DEBUG EInvoice.CAdmin.Controllers.CompanyController  [0100113007_admin_demo]['abvfgh35oa5zkhdvy34zofyx][113.160.13.121][113.160.13.121][MenuBycomp] - MenuBycomp 
2019-03-08 11:31:01,556 INFO EInvoice.CAdmin.Controllers.EInvoiceController  [0100113007_admin_demo]['abvfgh35oa5zkhdvy34zofyx][113.160.13.121][113.160.13.121][LaunchChoiceWithToken] - LaunchChoiceWithToken by: 0100113007_admin_demo 
2019-03-08 11:31:01,609 WARN EInvoice.Core.Launching.DsigGenerator  [0100113007_admin_demo]['abvfgh35oa5zkhdvy34zofyx][113.160.13.121][113.160.13.121][WrapCustomerPublishSign] - verify :1 
2019-03-08 11:31:01,652 INFO EInvoice.CAdmin.Controllers.EInvoiceController  [0100113007_admin_demo]['abvfgh35oa5zkhdvy34zofyx][113.160.13.121][113.160.13.121][LaunchChoiceWithToken] - Publish EInvoice by: 0100113007_admin_demo Info-- Pattern: 03XKNB0/001; Serial:  
2019-03-08 11:31:01,703 DEBUG EInvoice.CAdmin.Controllers.EInvoiceController  [0100113007_admin_demo]['abvfgh35oa5zkhdvy34zofyx][113.160.13.121][113.160.13.121][Index] - EInvoiceController Index 
2019-03-08 11:31:01,704 INFO EInvoice.CAdmin.Controllers.EInvoiceController  [0100113007_admin_demo]['abvfgh35oa5zkhdvy34zofyx][113.160.13.121][113.160.13.121][Index] - Index1937 pattern: 03XKNB0/001 serial:  
2019-03-08 11:31:01,782 DEBUG EInvoice.CAdmin.Controllers.CompanyController  [0100113007_admin_demo]['abvfgh35oa5zkhdvy34zofyx][113.160.13.121][113.160.13.121][MenuBycomp] - MenuBycomp 
2019-03-08 11:31:55,990 DEBUG EInvoice.CAdmin.Controllers.EInvoiceController  [0100113007_admin_demo]['abvfgh35oa5zkhdvy34zofyx][113.160.13.121][113.160.13.121][Index] - EInvoiceController Index 
2019-03-08 11:31:55,991 INFO EInvoice.CAdmin.Controllers.EInvoiceController  [0100113007_admin_demo]['abvfgh35oa5zkhdvy34zofyx][113.160.13.121][113.160.13.121][Index] - Index1937 pattern: 03XKNB0/001 serial: PC/19E 
2019-03-08 11:31:56,055 DEBUG EInvoice.CAdmin.Controllers.CompanyController  [0100113007_admin_demo]['abvfgh35oa5zkhdvy34zofyx][113.160.13.121][113.160.13.121][MenuBycomp] - MenuBycomp 
2019-03-08 11:32:13,466 INFO EInvoice.CAdmin.Controllers.AccountController  []['lyvet0a2cjnvwtf5fpdofhv4][203.162.100.29][203.162.100.29][LogOn] - Login: 0100113007_admin_demo 
2019-03-08 11:32:13,507 INFO EInvoice.CAdmin.Controllers.AccountController  []['lyvet0a2cjnvwtf5fpdofhv4][203.162.100.29][203.162.100.29][LogOn] - LogOn:, Date:08/03/2019 11:32:13 SA 
2019-03-08 11:32:13,574 DEBUG EInvoice.CAdmin.Controllers.CompanyController  [0100113007_admin_demo]['lyvet0a2cjnvwtf5fpdofhv4][203.162.100.29][203.162.100.29][MenuBycomp] - MenuBycomp 
2019-03-08 11:32:17,650 DEBUG EInvoice.CAdmin.Controllers.EInvoiceController  [0100113007_admin_demo]['lyvet0a2cjnvwtf5fpdofhv4][203.162.100.29][203.162.100.29][Index] - EInvoiceController Index 
2019-03-08 11:32:17,651 INFO EInvoice.CAdmin.Controllers.EInvoiceController  [0100113007_admin_demo]['lyvet0a2cjnvwtf5fpdofhv4][203.162.100.29][203.162.100.29][Index] - Index1937 pattern:  serial:  
2019-03-08 11:32:17,716 DEBUG EInvoice.CAdmin.Controllers.CompanyController  [0100113007_admin_demo]['lyvet0a2cjnvwtf5fpdofhv4][203.162.100.29][203.162.100.29][MenuBycomp] - MenuBycomp 
2019-03-08 11:32:22,690 INFO EInvoice.CAdmin.Controllers.ShareController  [0100113007_admin_demo]['lyvet0a2cjnvwtf5fpdofhv4][203.162.100.29][203.162.100.29][ajxPreview] - call: W24qZFuOfEGVO8XYH9ASFg== pattern: 03XKNB0/001 company: 1937 
2019-03-08 11:32:22,993 DEBUG EInvoice.CAdmin.Controllers.EInvoiceController  [0100113007_admin_demo]['lyvet0a2cjnvwtf5fpdofhv4][203.162.100.29][203.162.100.29][Index] - EInvoiceController Index 
2019-03-08 11:32:22,993 INFO EInvoice.CAdmin.Controllers.EInvoiceController  [0100113007_admin_demo]['lyvet0a2cjnvwtf5fpdofhv4][203.162.100.29][203.162.100.29][Index] - Index1937 pattern:  serial:  
2019-03-08 11:32:23,042 DEBUG EInvoice.CAdmin.Controllers.CompanyController  [0100113007_admin_demo]['lyvet0a2cjnvwtf5fpdofhv4][203.162.100.29][203.162.100.29][MenuBycomp] - MenuBycomp 
2019-03-08 11:32:47,597 DEBUG EInvoice.CAdmin.Controllers.CompanyController  [0100113007_admin_demo]['lyvet0a2cjnvwtf5fpdofhv4][203.162.100.29][203.162.100.29][MenuBycomp] - MenuBycomp 
2019-03-08 11:33:26,242 DEBUG EInvoice.CAdmin.Controllers.CompanyController  [0100113007_admin_demo]['lyvet0a2cjnvwtf5fpdofhv4][203.162.100.29][203.162.100.29][MenuBycomp] - MenuBycomp 
2019-03-08 16:35:23,607 INFO EInvoice.CAdmin.Controllers.AccountController  []['can2evoxycyu5r0o5ifgwesw][203.162.100.29][203.162.100.29][LogOn] - Login: 0100113007_admin_demo 
2019-03-08 16:35:24,363 INFO EInvoice.CAdmin.Controllers.AccountController  []['can2evoxycyu5r0o5ifgwesw][203.162.100.29][203.162.100.29][LogOn] - LogOn:, Date:08/03/2019 4:35:24 CH 
2019-03-08 16:35:26,291 DEBUG EInvoice.CAdmin.Controllers.CompanyController  [0100113007_admin_demo]['can2evoxycyu5r0o5ifgwesw][203.162.100.29][203.162.100.29][MenuBycomp] - MenuBycomp 
2019-03-08 16:35:31,874 DEBUG EInvoice.CAdmin.Controllers.CompanyController  [0100113007_admin_demo]['can2evoxycyu5r0o5ifgwesw][203.162.100.29][203.162.100.29][MenuBycomp] - MenuBycomp 
