2019-03-28 09:00:02,113 INFO EInvoice.CAdmin.Controllers.AccountController  []['4g5l4pd25tagb3opiiwojc2q][113.160.13.121][113.160.13.121][LogOn] - Login: 0100113007_admin_demo 
2019-03-28 09:00:03,892 INFO EInvoice.CAdmin.Controllers.AccountController  []['4g5l4pd25tagb3opiiwojc2q][113.160.13.121][113.160.13.121][LogOn] - LogOn:, Date:28/03/2019 9:00:03 SA 
2019-03-28 09:00:03,954 DEBUG EInvoice.CAdmin.Controllers.EInvoiceController  [0100113007_admin_demo]['4g5l4pd25tagb3opiiwojc2q][113.160.13.121][113.160.13.121][Index] - EInvoiceController Index 
2019-03-28 09:00:03,954 INFO EInvoice.CAdmin.Controllers.EInvoiceController  [0100113007_admin_demo]['4g5l4pd25tagb3opiiwojc2q][113.160.13.121][113.160.13.121][Index] - Index1937 pattern:  serial:  
2019-03-28 09:00:06,294 DEBUG EInvoice.CAdmin.Controllers.CompanyController  [0100113007_admin_demo]['4g5l4pd25tagb3opiiwojc2q][113.160.13.121][113.160.13.121][MenuBycomp] - MenuBycomp 
2019-03-28 09:00:11,193 DEBUG EInvoice.CAdmin.Controllers.CompanyController  [0100113007_admin_demo]['4g5l4pd25tagb3opiiwojc2q][113.160.13.121][113.160.13.121][MenuBycomp] - MenuBycomp 
2019-03-28 12:05:58,507 INFO EInvoice.CAdmin.Controllers.AccountController  []['j5ykn4fdkniey4cflrvzeoeo][113.160.13.121][113.160.13.121][LogOn] - Login: 0100113007_admin_demo 
2019-03-28 12:06:14,357 INFO EInvoice.CAdmin.Controllers.AccountController  []['j5ykn4fdkniey4cflrvzeoeo][113.160.13.121][113.160.13.121][LogOn] - Login: 0100113007_admin_demo 
2019-03-28 12:06:30,534 INFO EInvoice.CAdmin.Controllers.AccountController  []['j5ykn4fdkniey4cflrvzeoeo][113.160.13.121][113.160.13.121][LogOn] - Login: 0100113007_admin_demo 
2019-03-28 12:26:15,107 INFO EInvoice.CAdmin.Controllers.AccountController  []['fnknplpu3pxw2ib0ea12ctir][113.160.13.121][113.160.13.121][LogOn] - Login: 0100113007_admin_demo 
2019-03-28 12:26:49,942 INFO EInvoice.CAdmin.Controllers.AccountController  []['fnknplpu3pxw2ib0ea12ctir][113.160.13.121][113.160.13.121][LogOn] - Login: 0100113007_admin_demo 
2019-03-28 12:26:50,020 INFO EInvoice.CAdmin.Controllers.AccountController  []['fnknplpu3pxw2ib0ea12ctir][113.160.13.121][113.160.13.121][LogOn] - LogOn:, Date:28/03/2019 12:26:50 CH 
2019-03-28 12:26:50,066 DEBUG EInvoice.CAdmin.Controllers.EInvoiceController  [0100113007_admin_demo]['fnknplpu3pxw2ib0ea12ctir][113.160.13.121][113.160.13.121][Index] - EInvoiceController Index 
2019-03-28 12:26:50,066 INFO EInvoice.CAdmin.Controllers.EInvoiceController  [0100113007_admin_demo]['fnknplpu3pxw2ib0ea12ctir][113.160.13.121][113.160.13.121][Index] - Index1937 pattern:  serial:  
2019-03-28 12:26:52,313 DEBUG EInvoice.CAdmin.Controllers.CompanyController  [0100113007_admin_demo]['fnknplpu3pxw2ib0ea12ctir][113.160.13.121][113.160.13.121][MenuBycomp] - MenuBycomp 
2019-03-28 12:26:55,792 DEBUG EInvoice.CAdmin.Controllers.CompanyController  [0100113007_admin_demo]['fnknplpu3pxw2ib0ea12ctir][113.160.13.121][113.160.13.121][MenuBycomp] - MenuBycomp 
2019-03-28 14:28:33,059 INFO EInvoice.CAdmin.Controllers.AccountController  []['lbjq2yapd0hsnwuvunmdmvwe][203.162.100.29][203.162.100.29][LogOn] - Login: 0100113007_admin_demo 
2019-03-28 14:28:46,615 INFO EInvoice.CAdmin.Controllers.AccountController  []['lbjq2yapd0hsnwuvunmdmvwe][203.162.100.29][203.162.100.29][LogOn] - Login: 0100113007_admin_demo 
2019-03-28 14:28:46,678 INFO EInvoice.CAdmin.Controllers.AccountController  []['lbjq2yapd0hsnwuvunmdmvwe][203.162.100.29][203.162.100.29][LogOn] - LogOn:, Date:28/03/2019 2:28:46 CH 
2019-03-28 14:28:48,347 DEBUG EInvoice.CAdmin.Controllers.CompanyController  [0100113007_admin_demo]['lbjq2yapd0hsnwuvunmdmvwe][203.162.100.29][203.162.100.29][MenuBycomp] - MenuBycomp 
2019-03-28 14:28:50,588 DEBUG EInvoice.CAdmin.Controllers.EInvoiceController  [0100113007_admin_demo]['lbjq2yapd0hsnwuvunmdmvwe][203.162.100.29][203.162.100.29][Index] - EInvoiceController Index 
2019-03-28 14:28:50,603 INFO EInvoice.CAdmin.Controllers.EInvoiceController  [0100113007_admin_demo]['lbjq2yapd0hsnwuvunmdmvwe][203.162.100.29][203.162.100.29][Index] - Index1937 pattern:  serial:  
2019-03-28 14:28:50,962 DEBUG EInvoice.CAdmin.Controllers.CompanyController  [0100113007_admin_demo]['lbjq2yapd0hsnwuvunmdmvwe][203.162.100.29][203.162.100.29][MenuBycomp] - MenuBycomp 
2019-03-28 14:28:58,606 INFO EInvoice.CAdmin.Controllers.ShareController  [0100113007_admin_demo]['lbjq2yapd0hsnwuvunmdmvwe][203.162.100.29][203.162.100.29][ajxPreview] - call: wXp8uusRsyQO4gL1eqCWrw== pattern: 01GTKT0/001 company: 1937 
2019-03-28 14:28:59,137 DEBUG EInvoice.CAdmin.Controllers.EInvoiceController  [0100113007_admin_demo]['lbjq2yapd0hsnwuvunmdmvwe][203.162.100.29][203.162.100.29][Index] - EInvoiceController Index 
2019-03-28 14:28:59,137 INFO EInvoice.CAdmin.Controllers.EInvoiceController  [0100113007_admin_demo]['lbjq2yapd0hsnwuvunmdmvwe][203.162.100.29][203.162.100.29][Index] - Index1937 pattern:  serial:  
2019-03-28 14:28:59,168 DEBUG EInvoice.CAdmin.Controllers.CompanyController  [0100113007_admin_demo]['lbjq2yapd0hsnwuvunmdmvwe][203.162.100.29][203.162.100.29][MenuBycomp] - MenuBycomp 
2019-03-28 14:30:56,722 INFO EInvoice.CAdmin.Controllers.AccountController  []['40oblrlmppuv0kszzzk1trsl][113.160.13.121][113.160.13.121][LogOn] - Login: 0100113007_admin_demo 
2019-03-28 14:30:56,769 INFO EInvoice.CAdmin.Controllers.AccountController  []['40oblrlmppuv0kszzzk1trsl][113.160.13.121][113.160.13.121][LogOn] - LogOn:, Date:28/03/2019 2:30:56 CH 
2019-03-28 14:30:56,769 DEBUG EInvoice.CAdmin.Controllers.EInvoiceController  [0100113007_admin_demo]['40oblrlmppuv0kszzzk1trsl][113.160.13.121][113.160.13.121][Index] - EInvoiceController Index 
2019-03-28 14:30:56,769 INFO EInvoice.CAdmin.Controllers.EInvoiceController  [0100113007_admin_demo]['40oblrlmppuv0kszzzk1trsl][113.160.13.121][113.160.13.121][Index] - Index1937 pattern:  serial:  
2019-03-28 14:30:56,815 DEBUG EInvoice.CAdmin.Controllers.CompanyController  [0100113007_admin_demo]['40oblrlmppuv0kszzzk1trsl][113.160.13.121][113.160.13.121][MenuBycomp] - MenuBycomp 
2019-03-28 14:31:00,169 DEBUG EInvoice.CAdmin.Controllers.CompanyController  [0100113007_admin_demo]['40oblrlmppuv0kszzzk1trsl][113.160.13.121][113.160.13.121][MenuBycomp] - MenuBycomp 
2019-03-28 14:33:07,213 INFO EInvoice.CAdmin.Controllers.ShareController  [0100113007_admin_demo]['lbjq2yapd0hsnwuvunmdmvwe][203.162.100.29][203.162.100.29][ajxPreview] - call: wXp8uusRsyQO4gL1eqCWrw== pattern: 01GTKT0/001 company: 1937 
2019-03-28 14:33:11,706 INFO EInvoice.CAdmin.Controllers.ShareController  [0100113007_admin_demo]['lbjq2yapd0hsnwuvunmdmvwe][203.162.100.29][203.162.100.29][ajxPreview] - call: wXp8uusRsyQO4gL1eqCWrw== pattern: 01GTKT0/001 company: 1937 
2019-03-28 14:34:25,151 DEBUG EInvoice.CAdmin.Controllers.EInvoiceController  [0100113007_admin_demo]['40oblrlmppuv0kszzzk1trsl][113.160.13.121][113.160.13.121][Index] - EInvoiceController Index 
2019-03-28 14:34:25,151 INFO EInvoice.CAdmin.Controllers.EInvoiceController  [0100113007_admin_demo]['40oblrlmppuv0kszzzk1trsl][113.160.13.121][113.160.13.121][Index] - Index1937 pattern:  serial:  
2019-03-28 14:34:25,198 DEBUG EInvoice.CAdmin.Controllers.CompanyController  [0100113007_admin_demo]['40oblrlmppuv0kszzzk1trsl][113.160.13.121][113.160.13.121][MenuBycomp] - MenuBycomp 
2019-03-28 14:34:28,318 INFO EInvoice.CAdmin.Controllers.ShareController  [0100113007_admin_demo]['40oblrlmppuv0kszzzk1trsl][113.160.13.121][113.160.13.121][ajxPreview] - call: wXp8uusRsyQO4gL1eqCWrw== pattern: 01GTKT0/001 company: 1937 
2019-03-28 14:34:28,708 DEBUG EInvoice.CAdmin.Controllers.EInvoiceController  [0100113007_admin_demo]['40oblrlmppuv0kszzzk1trsl][113.160.13.121][113.160.13.121][Index] - EInvoiceController Index 
2019-03-28 14:34:28,708 INFO EInvoice.CAdmin.Controllers.EInvoiceController  [0100113007_admin_demo]['40oblrlmppuv0kszzzk1trsl][113.160.13.121][113.160.13.121][Index] - Index1937 pattern:  serial:  
2019-03-28 14:34:28,754 DEBUG EInvoice.CAdmin.Controllers.CompanyController  [0100113007_admin_demo]['40oblrlmppuv0kszzzk1trsl][113.160.13.121][113.160.13.121][MenuBycomp] - MenuBycomp 
2019-03-28 14:34:50,251 INFO EInvoice.CAdmin.Controllers.ShareController  [0100113007_admin_demo]['40oblrlmppuv0kszzzk1trsl][113.160.13.121][113.160.13.121][ajxPreview] - call: wXp8uusRsyQO4gL1eqCWrw== pattern: 01GTKT0/001 company: 1937 
2019-03-28 14:35:06,335 INFO EInvoice.CAdmin.Controllers.ShareController  [0100113007_admin_demo]['40oblrlmppuv0kszzzk1trsl][113.160.13.121][113.160.13.121][ajxPreview] - call: wXp8uusRsyQO4gL1eqCWrw== pattern: 01GTKT0/001 company: 1937 
2019-03-28 14:35:14,837 DEBUG EInvoice.CAdmin.Controllers.CompanyController  [0100113007_admin_demo]['40oblrlmppuv0kszzzk1trsl][113.160.13.121][113.160.13.121][MenuBycomp] - MenuBycomp 
2019-03-28 14:35:24,103 DEBUG EInvoice.CAdmin.Controllers.CompanyController  [0100113007_admin_demo]['40oblrlmppuv0kszzzk1trsl][113.160.13.121][113.160.13.121][MenuBycomp] - MenuBycomp 
2019-03-28 14:35:32,627 DEBUG EInvoice.CAdmin.Controllers.CompanyController  [0100113007_admin_demo]['40oblrlmppuv0kszzzk1trsl][113.160.13.121][113.160.13.121][MenuBycomp] - MenuBycomp 
2019-03-28 14:35:39,366 DEBUG EInvoice.CAdmin.Controllers.CompanyController  [0100113007_admin_demo]['40oblrlmppuv0kszzzk1trsl][113.160.13.121][113.160.13.121][MenuBycomp] - MenuBycomp 
2019-03-28 14:35:49,818 DEBUG EInvoice.CAdmin.Controllers.CompanyController  [0100113007_admin_demo]['40oblrlmppuv0kszzzk1trsl][113.160.13.121][113.160.13.121][MenuBycomp] - MenuBycomp 
2019-03-28 14:35:52,767 DEBUG EInvoice.CAdmin.Controllers.CompanyController  [0100113007_admin_demo]['40oblrlmppuv0kszzzk1trsl][113.160.13.121][113.160.13.121][MenuBycomp] - MenuBycomp 
2019-03-28 14:38:37,738 INFO EInvoice.CAdmin.Controllers.PublishController  [0100113007_admin_demo]['40oblrlmppuv0kszzzk1trsl][113.160.13.121][113.160.13.121][CreateRPublish] - Create Publish by: 0100113007_admin_demo|InvInfo:2936;PC/19E;600;1;600_ 
2019-03-28 14:38:37,785 DEBUG EInvoice.CAdmin.Controllers.CompanyController  [0100113007_admin_demo]['40oblrlmppuv0kszzzk1trsl][113.160.13.121][113.160.13.121][MenuBycomp] - MenuBycomp 
2019-03-28 14:38:47,036 ERROR EInvoice.CAdmin.Controllers.PublishController  [0100113007_admin_demo]['40oblrlmppuv0kszzzk1trsl][113.160.13.121][113.160.13.121][SelectedPublish] - Bat dau gui thong bao phat hanh 
2019-03-28 14:38:47,067 INFO EInvoice.CAdmin.Controllers.PublishController  [0100113007_admin_demo]['40oblrlmppuv0kszzzk1trsl][113.160.13.121][113.160.13.121][SelectedPublish] - SelectedPublish Publish by: 0100113007_admin_demo Info-- ID: 4990 
2019-03-28 14:38:47,129 INFO EInvoice.CAdmin.Controllers.PublishController  [0100113007_admin_demo]['40oblrlmppuv0kszzzk1trsl][113.160.13.121][113.160.13.121][SelectedPublish] - SelectedPublish Publish by: 0100113007_admin_demo Info-- ID: 4990 
2019-03-28 14:38:49,017 DEBUG EInvoice.CAdmin.Controllers.CompanyController  [0100113007_admin_demo]['40oblrlmppuv0kszzzk1trsl][113.160.13.121][113.160.13.121][MenuBycomp] - MenuBycomp 
2019-03-28 14:38:51,139 DEBUG EInvoice.CAdmin.Controllers.EInvoiceController  [0100113007_admin_demo]['40oblrlmppuv0kszzzk1trsl][113.160.13.121][113.160.13.121][Index] - EInvoiceController Index 
2019-03-28 14:38:51,139 INFO EInvoice.CAdmin.Controllers.EInvoiceController  [0100113007_admin_demo]['40oblrlmppuv0kszzzk1trsl][113.160.13.121][113.160.13.121][Index] - Index1937 pattern:  serial:  
2019-03-28 14:38:51,185 DEBUG EInvoice.CAdmin.Controllers.CompanyController  [0100113007_admin_demo]['40oblrlmppuv0kszzzk1trsl][113.160.13.121][113.160.13.121][MenuBycomp] - MenuBycomp 
2019-03-28 14:38:53,151 DEBUG EInvoice.CAdmin.Controllers.CompanyController  [0100113007_admin_demo]['40oblrlmppuv0kszzzk1trsl][113.160.13.121][113.160.13.121][MenuBycomp] - MenuBycomp 
2019-03-28 14:39:52,162 INFO EInvoice.CAdmin.Controllers.EInvoiceController  [0100113007_admin_demo]['40oblrlmppuv0kszzzk1trsl][113.160.13.121][113.160.13.121][Create] - Create EInvoice by: 0100113007_admin_demo Info-- TenKhachHang: CÔNG TY TEST MaKhachHang: 099999 SoTien: 400 
2019-03-28 14:39:52,271 DEBUG EInvoice.CAdmin.Controllers.EInvoiceController  [0100113007_admin_demo]['40oblrlmppuv0kszzzk1trsl][113.160.13.121][113.160.13.121][Index] - EInvoiceController Index 
2019-03-28 14:39:52,271 INFO EInvoice.CAdmin.Controllers.EInvoiceController  [0100113007_admin_demo]['40oblrlmppuv0kszzzk1trsl][113.160.13.121][113.160.13.121][Index] - Index1937 pattern: 01GTKT0/001 serial: PC/19E 
2019-03-28 14:39:52,318 DEBUG EInvoice.CAdmin.Controllers.CompanyController  [0100113007_admin_demo]['40oblrlmppuv0kszzzk1trsl][113.160.13.121][113.160.13.121][MenuBycomp] - MenuBycomp 
2019-03-28 14:42:05,299 INFO EInvoice.CAdmin.Controllers.ShareController  [0100113007_admin_demo]['40oblrlmppuv0kszzzk1trsl][113.160.13.121][113.160.13.121][ajxPreview] - call: k/0J3oRR+ReRWwhXlW+hug== pattern: 01GTKT0/001 company: 1937 
2019-03-28 14:42:05,673 DEBUG EInvoice.CAdmin.Controllers.EInvoiceController  [0100113007_admin_demo]['40oblrlmppuv0kszzzk1trsl][113.160.13.121][113.160.13.121][Index] - EInvoiceController Index 
2019-03-28 14:42:05,673 INFO EInvoice.CAdmin.Controllers.EInvoiceController  [0100113007_admin_demo]['40oblrlmppuv0kszzzk1trsl][113.160.13.121][113.160.13.121][Index] - Index1937 pattern: 01GTKT0/001 serial: PC/19E 
2019-03-28 14:42:05,720 DEBUG EInvoice.CAdmin.Controllers.CompanyController  [0100113007_admin_demo]['40oblrlmppuv0kszzzk1trsl][113.160.13.121][113.160.13.121][MenuBycomp] - MenuBycomp 
2019-03-28 14:42:47,782 DEBUG EInvoice.CAdmin.Controllers.EInvoiceController  [0100113007_admin_demo]['40oblrlmppuv0kszzzk1trsl][113.160.13.121][113.160.13.121][Index] - EInvoiceController Index 
2019-03-28 14:42:47,782 INFO EInvoice.CAdmin.Controllers.EInvoiceController  [0100113007_admin_demo]['40oblrlmppuv0kszzzk1trsl][113.160.13.121][113.160.13.121][Index] - Index1937 pattern:  serial:  
2019-03-28 14:42:47,829 DEBUG EInvoice.CAdmin.Controllers.CompanyController  [0100113007_admin_demo]['40oblrlmppuv0kszzzk1trsl][113.160.13.121][113.160.13.121][MenuBycomp] - MenuBycomp 
2019-03-28 14:42:56,938 DEBUG EInvoice.CAdmin.Controllers.CompanyController  [0100113007_admin_demo]['40oblrlmppuv0kszzzk1trsl][113.160.13.121][113.160.13.121][MenuBycomp] - MenuBycomp 
2019-03-28 14:43:28,407 DEBUG EInvoice.CAdmin.Controllers.CompanyController  [0100113007_admin_demo]['40oblrlmppuv0kszzzk1trsl][113.160.13.121][113.160.13.121][MenuBycomp] - MenuBycomp 
2019-03-28 14:43:57,455 DEBUG EInvoice.CAdmin.Controllers.CompanyController  [0100113007_admin_demo]['40oblrlmppuv0kszzzk1trsl][113.160.13.121][113.160.13.121][MenuBycomp] - MenuBycomp 
2019-03-28 14:44:05,785 DEBUG EInvoice.CAdmin.Controllers.EInvoiceController  [0100113007_admin_demo]['40oblrlmppuv0kszzzk1trsl][113.160.13.121][113.160.13.121][Index] - EInvoiceController Index 
2019-03-28 14:44:05,785 INFO EInvoice.CAdmin.Controllers.EInvoiceController  [0100113007_admin_demo]['40oblrlmppuv0kszzzk1trsl][113.160.13.121][113.160.13.121][Index] - Index1937 pattern:  serial:  
2019-03-28 14:44:05,832 DEBUG EInvoice.CAdmin.Controllers.CompanyController  [0100113007_admin_demo]['40oblrlmppuv0kszzzk1trsl][113.160.13.121][113.160.13.121][MenuBycomp] - MenuBycomp 
2019-03-28 14:46:25,800 DEBUG EInvoice.CAdmin.Controllers.EInvoiceController  [0100113007_admin_demo]['40oblrlmppuv0kszzzk1trsl][113.160.13.121][113.160.13.121][Index] - EInvoiceController Index 
2019-03-28 14:46:25,800 INFO EInvoice.CAdmin.Controllers.EInvoiceController  [0100113007_admin_demo]['40oblrlmppuv0kszzzk1trsl][113.160.13.121][113.160.13.121][Index] - Index1937 pattern:  serial:  
2019-03-28 14:46:25,831 DEBUG EInvoice.CAdmin.Controllers.CompanyController  [0100113007_admin_demo]['40oblrlmppuv0kszzzk1trsl][113.160.13.121][113.160.13.121][MenuBycomp] - MenuBycomp 
2019-03-28 14:46:43,241 INFO EInvoice.CAdmin.Controllers.EInvoiceController  [0100113007_admin_demo]['40oblrlmppuv0kszzzk1trsl][113.160.13.121][113.160.13.121][LaunchChoiceWithToken] - LaunchChoiceWithToken by: 0100113007_admin_demo 
2019-03-28 14:46:43,335 WARN EInvoice.Core.Launching.DsigGenerator  [0100113007_admin_demo]['40oblrlmppuv0kszzzk1trsl][113.160.13.121][113.160.13.121][WrapCustomerPublishSign] - verify :1 
2019-03-28 14:46:43,522 INFO EInvoice.CAdmin.Controllers.EInvoiceController  [0100113007_admin_demo]['40oblrlmppuv0kszzzk1trsl][113.160.13.121][113.160.13.121][LaunchChoiceWithToken] - Publish EInvoice by: 0100113007_admin_demo Info-- Pattern: 01GTKT0/001; Serial:  
2019-03-28 14:46:43,569 DEBUG EInvoice.CAdmin.Controllers.EInvoiceController  [0100113007_admin_demo]['40oblrlmppuv0kszzzk1trsl][113.160.13.121][113.160.13.121][Index] - EInvoiceController Index 
2019-03-28 14:46:43,569 INFO EInvoice.CAdmin.Controllers.EInvoiceController  [0100113007_admin_demo]['40oblrlmppuv0kszzzk1trsl][113.160.13.121][113.160.13.121][Index] - Index1937 pattern: 01GTKT0/001 serial:  
2019-03-28 14:46:43,616 DEBUG EInvoice.CAdmin.Controllers.CompanyController  [0100113007_admin_demo]['40oblrlmppuv0kszzzk1trsl][113.160.13.121][113.160.13.121][MenuBycomp] - MenuBycomp 
2019-03-28 14:46:51,137 INFO EInvoice.CAdmin.Controllers.ShareController  [0100113007_admin_demo]['40oblrlmppuv0kszzzk1trsl][113.160.13.121][113.160.13.121][ajxPreview] - call: k/0J3oRR+ReRWwhXlW+hug== pattern: 01GTKT0/001 company: 1937 
2019-03-28 14:46:51,746 DEBUG EInvoice.CAdmin.Controllers.EInvoiceController  [0100113007_admin_demo]['40oblrlmppuv0kszzzk1trsl][113.160.13.121][113.160.13.121][Index] - EInvoiceController Index 
2019-03-28 14:46:51,746 INFO EInvoice.CAdmin.Controllers.EInvoiceController  [0100113007_admin_demo]['40oblrlmppuv0kszzzk1trsl][113.160.13.121][113.160.13.121][Index] - Index1937 pattern: 01GTKT0/001 serial:  
2019-03-28 14:46:51,792 DEBUG EInvoice.CAdmin.Controllers.CompanyController  [0100113007_admin_demo]['40oblrlmppuv0kszzzk1trsl][113.160.13.121][113.160.13.121][MenuBycomp] - MenuBycomp 
2019-03-28 14:47:08,141 INFO EInvoice.CAdmin.Controllers.ShareController  [0100113007_admin_demo]['40oblrlmppuv0kszzzk1trsl][113.160.13.121][113.160.13.121][ajxPreview] - call: k/0J3oRR+ReRWwhXlW+hug== pattern: 01GTKT0/001 company: 1937 
2019-03-28 14:47:18,827 DEBUG EInvoice.CAdmin.Controllers.CompanyController  [0100113007_admin_demo]['40oblrlmppuv0kszzzk1trsl][113.160.13.121][113.160.13.121][MenuBycomp] - MenuBycomp 
2019-03-28 14:50:02,651 DEBUG EInvoice.CAdmin.Controllers.CompanyController  [0100113007_admin_demo]['40oblrlmppuv0kszzzk1trsl][113.160.13.121][113.160.13.121][MenuBycomp] - MenuBycomp 
2019-03-28 14:50:15,929 DEBUG EInvoice.CAdmin.Controllers.CompanyController  [0100113007_admin_demo]['40oblrlmppuv0kszzzk1trsl][113.160.13.121][113.160.13.121][MenuBycomp] - MenuBycomp 
2019-03-28 14:50:23,729 DEBUG EInvoice.CAdmin.Controllers.CompanyController  [0100113007_admin_demo]['40oblrlmppuv0kszzzk1trsl][113.160.13.121][113.160.13.121][MenuBycomp] - MenuBycomp 
2019-03-28 14:50:33,822 WARN EInvoice.Core.Launching.DsigGenerator  [0100113007_admin_demo]['40oblrlmppuv0kszzzk1trsl][113.160.13.121][113.160.13.121][WrapCustomerPublishSign] - verify :1 
2019-03-28 14:50:33,884 INFO EInvoice.CAdmin.Controllers.AdJustController  [0100113007_admin_demo]['40oblrlmppuv0kszzzk1trsl][113.160.13.121][113.160.13.121][CreateAdJustInvWithToken] - Adjust EInvoice by: 0100113007_admin_demo Info-- Pattern: 01GTKT0/001; Serial: PC/19E 
2019-03-28 14:50:34,103 DEBUG EInvoice.CAdmin.Controllers.CompanyController  [0100113007_admin_demo]['40oblrlmppuv0kszzzk1trsl][113.160.13.121][113.160.13.121][MenuBycomp] - MenuBycomp 
2019-03-28 14:50:37,332 INFO EInvoice.CAdmin.Controllers.ShareController  [0100113007_admin_demo]['40oblrlmppuv0kszzzk1trsl][113.160.13.121][113.160.13.121][ajxPreview] - call: 3AM3la4+0/uq3qmdZYO4Xw== pattern: 01GTKT0/001 company: 1937 
2019-03-28 14:50:37,769 DEBUG EInvoice.CAdmin.Controllers.CompanyController  [0100113007_admin_demo]['40oblrlmppuv0kszzzk1trsl][113.160.13.121][113.160.13.121][MenuBycomp] - MenuBycomp 
2019-03-28 14:50:58,588 INFO EInvoice.CAdmin.Controllers.ShareController  [0100113007_admin_demo]['40oblrlmppuv0kszzzk1trsl][113.160.13.121][113.160.13.121][ajxPreview] - call: 3AM3la4+0/uq3qmdZYO4Xw== pattern: 01GTKT0/001 company: 1937 
2019-03-28 14:51:32,842 DEBUG EInvoice.CAdmin.Controllers.CompanyController  [0100113007_admin_demo]['40oblrlmppuv0kszzzk1trsl][113.160.13.121][113.160.13.121][MenuBycomp] - MenuBycomp 
2019-03-28 14:51:43,044 DEBUG EInvoice.CAdmin.Controllers.CompanyController  [0100113007_admin_demo]['40oblrlmppuv0kszzzk1trsl][113.160.13.121][113.160.13.121][MenuBycomp] - MenuBycomp 
2019-03-28 14:58:06,259 DEBUG EInvoice.CAdmin.Controllers.CompanyController  [0100113007_admin_demo]['40oblrlmppuv0kszzzk1trsl][113.160.13.121][113.160.13.121][MenuBycomp] - MenuBycomp 
2019-03-28 15:12:12,416 DEBUG EInvoice.CAdmin.Controllers.CompanyController  [0100113007_admin_demo]['40oblrlmppuv0kszzzk1trsl][113.160.13.121][113.160.13.121][MenuBycomp] - MenuBycomp 
2019-03-28 15:13:34,441 DEBUG EInvoice.CAdmin.Controllers.EInvoiceController  [0100113007_admin_demo]['40oblrlmppuv0kszzzk1trsl][113.160.13.121][113.160.13.121][Index] - EInvoiceController Index 
2019-03-28 15:13:34,441 INFO EInvoice.CAdmin.Controllers.EInvoiceController  [0100113007_admin_demo]['40oblrlmppuv0kszzzk1trsl][113.160.13.121][113.160.13.121][Index] - Index1937 pattern:  serial:  
2019-03-28 15:13:34,488 DEBUG EInvoice.CAdmin.Controllers.CompanyController  [0100113007_admin_demo]['40oblrlmppuv0kszzzk1trsl][113.160.13.121][113.160.13.121][MenuBycomp] - MenuBycomp 
2019-03-28 15:13:51,866 DEBUG EInvoice.CAdmin.Controllers.EInvoiceController  [0100113007_admin_demo]['40oblrlmppuv0kszzzk1trsl][113.160.13.121][113.160.13.121][Index] - EInvoiceController Index 
2019-03-28 15:13:51,866 INFO EInvoice.CAdmin.Controllers.EInvoiceController  [0100113007_admin_demo]['40oblrlmppuv0kszzzk1trsl][113.160.13.121][113.160.13.121][Index] - Index1937 pattern: 01GTKT0/001 serial: PC/19E 
2019-03-28 15:13:51,913 DEBUG EInvoice.CAdmin.Controllers.CompanyController  [0100113007_admin_demo]['40oblrlmppuv0kszzzk1trsl][113.160.13.121][113.160.13.121][MenuBycomp] - MenuBycomp 
2019-03-28 15:14:12,443 DEBUG EInvoice.CAdmin.Controllers.CompanyController  [0100113007_admin_demo]['40oblrlmppuv0kszzzk1trsl][113.160.13.121][113.160.13.121][MenuBycomp] - MenuBycomp 
2019-03-28 15:17:05,458 DEBUG EInvoice.CAdmin.Controllers.EInvoiceController  [0100113007_admin_demo]['40oblrlmppuv0kszzzk1trsl][113.160.13.121][113.160.13.121][Index] - EInvoiceController Index 
2019-03-28 15:17:05,458 INFO EInvoice.CAdmin.Controllers.EInvoiceController  [0100113007_admin_demo]['40oblrlmppuv0kszzzk1trsl][113.160.13.121][113.160.13.121][Index] - Index1937 pattern:  serial:  
2019-03-28 15:17:05,504 DEBUG EInvoice.CAdmin.Controllers.CompanyController  [0100113007_admin_demo]['40oblrlmppuv0kszzzk1trsl][113.160.13.121][113.160.13.121][MenuBycomp] - MenuBycomp 
2019-03-28 15:17:15,359 INFO EInvoice.CAdmin.Controllers.ShareController  [0100113007_admin_demo]['40oblrlmppuv0kszzzk1trsl][113.160.13.121][113.160.13.121][ajxPreview] - call: wXp8uusRsyQO4gL1eqCWrw== pattern: 01GTKT0/001 company: 1937 
2019-03-28 15:17:15,952 DEBUG EInvoice.CAdmin.Controllers.EInvoiceController  [0100113007_admin_demo]['40oblrlmppuv0kszzzk1trsl][113.160.13.121][113.160.13.121][Index] - EInvoiceController Index 
2019-03-28 15:17:15,952 INFO EInvoice.CAdmin.Controllers.EInvoiceController  [0100113007_admin_demo]['40oblrlmppuv0kszzzk1trsl][113.160.13.121][113.160.13.121][Index] - Index1937 pattern:  serial:  
2019-03-28 15:17:15,999 DEBUG EInvoice.CAdmin.Controllers.CompanyController  [0100113007_admin_demo]['40oblrlmppuv0kszzzk1trsl][113.160.13.121][113.160.13.121][MenuBycomp] - MenuBycomp 
2019-03-28 15:17:28,510 DEBUG EInvoice.CAdmin.Controllers.EInvoiceController  [0100113007_admin_demo]['40oblrlmppuv0kszzzk1trsl][113.160.13.121][113.160.13.121][Index] - EInvoiceController Index 
2019-03-28 15:17:28,510 INFO EInvoice.CAdmin.Controllers.EInvoiceController  [0100113007_admin_demo]['40oblrlmppuv0kszzzk1trsl][113.160.13.121][113.160.13.121][Index] - Index1937 pattern:  serial:  
2019-03-28 15:17:28,557 DEBUG EInvoice.CAdmin.Controllers.CompanyController  [0100113007_admin_demo]['40oblrlmppuv0kszzzk1trsl][113.160.13.121][113.160.13.121][MenuBycomp] - MenuBycomp 
2019-03-28 15:17:48,962 DEBUG EInvoice.CAdmin.Controllers.CompanyController  [0100113007_admin_demo]['40oblrlmppuv0kszzzk1trsl][113.160.13.121][113.160.13.121][MenuBycomp] - MenuBycomp 
2019-03-28 15:20:16,369 DEBUG EInvoice.CAdmin.Controllers.EInvoiceController  [0100113007_admin_demo]['40oblrlmppuv0kszzzk1trsl][113.160.13.121][113.160.13.121][Index] - EInvoiceController Index 
2019-03-28 15:20:16,369 INFO EInvoice.CAdmin.Controllers.EInvoiceController  [0100113007_admin_demo]['40oblrlmppuv0kszzzk1trsl][113.160.13.121][113.160.13.121][Index] - Index1937 pattern:  serial:  
2019-03-28 15:20:16,416 DEBUG EInvoice.CAdmin.Controllers.CompanyController  [0100113007_admin_demo]['40oblrlmppuv0kszzzk1trsl][113.160.13.121][113.160.13.121][MenuBycomp] - MenuBycomp 
2019-03-28 15:20:18,600 DEBUG EInvoice.CAdmin.Controllers.CompanyController  [0100113007_admin_demo]['40oblrlmppuv0kszzzk1trsl][113.160.13.121][113.160.13.121][MenuBycomp] - MenuBycomp 
2019-03-28 15:20:23,623 INFO EInvoice.CAdmin.Controllers.ShareController  []['lbjq2yapd0hsnwuvunmdmvwe][203.162.100.29][203.162.100.29][ajxPreview] - call: wXp8uusRsyQO4gL1eqCWrw== pattern: 01GTKT0/001 company: 1937 
2019-03-28 15:22:51,063 INFO EInvoice.CAdmin.Controllers.EInvoiceController  [0100113007_admin_demo]['40oblrlmppuv0kszzzk1trsl][113.160.13.121][113.160.13.121][Create] - Create EInvoice by: 0100113007_admin_demo Info-- TenKhachHang: CONG TY TNHH SON BA MaKhachHang: SONBA SoTien: 51018000 
2019-03-28 15:22:51,109 DEBUG EInvoice.CAdmin.Controllers.EInvoiceController  [0100113007_admin_demo]['40oblrlmppuv0kszzzk1trsl][113.160.13.121][113.160.13.121][Index] - EInvoiceController Index 
2019-03-28 15:22:51,109 INFO EInvoice.CAdmin.Controllers.EInvoiceController  [0100113007_admin_demo]['40oblrlmppuv0kszzzk1trsl][113.160.13.121][113.160.13.121][Index] - Index1937 pattern: 01GTKT0/001 serial: PC/19E 
2019-03-28 15:22:51,156 DEBUG EInvoice.CAdmin.Controllers.CompanyController  [0100113007_admin_demo]['40oblrlmppuv0kszzzk1trsl][113.160.13.121][113.160.13.121][MenuBycomp] - MenuBycomp 
2019-03-28 15:23:26,646 INFO EInvoice.CAdmin.Controllers.ShareController  [0100113007_admin_demo]['40oblrlmppuv0kszzzk1trsl][113.160.13.121][113.160.13.121][ajxPreview] - call: kJLVwnZsOLHC1AP9p3mL9w== pattern: 01GTKT0/001 company: 1937 
2019-03-28 15:23:27,052 DEBUG EInvoice.CAdmin.Controllers.EInvoiceController  [0100113007_admin_demo]['40oblrlmppuv0kszzzk1trsl][113.160.13.121][113.160.13.121][Index] - EInvoiceController Index 
2019-03-28 15:23:27,052 INFO EInvoice.CAdmin.Controllers.EInvoiceController  [0100113007_admin_demo]['40oblrlmppuv0kszzzk1trsl][113.160.13.121][113.160.13.121][Index] - Index1937 pattern: 01GTKT0/001 serial: PC/19E 
2019-03-28 15:23:27,099 DEBUG EInvoice.CAdmin.Controllers.CompanyController  [0100113007_admin_demo]['40oblrlmppuv0kszzzk1trsl][113.160.13.121][113.160.13.121][MenuBycomp] - MenuBycomp 
2019-03-28 15:24:23,212 ERROR EInvoice.CAdmin.Controllers.EInvoiceController  [0100113007_admin_demo]['40oblrlmppuv0kszzzk1trsl][113.160.13.121][113.160.13.121][Create] -  Create - System.FormatException: Input string was not in a correct format.
   at System.Number.ParseSingle(String value, NumberStyles options, NumberFormatInfo numfmt)
   at System.String.System.IConvertible.ToSingle(IFormatProvider provider)
   at System.Convert.ChangeType(Object value, Type conversionType, IFormatProvider provider)
   at FX.Utils.ExtendedJavaScriptConverter`1.Deserialize(IDictionary`2 dictionary, Type type, JavaScriptSerializer serializer)
   at System.Web.Script.Serialization.ObjectConverter.ConvertDictionaryToObject(IDictionary`2 dictionary, Type type, JavaScriptSerializer serializer, Boolean throwOnError, Object& convertedObject)
   at System.Web.Script.Serialization.ObjectConverter.ConvertObjectToTypeInternal(Object o, Type type, JavaScriptSerializer serializer, Boolean throwOnError, Object& convertedObject)
   at System.Web.Script.Serialization.ObjectConverter.AddItemToList(IList oldList, IList newList, Type elementType, JavaScriptSerializer serializer, Boolean throwOnError)
   at System.Web.Script.Serialization.ObjectConverter.ConvertListToObject(IList list, Type type, JavaScriptSerializer serializer, Boolean throwOnError, IList& convertedList)
   at System.Web.Script.Serialization.ObjectConverter.ConvertObjectToTypeInternal(Object o, Type type, JavaScriptSerializer serializer, Boolean throwOnError, Object& convertedObject)
   at System.Web.Script.Serialization.JavaScriptSerializer.Deserialize(JavaScriptSerializer serializer, String input, Type type, Int32 depthLimit)
   at FX.Utils.JSONExtension.DeserializeJSON[T](String JsonString, Type targetType)
   at EInvoice.CAdmin.Controllers.EInvoiceController.Create(String Pattern, String PubDatasource, String DicExsource) 
2019-03-28 15:24:55,700 INFO EInvoice.CAdmin.Controllers.AccountController  []['iig1zu5coma2sdchrwqb20ia][113.160.13.121][113.160.13.121][LogOn] - Login: 0100113007_admin_demo 
2019-03-28 15:24:55,731 INFO EInvoice.CAdmin.Controllers.AccountController  []['iig1zu5coma2sdchrwqb20ia][113.160.13.121][113.160.13.121][LogOn] - LogOn:, Date:28/03/2019 3:24:55 CH 
2019-03-28 15:24:55,747 DEBUG EInvoice.CAdmin.Controllers.EInvoiceController  [0100113007_admin_demo]['iig1zu5coma2sdchrwqb20ia][113.160.13.121][113.160.13.121][Index] - EInvoiceController Index 
2019-03-28 15:24:55,747 INFO EInvoice.CAdmin.Controllers.EInvoiceController  [0100113007_admin_demo]['iig1zu5coma2sdchrwqb20ia][113.160.13.121][113.160.13.121][Index] - Index1937 pattern:  serial:  
2019-03-28 15:24:55,794 DEBUG EInvoice.CAdmin.Controllers.CompanyController  [0100113007_admin_demo]['iig1zu5coma2sdchrwqb20ia][113.160.13.121][113.160.13.121][MenuBycomp] - MenuBycomp 
2019-03-28 15:25:01,472 DEBUG EInvoice.CAdmin.Controllers.CompanyController  [0100113007_admin_demo]['iig1zu5coma2sdchrwqb20ia][113.160.13.121][113.160.13.121][MenuBycomp] - MenuBycomp 
2019-03-28 15:25:09,647 DEBUG EInvoice.CAdmin.Controllers.CompanyController  [0100113007_admin_demo]['iig1zu5coma2sdchrwqb20ia][113.160.13.121][113.160.13.121][MenuBycomp] - MenuBycomp 
2019-03-28 15:28:11,060 DEBUG EInvoice.CAdmin.Controllers.CompanyController  [0100113007_admin_demo]['iig1zu5coma2sdchrwqb20ia][113.160.13.121][113.160.13.121][MenuBycomp] - MenuBycomp 
2019-03-28 15:28:52,073 INFO EInvoice.CAdmin.Controllers.CustomerController  [0100113007_admin_demo]['iig1zu5coma2sdchrwqb20ia][113.160.13.121][113.160.13.121][Delete] - Delete Customer by: 0100113007_admin_demo Info-- ID: 6161818 
2019-03-28 15:28:52,104 DEBUG EInvoice.CAdmin.Controllers.CompanyController  [0100113007_admin_demo]['iig1zu5coma2sdchrwqb20ia][113.160.13.121][113.160.13.121][MenuBycomp] - MenuBycomp 
2019-03-28 15:28:57,283 INFO EInvoice.CAdmin.Controllers.CustomerController  [0100113007_admin_demo]['iig1zu5coma2sdchrwqb20ia][113.160.13.121][113.160.13.121][Delete] - Delete Customer by: 0100113007_admin_demo Info-- ID: 6161813 
2019-03-28 15:28:57,314 DEBUG EInvoice.CAdmin.Controllers.CompanyController  [0100113007_admin_demo]['iig1zu5coma2sdchrwqb20ia][113.160.13.121][113.160.13.121][MenuBycomp] - MenuBycomp 
2019-03-28 15:29:00,372 INFO EInvoice.CAdmin.Controllers.CustomerController  [0100113007_admin_demo]['iig1zu5coma2sdchrwqb20ia][113.160.13.121][113.160.13.121][Delete] - Delete Customer by: 0100113007_admin_demo Info-- ID: 6161812 
2019-03-28 15:29:00,387 DEBUG EInvoice.CAdmin.Controllers.CompanyController  [0100113007_admin_demo]['iig1zu5coma2sdchrwqb20ia][113.160.13.121][113.160.13.121][MenuBycomp] - MenuBycomp 
2019-03-28 15:29:02,103 DEBUG EInvoice.CAdmin.Controllers.CompanyController  [0100113007_admin_demo]['iig1zu5coma2sdchrwqb20ia][113.160.13.121][113.160.13.121][MenuBycomp] - MenuBycomp 
2019-03-28 15:30:18,822 INFO EInvoice.CAdmin.Controllers.CustomerController  [0100113007_admin_demo]['iig1zu5coma2sdchrwqb20ia][113.160.13.121][113.160.13.121][Create] - Create Customer by: 0100113007_admin_demo Info-- TenKhachHang: CÔNG TY TNHH SƠN BA TaiKhoanKhachHang: 0011000534464 Email: hang.acc@hanoi-pressclub.com 
2019-03-28 15:30:18,822 INFO EInvoice.CAdmin.Controllers.CustomerController  [0100113007_admin_demo]['iig1zu5coma2sdchrwqb20ia][113.160.13.121][113.160.13.121][Create] - create ok: 0011000534464 
2019-03-28 15:30:18,868 DEBUG EInvoice.CAdmin.Controllers.CompanyController  [0100113007_admin_demo]['iig1zu5coma2sdchrwqb20ia][113.160.13.121][113.160.13.121][MenuBycomp] - MenuBycomp 
2019-03-28 15:30:35,950 DEBUG EInvoice.CAdmin.Controllers.CompanyController  [0100113007_admin_demo]['iig1zu5coma2sdchrwqb20ia][113.160.13.121][113.160.13.121][MenuBycomp] - MenuBycomp 
2019-03-28 15:30:52,954 INFO EInvoice.CAdmin.Controllers.CustomerController  [0100113007_admin_demo]['iig1zu5coma2sdchrwqb20ia][113.160.13.121][113.160.13.121][Update] - Edit Customer by: 0100113007_admin_demo Info-- TenKhachHang: CÔNG TY TNHH SƠN BA TaiKhoanKhachHang: 0011000534464 Email: hang.acc@hanoi-pressclub.com 
2019-03-28 15:30:52,970 DEBUG EInvoice.CAdmin.Controllers.CompanyController  [0100113007_admin_demo]['iig1zu5coma2sdchrwqb20ia][113.160.13.121][113.160.13.121][MenuBycomp] - MenuBycomp 
2019-03-28 15:31:10,333 DEBUG EInvoice.CAdmin.Controllers.CompanyController  [0100113007_admin_demo]['iig1zu5coma2sdchrwqb20ia][113.160.13.121][113.160.13.121][MenuBycomp] - MenuBycomp 
2019-03-28 15:31:27,087 DEBUG EInvoice.CAdmin.Controllers.CompanyController  [0100113007_admin_demo]['iig1zu5coma2sdchrwqb20ia][113.160.13.121][113.160.13.121][MenuBycomp] - MenuBycomp 
2019-03-28 15:33:30,975 INFO EInvoice.CAdmin.Controllers.AccountController  []['uqrriwaxipwzuax12lri51kn][113.160.13.121][113.160.13.121][LogOn] - Login: 0100113007_admin_demo 
2019-03-28 15:33:31,006 INFO EInvoice.CAdmin.Controllers.AccountController  []['uqrriwaxipwzuax12lri51kn][113.160.13.121][113.160.13.121][LogOn] - LogOn:, Date:28/03/2019 3:33:31 CH 
2019-03-28 15:33:31,037 DEBUG EInvoice.CAdmin.Controllers.EInvoiceController  [0100113007_admin_demo]['uqrriwaxipwzuax12lri51kn][113.160.13.121][113.160.13.121][Index] - EInvoiceController Index 
2019-03-28 15:33:31,037 INFO EInvoice.CAdmin.Controllers.EInvoiceController  [0100113007_admin_demo]['uqrriwaxipwzuax12lri51kn][113.160.13.121][113.160.13.121][Index] - Index1937 pattern:  serial:  
2019-03-28 15:33:31,084 DEBUG EInvoice.CAdmin.Controllers.CompanyController  [0100113007_admin_demo]['uqrriwaxipwzuax12lri51kn][113.160.13.121][113.160.13.121][MenuBycomp] - MenuBycomp 
2019-03-28 15:33:40,881 DEBUG EInvoice.CAdmin.Controllers.EInvoiceController  [0100113007_admin_demo]['uqrriwaxipwzuax12lri51kn][113.160.13.121][113.160.13.121][Delete] - Access - Delete 
2019-03-28 15:33:40,912 INFO EInvoice.CAdmin.Controllers.EInvoiceController  [0100113007_admin_demo]['uqrriwaxipwzuax12lri51kn][113.160.13.121][113.160.13.121][Delete] - Delete EInvoice by: 0100113007_admin_demo Info-- ID: 5848393Pattern: 01GTKT0/001 Serial: PC/19E SoHoaDon: 0 TenKhachHang: CONG TY TNHH SON BA MaKhachHang: SONBA SoTien: 51018000 
2019-03-28 15:33:40,912 INFO EInvoice.CAdmin.Controllers.EInvoiceController  [0100113007_admin_demo]['uqrriwaxipwzuax12lri51kn][113.160.13.121][113.160.13.121][Delete] - Delete successfull id =5848393 
2019-03-28 15:33:40,928 DEBUG EInvoice.CAdmin.Controllers.EInvoiceController  [0100113007_admin_demo]['uqrriwaxipwzuax12lri51kn][113.160.13.121][113.160.13.121][Index] - EInvoiceController Index 
2019-03-28 15:33:40,928 INFO EInvoice.CAdmin.Controllers.EInvoiceController  [0100113007_admin_demo]['uqrriwaxipwzuax12lri51kn][113.160.13.121][113.160.13.121][Index] - Index1937 pattern: 01GTKT0/001 serial: PC/19E 
2019-03-28 15:33:40,975 DEBUG EInvoice.CAdmin.Controllers.CompanyController  [0100113007_admin_demo]['uqrriwaxipwzuax12lri51kn][113.160.13.121][113.160.13.121][MenuBycomp] - MenuBycomp 
2019-03-28 15:34:03,285 DEBUG EInvoice.CAdmin.Controllers.CompanyController  [0100113007_admin_demo]['uqrriwaxipwzuax12lri51kn][113.160.13.121][113.160.13.121][MenuBycomp] - MenuBycomp 
2019-03-28 15:34:15,390 DEBUG EInvoice.CAdmin.Controllers.EInvoiceController  [0100113007_admin_demo]['uqrriwaxipwzuax12lri51kn][113.160.13.121][113.160.13.121][Index] - EInvoiceController Index 
2019-03-28 15:34:15,406 INFO EInvoice.CAdmin.Controllers.EInvoiceController  [0100113007_admin_demo]['uqrriwaxipwzuax12lri51kn][113.160.13.121][113.160.13.121][Index] - Index1937 pattern:  serial:  
2019-03-28 15:34:15,453 DEBUG EInvoice.CAdmin.Controllers.CompanyController  [0100113007_admin_demo]['uqrriwaxipwzuax12lri51kn][113.160.13.121][113.160.13.121][MenuBycomp] - MenuBycomp 
2019-03-28 15:34:29,350 DEBUG EInvoice.CAdmin.Controllers.CompanyController  [0100113007_admin_demo]['uqrriwaxipwzuax12lri51kn][113.160.13.121][113.160.13.121][MenuBycomp] - MenuBycomp 
2019-03-28 15:36:15,399 INFO EInvoice.CAdmin.Controllers.EInvoiceController  [0100113007_admin_demo]['uqrriwaxipwzuax12lri51kn][113.160.13.121][113.160.13.121][Create] - Create EInvoice by: 0100113007_admin_demo Info-- TenKhachHang: CÔNG TY TNHH SƠN BA MaKhachHang: SB SoTien: 503096000 
2019-03-28 15:36:15,415 DEBUG EInvoice.CAdmin.Controllers.EInvoiceController  [0100113007_admin_demo]['uqrriwaxipwzuax12lri51kn][113.160.13.121][113.160.13.121][Index] - EInvoiceController Index 
2019-03-28 15:36:15,415 INFO EInvoice.CAdmin.Controllers.EInvoiceController  [0100113007_admin_demo]['uqrriwaxipwzuax12lri51kn][113.160.13.121][113.160.13.121][Index] - Index1937 pattern: 01GTKT0/001 serial: PC/19E 
2019-03-28 15:36:15,461 DEBUG EInvoice.CAdmin.Controllers.CompanyController  [0100113007_admin_demo]['uqrriwaxipwzuax12lri51kn][113.160.13.121][113.160.13.121][MenuBycomp] - MenuBycomp 
2019-03-28 15:36:26,440 INFO EInvoice.CAdmin.Controllers.ShareController  [0100113007_admin_demo]['uqrriwaxipwzuax12lri51kn][113.160.13.121][113.160.13.121][ajxPreview] - call: cnWH+/5ZPvHIiznwKKxMrg== pattern: 01GTKT0/001 company: 1937 
2019-03-28 15:36:26,814 DEBUG EInvoice.CAdmin.Controllers.EInvoiceController  [0100113007_admin_demo]['uqrriwaxipwzuax12lri51kn][113.160.13.121][113.160.13.121][Index] - EInvoiceController Index 
2019-03-28 15:36:26,814 INFO EInvoice.CAdmin.Controllers.EInvoiceController  [0100113007_admin_demo]['uqrriwaxipwzuax12lri51kn][113.160.13.121][113.160.13.121][Index] - Index1937 pattern: 01GTKT0/001 serial: PC/19E 
2019-03-28 15:36:26,861 DEBUG EInvoice.CAdmin.Controllers.CompanyController  [0100113007_admin_demo]['uqrriwaxipwzuax12lri51kn][113.160.13.121][113.160.13.121][MenuBycomp] - MenuBycomp 
2019-03-28 15:37:15,107 ERROR EInvoice.CAdmin.Controllers.EInvoiceController  [0100113007_admin_demo]['uqrriwaxipwzuax12lri51kn][113.160.13.121][113.160.13.121][Create] -  Create - System.FormatException: Input string was not in a correct format.
   at System.Number.ParseSingle(String value, NumberStyles options, NumberFormatInfo numfmt)
   at System.String.System.IConvertible.ToSingle(IFormatProvider provider)
   at System.Convert.ChangeType(Object value, Type conversionType, IFormatProvider provider)
   at FX.Utils.ExtendedJavaScriptConverter`1.Deserialize(IDictionary`2 dictionary, Type type, JavaScriptSerializer serializer)
   at System.Web.Script.Serialization.ObjectConverter.ConvertDictionaryToObject(IDictionary`2 dictionary, Type type, JavaScriptSerializer serializer, Boolean throwOnError, Object& convertedObject)
   at System.Web.Script.Serialization.ObjectConverter.ConvertObjectToTypeInternal(Object o, Type type, JavaScriptSerializer serializer, Boolean throwOnError, Object& convertedObject)
   at System.Web.Script.Serialization.ObjectConverter.AddItemToList(IList oldList, IList newList, Type elementType, JavaScriptSerializer serializer, Boolean throwOnError)
   at System.Web.Script.Serialization.ObjectConverter.ConvertListToObject(IList list, Type type, JavaScriptSerializer serializer, Boolean throwOnError, IList& convertedList)
   at System.Web.Script.Serialization.ObjectConverter.ConvertObjectToTypeInternal(Object o, Type type, JavaScriptSerializer serializer, Boolean throwOnError, Object& convertedObject)
   at System.Web.Script.Serialization.JavaScriptSerializer.Deserialize(JavaScriptSerializer serializer, String input, Type type, Int32 depthLimit)
   at FX.Utils.JSONExtension.DeserializeJSON[T](String JsonString, Type targetType)
   at EInvoice.CAdmin.Controllers.EInvoiceController.Create(String Pattern, String PubDatasource, String DicExsource) 
2019-03-28 15:37:24,171 DEBUG EInvoice.CAdmin.Controllers.EInvoiceController  [0100113007_admin_demo]['uqrriwaxipwzuax12lri51kn][113.160.13.121][113.160.13.121][Index] - EInvoiceController Index 
2019-03-28 15:37:24,171 INFO EInvoice.CAdmin.Controllers.EInvoiceController  [0100113007_admin_demo]['uqrriwaxipwzuax12lri51kn][113.160.13.121][113.160.13.121][Index] - Index1937 pattern:  serial:  
2019-03-28 15:37:24,218 DEBUG EInvoice.CAdmin.Controllers.CompanyController  [0100113007_admin_demo]['uqrriwaxipwzuax12lri51kn][113.160.13.121][113.160.13.121][MenuBycomp] - MenuBycomp 
2019-03-28 15:37:30,395 INFO EInvoice.CAdmin.Controllers.ShareController  [0100113007_admin_demo]['uqrriwaxipwzuax12lri51kn][113.160.13.121][113.160.13.121][ajxPreview] - call: cnWH+/5ZPvHIiznwKKxMrg== pattern: 01GTKT0/001 company: 1937 
2019-03-28 15:37:30,754 DEBUG EInvoice.CAdmin.Controllers.EInvoiceController  [0100113007_admin_demo]['uqrriwaxipwzuax12lri51kn][113.160.13.121][113.160.13.121][Index] - EInvoiceController Index 
2019-03-28 15:37:30,754 INFO EInvoice.CAdmin.Controllers.EInvoiceController  [0100113007_admin_demo]['uqrriwaxipwzuax12lri51kn][113.160.13.121][113.160.13.121][Index] - Index1937 pattern:  serial:  
2019-03-28 15:37:30,817 DEBUG EInvoice.CAdmin.Controllers.CompanyController  [0100113007_admin_demo]['uqrriwaxipwzuax12lri51kn][113.160.13.121][113.160.13.121][MenuBycomp] - MenuBycomp 
2019-03-28 15:39:15,436 INFO EInvoice.CAdmin.Controllers.EInvoiceController  [0100113007_admin_demo]['uqrriwaxipwzuax12lri51kn][113.160.13.121][113.160.13.121][LaunchChoiceWithToken] - LaunchChoiceWithToken by: 0100113007_admin_demo 
2019-03-28 15:39:15,482 WARN EInvoice.Core.Launching.DsigGenerator  [0100113007_admin_demo]['uqrriwaxipwzuax12lri51kn][113.160.13.121][113.160.13.121][WrapCustomerPublishSign] - verify :1 
2019-03-28 15:39:15,514 INFO EInvoice.CAdmin.Controllers.EInvoiceController  [0100113007_admin_demo]['uqrriwaxipwzuax12lri51kn][113.160.13.121][113.160.13.121][LaunchChoiceWithToken] - Publish EInvoice by: 0100113007_admin_demo Info-- Pattern: 01GTKT0/001; Serial:  
2019-03-28 15:39:15,529 DEBUG EInvoice.CAdmin.Controllers.EInvoiceController  [0100113007_admin_demo]['uqrriwaxipwzuax12lri51kn][113.160.13.121][113.160.13.121][Index] - EInvoiceController Index 
2019-03-28 15:39:15,529 INFO EInvoice.CAdmin.Controllers.EInvoiceController  [0100113007_admin_demo]['uqrriwaxipwzuax12lri51kn][113.160.13.121][113.160.13.121][Index] - Index1937 pattern: 01GTKT0/001 serial:  
2019-03-28 15:39:15,592 DEBUG EInvoice.CAdmin.Controllers.CompanyController  [0100113007_admin_demo]['uqrriwaxipwzuax12lri51kn][113.160.13.121][113.160.13.121][MenuBycomp] - MenuBycomp 
2019-03-28 15:39:31,457 INFO EInvoice.CAdmin.Controllers.ShareController  [0100113007_admin_demo]['uqrriwaxipwzuax12lri51kn][113.160.13.121][113.160.13.121][ajxPreview] - call: cnWH+/5ZPvHIiznwKKxMrg== pattern: 01GTKT0/001 company: 1937 
2019-03-28 15:39:31,847 DEBUG EInvoice.CAdmin.Controllers.EInvoiceController  [0100113007_admin_demo]['uqrriwaxipwzuax12lri51kn][113.160.13.121][113.160.13.121][Index] - EInvoiceController Index 
2019-03-28 15:39:31,847 INFO EInvoice.CAdmin.Controllers.EInvoiceController  [0100113007_admin_demo]['uqrriwaxipwzuax12lri51kn][113.160.13.121][113.160.13.121][Index] - Index1937 pattern: 01GTKT0/001 serial:  
2019-03-28 15:39:31,894 DEBUG EInvoice.CAdmin.Controllers.CompanyController  [0100113007_admin_demo]['uqrriwaxipwzuax12lri51kn][113.160.13.121][113.160.13.121][MenuBycomp] - MenuBycomp 
2019-03-28 15:50:46,331 INFO EInvoice.CAdmin.Controllers.EInvoiceController  [0100113007_admin_demo]['uqrriwaxipwzuax12lri51kn][113.160.13.121][113.160.13.121][LaunchChoiceWithToken] - LaunchChoiceWithToken by: 0100113007_admin_demo 
2019-03-28 15:50:46,377 INFO EInvoice.CAdmin.Controllers.EInvoiceController  [0100113007_admin_demo]['uqrriwaxipwzuax12lri51kn][113.160.13.121][113.160.13.121][LaunchChoiceWithToken] - Publish EInvoice by: 0100113007_admin_demo Info-- Pattern: 01GTKT0/001; Serial:  
2019-03-28 15:50:46,393 DEBUG EInvoice.CAdmin.Controllers.EInvoiceController  [0100113007_admin_demo]['uqrriwaxipwzuax12lri51kn][113.160.13.121][113.160.13.121][Index] - EInvoiceController Index 
2019-03-28 15:50:46,393 INFO EInvoice.CAdmin.Controllers.EInvoiceController  [0100113007_admin_demo]['uqrriwaxipwzuax12lri51kn][113.160.13.121][113.160.13.121][Index] - Index1937 pattern: 01GTKT0/001 serial:  
2019-03-28 15:50:46,440 DEBUG EInvoice.CAdmin.Controllers.CompanyController  [0100113007_admin_demo]['uqrriwaxipwzuax12lri51kn][113.160.13.121][113.160.13.121][MenuBycomp] - MenuBycomp 
2019-03-28 15:50:56,580 INFO EInvoice.CAdmin.Controllers.ShareController  [0100113007_admin_demo]['uqrriwaxipwzuax12lri51kn][113.160.13.121][113.160.13.121][ajxPreview] - call: cnWH+/5ZPvHIiznwKKxMrg== pattern: 01GTKT0/001 company: 1937 
2019-03-28 15:50:56,985 DEBUG EInvoice.CAdmin.Controllers.EInvoiceController  [0100113007_admin_demo]['uqrriwaxipwzuax12lri51kn][113.160.13.121][113.160.13.121][Index] - EInvoiceController Index 
2019-03-28 15:50:56,985 INFO EInvoice.CAdmin.Controllers.EInvoiceController  [0100113007_admin_demo]['uqrriwaxipwzuax12lri51kn][113.160.13.121][113.160.13.121][Index] - Index1937 pattern: 01GTKT0/001 serial:  
2019-03-28 15:50:57,032 DEBUG EInvoice.CAdmin.Controllers.CompanyController  [0100113007_admin_demo]['uqrriwaxipwzuax12lri51kn][113.160.13.121][113.160.13.121][MenuBycomp] - MenuBycomp 
2019-03-28 15:51:52,633 INFO EInvoice.CAdmin.Controllers.ShareController  [0100113007_admin_demo]['uqrriwaxipwzuax12lri51kn][113.160.13.121][113.160.13.121][ajxPreview] - call: cnWH+/5ZPvHIiznwKKxMrg== pattern: 01GTKT0/001 company: 1937 
2019-03-28 15:51:53,211 DEBUG EInvoice.CAdmin.Controllers.EInvoiceController  [0100113007_admin_demo]['uqrriwaxipwzuax12lri51kn][113.160.13.121][113.160.13.121][Index] - EInvoiceController Index 
2019-03-28 15:51:53,211 INFO EInvoice.CAdmin.Controllers.EInvoiceController  [0100113007_admin_demo]['uqrriwaxipwzuax12lri51kn][113.160.13.121][113.160.13.121][Index] - Index1937 pattern:  serial:  
2019-03-28 15:51:53,273 DEBUG EInvoice.CAdmin.Controllers.CompanyController  [0100113007_admin_demo]['uqrriwaxipwzuax12lri51kn][113.160.13.121][113.160.13.121][MenuBycomp] - MenuBycomp 
2019-03-28 15:52:49,199 DEBUG EInvoice.CAdmin.Controllers.EInvoiceController  [0100113007_admin_demo]['uqrriwaxipwzuax12lri51kn][113.160.13.121][113.160.13.121][Index] - EInvoiceController Index 
2019-03-28 15:52:49,199 INFO EInvoice.CAdmin.Controllers.EInvoiceController  [0100113007_admin_demo]['uqrriwaxipwzuax12lri51kn][113.160.13.121][113.160.13.121][Index] - Index1937 pattern:  serial:  
2019-03-28 15:52:49,246 DEBUG EInvoice.CAdmin.Controllers.CompanyController  [0100113007_admin_demo]['uqrriwaxipwzuax12lri51kn][113.160.13.121][113.160.13.121][MenuBycomp] - MenuBycomp 
2019-03-28 15:57:33,753 INFO EInvoice.CAdmin.Controllers.AccountController  []['ahybhcixdz21rf0nv4va3kbt][113.160.13.121][113.160.13.121][LogOn] - Login: 0100113007_admin_demo 
2019-03-28 15:57:33,800 INFO EInvoice.CAdmin.Controllers.AccountController  []['ahybhcixdz21rf0nv4va3kbt][113.160.13.121][113.160.13.121][LogOn] - LogOn:, Date:28/03/2019 3:57:33 CH 
2019-03-28 15:57:33,815 DEBUG EInvoice.CAdmin.Controllers.EInvoiceController  [0100113007_admin_demo]['ahybhcixdz21rf0nv4va3kbt][113.160.13.121][113.160.13.121][Index] - EInvoiceController Index 
2019-03-28 15:57:33,815 INFO EInvoice.CAdmin.Controllers.EInvoiceController  [0100113007_admin_demo]['ahybhcixdz21rf0nv4va3kbt][113.160.13.121][113.160.13.121][Index] - Index1937 pattern:  serial:  
2019-03-28 15:57:33,862 DEBUG EInvoice.CAdmin.Controllers.CompanyController  [0100113007_admin_demo]['ahybhcixdz21rf0nv4va3kbt][113.160.13.121][113.160.13.121][MenuBycomp] - MenuBycomp 
2019-03-28 15:57:37,825 DEBUG EInvoice.CAdmin.Controllers.CompanyController  [0100113007_admin_demo]['ahybhcixdz21rf0nv4va3kbt][113.160.13.121][113.160.13.121][MenuBycomp] - MenuBycomp 
2019-03-28 15:59:14,420 DEBUG EInvoice.CAdmin.Controllers.CompanyController  [0100113007_admin_demo]['ahybhcixdz21rf0nv4va3kbt][113.160.13.121][113.160.13.121][MenuBycomp] - MenuBycomp 
2019-03-28 16:00:51,139 DEBUG EInvoice.CAdmin.Controllers.CompanyController  [0100113007_admin_demo]['ahybhcixdz21rf0nv4va3kbt][113.160.13.121][113.160.13.121][MenuBycomp] - MenuBycomp 
2019-03-28 16:01:08,146 DEBUG EInvoice.CAdmin.Controllers.CompanyController  [0100113007_admin_demo]['ahybhcixdz21rf0nv4va3kbt][113.160.13.121][113.160.13.121][MenuBycomp] - MenuBycomp 
2019-03-28 16:02:28,065 DEBUG EInvoice.CAdmin.Controllers.CompanyController  [0100113007_admin_demo]['ahybhcixdz21rf0nv4va3kbt][113.160.13.121][113.160.13.121][MenuBycomp] - MenuBycomp 
2019-03-28 16:27:51,110 INFO EInvoice.CAdmin.Controllers.AccountController  []['j4ull0mvhxaai52crol0h2sb][113.160.13.121][113.160.13.121][LogOn] - Login: 0100113007_admin_demo 
2019-03-28 16:27:51,156 INFO EInvoice.CAdmin.Controllers.AccountController  []['j4ull0mvhxaai52crol0h2sb][113.160.13.121][113.160.13.121][LogOn] - LogOn:, Date:28/03/2019 4:27:51 CH 
2019-03-28 16:27:51,156 DEBUG EInvoice.CAdmin.Controllers.EInvoiceController  [0100113007_admin_demo]['j4ull0mvhxaai52crol0h2sb][113.160.13.121][113.160.13.121][Index] - EInvoiceController Index 
2019-03-28 16:27:51,156 INFO EInvoice.CAdmin.Controllers.EInvoiceController  [0100113007_admin_demo]['j4ull0mvhxaai52crol0h2sb][113.160.13.121][113.160.13.121][Index] - Index1937 pattern:  serial:  
2019-03-28 16:27:51,219 DEBUG EInvoice.CAdmin.Controllers.CompanyController  [0100113007_admin_demo]['j4ull0mvhxaai52crol0h2sb][113.160.13.121][113.160.13.121][MenuBycomp] - MenuBycomp 
2019-03-28 16:27:56,632 DEBUG EInvoice.CAdmin.Controllers.CompanyController  [0100113007_admin_demo]['j4ull0mvhxaai52crol0h2sb][113.160.13.121][113.160.13.121][MenuBycomp] - MenuBycomp 
2019-03-28 16:28:29,787 DEBUG EInvoice.CAdmin.Controllers.EInvoiceController  [0100113007_admin_demo]['j4ull0mvhxaai52crol0h2sb][113.160.13.121][113.160.13.121][Index] - EInvoiceController Index 
2019-03-28 16:28:29,787 INFO EInvoice.CAdmin.Controllers.EInvoiceController  [0100113007_admin_demo]['j4ull0mvhxaai52crol0h2sb][113.160.13.121][113.160.13.121][Index] - Index1937 pattern:  serial:  
2019-03-28 16:28:29,834 DEBUG EInvoice.CAdmin.Controllers.CompanyController  [0100113007_admin_demo]['j4ull0mvhxaai52crol0h2sb][113.160.13.121][113.160.13.121][MenuBycomp] - MenuBycomp 
2019-03-28 16:28:34,482 INFO EInvoice.CAdmin.Controllers.ShareController  [0100113007_admin_demo]['j4ull0mvhxaai52crol0h2sb][113.160.13.121][113.160.13.121][ajxPreview] - call: cnWH+/5ZPvHIiznwKKxMrg== pattern: 01GTKT0/001 company: 1937 
2019-03-28 16:28:34,904 DEBUG EInvoice.CAdmin.Controllers.EInvoiceController  [0100113007_admin_demo]['j4ull0mvhxaai52crol0h2sb][113.160.13.121][113.160.13.121][Index] - EInvoiceController Index 
2019-03-28 16:28:34,904 INFO EInvoice.CAdmin.Controllers.EInvoiceController  [0100113007_admin_demo]['j4ull0mvhxaai52crol0h2sb][113.160.13.121][113.160.13.121][Index] - Index1937 pattern:  serial:  
2019-03-28 16:28:34,966 DEBUG EInvoice.CAdmin.Controllers.CompanyController  [0100113007_admin_demo]['j4ull0mvhxaai52crol0h2sb][113.160.13.121][113.160.13.121][MenuBycomp] - MenuBycomp 
2019-03-28 16:49:04,467 DEBUG EInvoice.CAdmin.Controllers.CompanyController  [0100113007_admin_demo]['j4ull0mvhxaai52crol0h2sb][113.160.13.121][113.160.13.121][MenuBycomp] - MenuBycomp 
2019-03-28 16:56:40,236 DEBUG EInvoice.CAdmin.Controllers.EInvoiceController  [0100113007_admin_demo]['j4ull0mvhxaai52crol0h2sb][113.160.13.121][113.160.13.121][Index] - EInvoiceController Index 
2019-03-28 16:56:40,236 INFO EInvoice.CAdmin.Controllers.EInvoiceController  [0100113007_admin_demo]['j4ull0mvhxaai52crol0h2sb][113.160.13.121][113.160.13.121][Index] - Index1937 pattern:  serial:  
2019-03-28 16:56:40,283 DEBUG EInvoice.CAdmin.Controllers.CompanyController  [0100113007_admin_demo]['j4ull0mvhxaai52crol0h2sb][113.160.13.121][113.160.13.121][MenuBycomp] - MenuBycomp 
2019-03-28 18:21:56,381 INFO EInvoice.CAdmin.Controllers.AccountController  []['lbjq2yapd0hsnwuvunmdmvwe][203.162.100.29][203.162.100.29][LogOn] - Login: 0100113007_admin_demo 
2019-03-28 18:21:57,192 INFO EInvoice.CAdmin.Controllers.AccountController  []['lbjq2yapd0hsnwuvunmdmvwe][203.162.100.29][203.162.100.29][LogOn] - LogOn:, Date:28/03/2019 6:21:57 CH 
2019-03-28 18:21:59,064 DEBUG EInvoice.CAdmin.Controllers.CompanyController  [0100113007_admin_demo]['lbjq2yapd0hsnwuvunmdmvwe][203.162.100.29][203.162.100.29][MenuBycomp] - MenuBycomp 
2019-03-28 18:22:18,657 DEBUG EInvoice.CAdmin.Controllers.CompanyController  [0100113007_admin_demo]['lbjq2yapd0hsnwuvunmdmvwe][203.162.100.29][203.162.100.29][MenuBycomp] - MenuBycomp 
2019-03-28 18:22:19,188 DEBUG EInvoice.CAdmin.Controllers.CompanyController  [0100113007_admin_demo]['lbjq2yapd0hsnwuvunmdmvwe][203.162.100.29][203.162.100.29][MenuBycomp] - MenuBycomp 
