2018-11-12 16:31:49,397 INFO EInvoice.CAdmin.Controllers.AccountController - Login: pesvnadmin 
2018-11-12 16:31:54,421 INFO EInvoice.CAdmin.Controllers.AccountController - LogOn:, Date:12/11/2018 4:31:54 CH 
2018-11-12 16:32:13,578 DEBUG EInvoice.CAdmin.Controllers.CompanyController - MenuBycomp 
2018-11-12 16:32:20,361 DEBUG EInvoice.CAdmin.Controllers.CompanyController - MenuBycomp 
2018-11-12 16:32:31,687 DEBUG EInvoice.CAdmin.Controllers.EInvoiceController - EInvoiceController Index 
2018-11-12 16:32:31,688 INFO EInvoice.CAdmin.Controllers.EInvoiceController - Index1927 pattern:  serial:  
2018-11-12 16:32:32,049 DEBUG EInvoice.CAdmin.Controllers.CompanyController - MenuBycomp 
2018-11-12 16:32:55,179 DEBUG EInvoice.CAdmin.Controllers.CompanyController - MenuBycomp 
2018-11-12 16:35:44,459 DEBUG EInvoice.CAdmin.Controllers.CompanyController - MenuBycomp 
2018-11-12 16:38:52,267 INFO EInvoice.CAdmin.Controllers.PublishController - Create Decision by: pesvnadmin 
2018-11-12 16:38:52,348 DEBUG EInvoice.CAdmin.Controllers.CompanyController - MenuBycomp 
2018-11-12 16:38:57,543 DEBUG EInvoice.CAdmin.Controllers.CompanyController - MenuBycomp 
2018-11-12 16:39:00,678 INFO EInvoice.CAdmin.Controllers.PublishController - EditDecision by: pesvnadmin 
2018-11-12 16:39:00,730 DEBUG EInvoice.CAdmin.Controllers.CompanyController - MenuBycomp 
2018-11-12 16:39:15,823 DEBUG EInvoice.CAdmin.Controllers.CompanyController - MenuBycomp 
2018-11-12 16:39:21,816 DEBUG EInvoice.CAdmin.Controllers.CompanyController - MenuBycomp 
2018-11-12 16:39:25,131 DEBUG EInvoice.CAdmin.Controllers.CompanyController - MenuBycomp 
2018-11-12 16:40:41,105 INFO EInvoice.CAdmin.Controllers.PublishController - Create Publish by: pesvnadmin|InvInfo:2922;VN/18E;500;1;500_ 
2018-11-12 16:40:41,177 DEBUG EInvoice.CAdmin.Controllers.CompanyController - MenuBycomp 
2018-11-12 16:40:49,975 ERROR EInvoice.CAdmin.Controllers.PublishController - Bat dau gui thong bao phat hanh 
2018-11-12 16:40:50,001 INFO EInvoice.CAdmin.Controllers.PublishController - SelectedPublish Publish by: pesvnadmin Info-- ID: 4972 
2018-11-12 16:40:50,096 INFO EInvoice.CAdmin.Controllers.PublishController - SelectedPublish Publish by: pesvnadmin Info-- ID: 4972 
2018-11-12 16:40:57,279 DEBUG EInvoice.CAdmin.Controllers.CompanyController - MenuBycomp 
2018-11-12 16:41:00,478 DEBUG EInvoice.CAdmin.Controllers.EInvoiceController - EInvoiceController Index 
2018-11-12 16:41:00,478 INFO EInvoice.CAdmin.Controllers.EInvoiceController - Index1927 pattern:  serial:  
2018-11-12 16:41:00,571 ERROR EInvoice.CAdmin.Controllers.EInvoiceController - Index -Value cannot be null.
Parameter name: service 
2018-11-12 16:41:00,626 DEBUG EInvoice.CAdmin.Controllers.CompanyController - MenuBycomp 
2018-11-12 17:42:59,217 INFO EInvoice.CAdmin.Controllers.AccountController - Login: pesvnadmin 
2018-11-12 17:42:59,269 INFO EInvoice.CAdmin.Controllers.AccountController - LogOn:, Date:12/11/2018 5:42:59 CH 
2018-11-12 17:42:59,314 DEBUG EInvoice.CAdmin.Controllers.CompanyController - MenuBycomp 
2018-11-12 17:43:02,123 DEBUG EInvoice.CAdmin.Controllers.EInvoiceController - EInvoiceController Index 
2018-11-12 17:43:02,123 INFO EInvoice.CAdmin.Controllers.EInvoiceController - Index1927 pattern:  serial:  
2018-11-12 17:43:02,143 ERROR EInvoice.CAdmin.Controllers.EInvoiceController - Index -Value cannot be null.
Parameter name: service 
2018-11-12 17:43:02,176 DEBUG EInvoice.CAdmin.Controllers.CompanyController - MenuBycomp 
2018-11-12 17:43:04,269 DEBUG EInvoice.CAdmin.Controllers.EInvoiceController - EInvoiceController Index 
2018-11-12 17:43:04,270 INFO EInvoice.CAdmin.Controllers.EInvoiceController - Index1927 pattern:  serial:  
2018-11-12 17:43:04,285 ERROR EInvoice.CAdmin.Controllers.EInvoiceController - Index -Value cannot be null.
Parameter name: service 
2018-11-12 17:43:04,314 DEBUG EInvoice.CAdmin.Controllers.CompanyController - MenuBycomp 
2018-11-12 18:01:28,725 DEBUG EInvoice.CAdmin.Controllers.CompanyController - MenuBycomp 
