2018-12-05 08:46:03,042 INFO EInvoice.CAdmin.Controllers.AccountController - Login: pesvnadmin 
2018-12-05 08:46:07,045 INFO EInvoice.CAdmin.Controllers.AccountController - LogOn:, Date:05/12/2018 8:46:07 SA 
2018-12-05 08:46:07,292 DEBUG EInvoice.CAdmin.Controllers.CompanyController - MenuBycomp 
2018-12-05 08:46:14,777 DEBUG EInvoice.CAdmin.Controllers.EInvoiceController - EInvoiceController Index 
2018-12-05 08:46:14,777 INFO EInvoice.CAdmin.Controllers.EInvoiceController - Index1927 pattern:  serial:  
2018-12-05 08:46:15,492 DEBUG EInvoice.CAdmin.Controllers.CompanyController - MenuBycomp 
2018-12-05 08:46:25,166 DEBUG EInvoice.CAdmin.Controllers.CompanyController - MenuBycomp 
2018-12-05 08:46:34,273 INFO EInvoice.CAdmin.Controllers.EInvoiceController - Edit EInvoice by: pesvnadmin Info-- TenKhachHang: Nghiep Test MaKhachHang: Test SoTien: 550000 
2018-12-05 08:46:34,321 DEBUG EInvoice.CAdmin.Controllers.EInvoiceController - EInvoiceController Index 
2018-12-05 08:46:34,321 INFO EInvoice.CAdmin.Controllers.EInvoiceController - Index1927 pattern: 01GTKT0/001 serial: PS/18E 
2018-12-05 08:46:34,408 DEBUG EInvoice.CAdmin.Controllers.CompanyController - MenuBycomp 
2018-12-05 08:46:36,993 DEBUG EInvoice.CAdmin.Controllers.CompanyController - MenuBycomp 
2018-12-05 08:46:46,092 INFO EInvoice.CAdmin.Controllers.AccountController - LogOut:pesvnadmin, Date:05/12/2018 8:46:46 SA 
2018-12-05 10:00:01,145 INFO EInvoice.CAdmin.Controllers.AccountController - Login: pesvnadmin 
2018-12-05 10:00:03,020 INFO EInvoice.CAdmin.Controllers.AccountController - LogOn:, Date:05/12/2018 10:00:03 SA 
2018-12-05 10:00:05,004 DEBUG EInvoice.CAdmin.Controllers.CompanyController - MenuBycomp 
2018-12-05 10:07:07,970 INFO EInvoice.CAdmin.Controllers.AccountController - Login: pesvnadmin 
2018-12-05 10:07:08,006 INFO EInvoice.CAdmin.Controllers.AccountController - LogOn:, Date:05/12/2018 10:07:08 SA 
2018-12-05 10:07:08,078 DEBUG EInvoice.CAdmin.Controllers.CompanyController - MenuBycomp 
2018-12-05 10:07:14,449 DEBUG EInvoice.CAdmin.Controllers.EInvoiceController - EInvoiceController Index 
2018-12-05 10:07:14,450 INFO EInvoice.CAdmin.Controllers.EInvoiceController - Index1927 pattern:  serial:  
2018-12-05 10:07:14,925 DEBUG EInvoice.CAdmin.Controllers.CompanyController - MenuBycomp 
2018-12-05 10:07:22,784 DEBUG EInvoice.CAdmin.Controllers.CompanyController - MenuBycomp 
2018-12-05 10:10:37,191 INFO EInvoice.CAdmin.Controllers.AccountController - LogOut:pesvnadmin, Date:05/12/2018 10:10:37 SA 
