2018-12-03 11:22:31,956 INFO EInvoice.CAdmin.Controllers.AccountController - Login: pesvnadmin 
2018-12-03 11:22:34,252 INFO EInvoice.CAdmin.Controllers.AccountController - LogOn:, Date:03/12/2018 11:22:34 SA 
2018-12-03 11:22:51,951 DEBUG EInvoice.CAdmin.Controllers.CompanyController - MenuBycomp 
2018-12-03 11:25:47,982 DEBUG EInvoice.CAdmin.Controllers.CompanyController - MenuBycomp 
2018-12-03 11:25:57,347 DEBUG EInvoice.CAdmin.Controllers.CompanyController - MenuBycomp 
2018-12-03 11:26:13,723 DEBUG EInvoice.CAdmin.Controllers.CompanyController - MenuBycomp 
2018-12-03 11:26:34,410 DEBUG EInvoice.CAdmin.Controllers.CompanyController - MenuBycomp 
2018-12-03 11:26:45,134 DEBUG EInvoice.CAdmin.Controllers.CompanyController - MenuBycomp 
2018-12-03 11:27:08,532 DEBUG EInvoice.CAdmin.Controllers.CompanyController - MenuBycomp 
2018-12-03 11:27:24,714 DEBUG EInvoice.CAdmin.Controllers.CompanyController - MenuBycomp 
2018-12-03 11:28:14,645 DEBUG EInvoice.CAdmin.Controllers.CompanyController - MenuBycomp 
2018-12-03 11:31:42,714 DEBUG EInvoice.CAdmin.Controllers.CompanyController - MenuBycomp 
2018-12-03 11:31:55,129 DEBUG EInvoice.CAdmin.Controllers.CompanyController - MenuBycomp 
2018-12-03 11:31:59,892 DEBUG EInvoice.CAdmin.Controllers.CompanyController - MenuBycomp 
2018-12-03 12:02:44,379 INFO EInvoice.CAdmin.Controllers.AccountController - Login: pesvnadmin 
2018-12-03 12:02:46,525 INFO EInvoice.CAdmin.Controllers.AccountController - LogOn:, Date:03/12/2018 12:02:46 CH 
2018-12-03 12:02:48,822 DEBUG EInvoice.CAdmin.Controllers.CompanyController - MenuBycomp 
2018-12-03 12:03:07,713 DEBUG EInvoice.CAdmin.Controllers.CompanyController - MenuBycomp 
2018-12-03 12:03:27,756 DEBUG EInvoice.CAdmin.Controllers.CompanyController - MenuBycomp 
2018-12-03 12:03:56,828 DEBUG EInvoice.CAdmin.Controllers.CompanyController - MenuBycomp 
2018-12-03 12:45:57,666 INFO EInvoice.CAdmin.Controllers.AccountController - Login: pesvnadmin 
2018-12-03 12:45:59,700 INFO EInvoice.CAdmin.Controllers.AccountController - LogOn:, Date:03/12/2018 12:45:59 CH 
2018-12-03 12:45:59,846 INFO EInvoice.CAdmin.Controllers.AccountController - Login: pesvnadmin 
2018-12-03 12:45:59,890 INFO EInvoice.CAdmin.Controllers.AccountController - LogOn:, Date:03/12/2018 12:45:59 CH 
2018-12-03 12:46:02,480 DEBUG EInvoice.CAdmin.Controllers.CompanyController - MenuBycomp 
2018-12-03 12:46:49,578 DEBUG EInvoice.CAdmin.Controllers.CompanyController - MenuBycomp 
2018-12-03 12:47:49,869 DEBUG EInvoice.CAdmin.Controllers.CompanyController - MenuBycomp 
2018-12-03 12:57:30,880 DEBUG EInvoice.CAdmin.Controllers.CompanyController - MenuBycomp 
2018-12-03 12:57:33,723 INFO EInvoice.CAdmin.Controllers.AccountController - LogOut:pesvnadmin, Date:03/12/2018 12:57:33 CH 
2018-12-03 12:58:14,487 INFO EInvoice.CAdmin.Controllers.AccountController - Login: pesvnadmin 
2018-12-03 12:58:14,530 INFO EInvoice.CAdmin.Controllers.AccountController - LogOn:, Date:03/12/2018 12:58:14 CH 
2018-12-03 12:58:14,601 DEBUG EInvoice.CAdmin.Controllers.CompanyController - MenuBycomp 
2018-12-03 12:58:18,291 DEBUG EInvoice.CAdmin.Controllers.CompanyController - MenuBycomp 
2018-12-03 12:58:21,083 DEBUG EInvoice.CAdmin.Controllers.CompanyController - MenuBycomp 
2018-12-03 12:58:39,636 DEBUG EInvoice.CAdmin.Controllers.CompanyController - MenuBycomp 
2018-12-03 12:58:46,738 DEBUG EInvoice.CAdmin.Controllers.CompanyController - MenuBycomp 
2018-12-03 12:58:48,998 INFO EInvoice.CAdmin.Controllers.AccountController - LogOut:pesvnadmin, Date:03/12/2018 12:58:48 CH 
2018-12-03 12:58:58,623 INFO EInvoice.CAdmin.Controllers.AccountController - Login: V000008 
2018-12-03 12:59:20,540 ERROR EInvoice.Core.ServiceImp.SendEmailService - System.ArgumentException: The parameter 'address' cannot be an empty string.
Parameter name: address
   at System.Net.Mail.MailAddress..ctor(String address, String displayName, Encoding displayNameEncoding)
   at EInvoice.Core.ServiceImp.SendEmailService.SendMail(Email email) 
2018-12-03 12:59:54,109 INFO EInvoice.CAdmin.Controllers.AccountController - Login: pesvnadmin 
2018-12-03 12:59:54,144 INFO EInvoice.CAdmin.Controllers.AccountController - LogOn:, Date:03/12/2018 12:59:54 CH 
2018-12-03 12:59:54,180 DEBUG EInvoice.CAdmin.Controllers.CompanyController - MenuBycomp 
2018-12-03 13:00:09,597 DEBUG EInvoice.CAdmin.Controllers.CompanyController - MenuBycomp 
2018-12-03 13:00:12,076 DEBUG EInvoice.CAdmin.Controllers.CompanyController - MenuBycomp 
2018-12-03 13:00:18,155 DEBUG EInvoice.CAdmin.Controllers.CompanyController - MenuBycomp 
2018-12-03 13:00:39,544 INFO EInvoice.CAdmin.Controllers.AccountController - Update Account:pesvnadmin, Date: 03/12/2018 1:00:39 CH 
2018-12-03 13:00:39,594 DEBUG EInvoice.CAdmin.Controllers.CompanyController - MenuBycomp 
2018-12-03 13:01:39,146 INFO EInvoice.CAdmin.Controllers.AccountController - LogOut:pesvnadmin, Date:03/12/2018 1:01:39 CH 
2018-12-03 13:01:52,068 INFO EInvoice.CAdmin.Controllers.AccountController - Login: V000008 
2018-12-03 13:01:52,113 INFO EInvoice.CAdmin.Controllers.AccountController - LogOn:, Date:03/12/2018 1:01:52 CH 
2018-12-03 13:01:52,149 DEBUG EInvoice.CAdmin.Controllers.CompanyController - MenuBycomp 
2018-12-03 13:02:07,203 DEBUG EInvoice.CAdmin.Controllers.CompanyController - MenuBycomp 
2018-12-03 13:03:33,557 INFO EInvoice.CAdmin.Controllers.AccountController - LogOut:V000008, Date:03/12/2018 1:03:33 CH 
2018-12-03 13:05:58,822 ERROR EInvoice.Core.ServiceImp.SendEmailService - System.ArgumentException: The parameter 'address' cannot be an empty string.
Parameter name: address
   at System.Net.Mail.MailAddress..ctor(String address, String displayName, Encoding displayNameEncoding)
   at EInvoice.Core.ServiceImp.SendEmailService.SendMail(Email email) 
